%!PS-Adobe-2.0 EPSF-2.0
%%Title: /home/alex/cord/org.cord/docs/ExtendedSingleImage-uml.dia
%%Creator: Dia v0.88.1
%%CreationDate: Thu Dec 12 19:48:23 2002
%%For: a user
%%Magnification: 1.0000
%%Orientation: Portrait
%%BoundingBox: 0 0 436 311
%%Pages: 1
%%BeginSetup
%%EndSetup
%%EndComments
%%BeginProlog
[ /.notdef /.notdef /.notdef /.notdef /.notdef /.notdef /.notdef /.notdef /.notdef /.notdef
/.notdef /.notdef /.notdef /.notdef /.notdef /.notdef /.notdef /.notdef /.notdef /.notdef
/.notdef /.notdef /.notdef /.notdef /.notdef /.notdef /.notdef /.notdef /.notdef /.notdef
/.notdef /.notdef /space /exclam /quotedbl /numbersign /dollar /percent /ampersand /quoteright
/parenleft /parenright /asterisk /plus /comma /hyphen /period /slash /zero /one
/two /three /four /five /six /seven /eight /nine /colon /semicolon
/less /equal /greater /question /at /A /B /C /D /E
/F /G /H /I /J /K /L /M /N /O
/P /Q /R /S /T /U /V /W /X /Y
/Z /bracketleft /backslash /bracketright /asciicircum /underscore /quoteleft /a /b /c
/d /e /f /g /h /i /j /k /l /m
/n /o /p /q /r /s /t /u /v /w
/x /y /z /braceleft /bar /braceright /asciitilde /.notdef /.notdef /.notdef
/.notdef /.notdef /.notdef /.notdef /.notdef /.notdef /.notdef /.notdef /.notdef /.notdef
/.notdef /.notdef /.notdef /.notdef /.notdef /.notdef /.notdef /.notdef /.notdef /.notdef
/.notdef /.notdef /.notdef /.notdef /.notdef /.notdef /.notdef /.notdef /.notdef /.notdef
/space /exclamdown /cent /sterling /currency /yen /brokenbar /section /dieresis /copyright
/ordfeminine /guillemotleft /logicalnot /hyphen /registered /macron /degree /plusminus /twosuperior /threesuperior
/acute /mu /paragraph /periodcentered /cedilla /onesuperior /ordmasculine /guillemotright /onequarter /onehalf
/threequarters /questiondown /Agrave /Aacute /Acircumflex /Atilde /Adieresis /Aring /AE /Ccedilla
/Egrave /Eacute /Ecircumflex /Edieresis /Igrave /Iacute /Icircumflex /Idieresis /Eth /Ntilde
/Ograve /Oacute /Ocircumflex /Otilde /Odieresis /multiply /Oslash /Ugrave /Uacute /Ucircumflex
/Udieresis /Yacute /Thorn /germandbls /agrave /aacute /acircumflex /atilde /adieresis /aring
/ae /ccedilla /egrave /eacute /ecircumflex /edieresis /igrave /iacute /icircumflex /idieresis
/eth /ntilde /ograve /oacute /ocircumflex /otilde /odieresis /divide /oslash /ugrave
/uacute /ucircumflex /udieresis /yacute /thorn /ydieresis] /isolatin1encoding exch def
/Times-Roman-latin1
    /Times-Roman findfont
    dup length dict begin
	{1 index /FID ne {def} {pop pop} ifelse} forall
	/Encoding isolatin1encoding def
    currentdict end
definefont pop
/Times-Italic-latin1
    /Times-Italic findfont
    dup length dict begin
	{1 index /FID ne {def} {pop pop} ifelse} forall
	/Encoding isolatin1encoding def
    currentdict end
definefont pop
/Times-Bold-latin1
    /Times-Bold findfont
    dup length dict begin
	{1 index /FID ne {def} {pop pop} ifelse} forall
	/Encoding isolatin1encoding def
    currentdict end
definefont pop
/Times-BoldItalic-latin1
    /Times-BoldItalic findfont
    dup length dict begin
	{1 index /FID ne {def} {pop pop} ifelse} forall
	/Encoding isolatin1encoding def
    currentdict end
definefont pop
/AvantGarde-Book-latin1
    /AvantGarde-Book findfont
    dup length dict begin
	{1 index /FID ne {def} {pop pop} ifelse} forall
	/Encoding isolatin1encoding def
    currentdict end
definefont pop
/AvantGarde-BookOblique-latin1
    /AvantGarde-BookOblique findfont
    dup length dict begin
	{1 index /FID ne {def} {pop pop} ifelse} forall
	/Encoding isolatin1encoding def
    currentdict end
definefont pop
/AvantGarde-Demi-latin1
    /AvantGarde-Demi findfont
    dup length dict begin
	{1 index /FID ne {def} {pop pop} ifelse} forall
	/Encoding isolatin1encoding def
    currentdict end
definefont pop
/AvantGarde-DemiOblique-latin1
    /AvantGarde-DemiOblique findfont
    dup length dict begin
	{1 index /FID ne {def} {pop pop} ifelse} forall
	/Encoding isolatin1encoding def
    currentdict end
definefont pop
/Bookman-Light-latin1
    /Bookman-Light findfont
    dup length dict begin
	{1 index /FID ne {def} {pop pop} ifelse} forall
	/Encoding isolatin1encoding def
    currentdict end
definefont pop
/Bookman-LightItalic-latin1
    /Bookman-LightItalic findfont
    dup length dict begin
	{1 index /FID ne {def} {pop pop} ifelse} forall
	/Encoding isolatin1encoding def
    currentdict end
definefont pop
/Bookman-Demi-latin1
    /Bookman-Demi findfont
    dup length dict begin
	{1 index /FID ne {def} {pop pop} ifelse} forall
	/Encoding isolatin1encoding def
    currentdict end
definefont pop
/Bookman-DemiItalic-latin1
    /Bookman-DemiItalic findfont
    dup length dict begin
	{1 index /FID ne {def} {pop pop} ifelse} forall
	/Encoding isolatin1encoding def
    currentdict end
definefont pop
/Courier-latin1
    /Courier findfont
    dup length dict begin
	{1 index /FID ne {def} {pop pop} ifelse} forall
	/Encoding isolatin1encoding def
    currentdict end
definefont pop
/Courier-Oblique-latin1
    /Courier-Oblique findfont
    dup length dict begin
	{1 index /FID ne {def} {pop pop} ifelse} forall
	/Encoding isolatin1encoding def
    currentdict end
definefont pop
/Courier-Bold-latin1
    /Courier-Bold findfont
    dup length dict begin
	{1 index /FID ne {def} {pop pop} ifelse} forall
	/Encoding isolatin1encoding def
    currentdict end
definefont pop
/Courier-BoldOblique-latin1
    /Courier-BoldOblique findfont
    dup length dict begin
	{1 index /FID ne {def} {pop pop} ifelse} forall
	/Encoding isolatin1encoding def
    currentdict end
definefont pop
/Helvetica-latin1
    /Helvetica findfont
    dup length dict begin
	{1 index /FID ne {def} {pop pop} ifelse} forall
	/Encoding isolatin1encoding def
    currentdict end
definefont pop
/Helvetica-Oblique-latin1
    /Helvetica-Oblique findfont
    dup length dict begin
	{1 index /FID ne {def} {pop pop} ifelse} forall
	/Encoding isolatin1encoding def
    currentdict end
definefont pop
/Helvetica-Bold-latin1
    /Helvetica-Bold findfont
    dup length dict begin
	{1 index /FID ne {def} {pop pop} ifelse} forall
	/Encoding isolatin1encoding def
    currentdict end
definefont pop
/Helvetica-BoldOblique-latin1
    /Helvetica-BoldOblique findfont
    dup length dict begin
	{1 index /FID ne {def} {pop pop} ifelse} forall
	/Encoding isolatin1encoding def
    currentdict end
definefont pop
/Helvetica-Narrow-latin1
    /Helvetica-Narrow findfont
    dup length dict begin
	{1 index /FID ne {def} {pop pop} ifelse} forall
	/Encoding isolatin1encoding def
    currentdict end
definefont pop
/Helvetica-Narrow-Oblique-latin1
    /Helvetica-Narrow-Oblique findfont
    dup length dict begin
	{1 index /FID ne {def} {pop pop} ifelse} forall
	/Encoding isolatin1encoding def
    currentdict end
definefont pop
/Helvetica-Narrow-Bold-latin1
    /Helvetica-Narrow-Bold findfont
    dup length dict begin
	{1 index /FID ne {def} {pop pop} ifelse} forall
	/Encoding isolatin1encoding def
    currentdict end
definefont pop
/Helvetica-Narrow-BoldOblique-latin1
    /Helvetica-Narrow-BoldOblique findfont
    dup length dict begin
	{1 index /FID ne {def} {pop pop} ifelse} forall
	/Encoding isolatin1encoding def
    currentdict end
definefont pop
/NewCenturySchoolbook-Roman-latin1
    /NewCenturySchoolbook-Roman findfont
    dup length dict begin
	{1 index /FID ne {def} {pop pop} ifelse} forall
	/Encoding isolatin1encoding def
    currentdict end
definefont pop
/NewCenturySchoolbook-Italic-latin1
    /NewCenturySchoolbook-Italic findfont
    dup length dict begin
	{1 index /FID ne {def} {pop pop} ifelse} forall
	/Encoding isolatin1encoding def
    currentdict end
definefont pop
/NewCenturySchoolbook-Bold-latin1
    /NewCenturySchoolbook-Bold findfont
    dup length dict begin
	{1 index /FID ne {def} {pop pop} ifelse} forall
	/Encoding isolatin1encoding def
    currentdict end
definefont pop
/NewCenturySchoolbook-BoldItalic-latin1
    /NewCenturySchoolbook-BoldItalic findfont
    dup length dict begin
	{1 index /FID ne {def} {pop pop} ifelse} forall
	/Encoding isolatin1encoding def
    currentdict end
definefont pop
/Palatino-Roman-latin1
    /Palatino-Roman findfont
    dup length dict begin
	{1 index /FID ne {def} {pop pop} ifelse} forall
	/Encoding isolatin1encoding def
    currentdict end
definefont pop
/Palatino-Italic-latin1
    /Palatino-Italic findfont
    dup length dict begin
	{1 index /FID ne {def} {pop pop} ifelse} forall
	/Encoding isolatin1encoding def
    currentdict end
definefont pop
/Palatino-Bold-latin1
    /Palatino-Bold findfont
    dup length dict begin
	{1 index /FID ne {def} {pop pop} ifelse} forall
	/Encoding isolatin1encoding def
    currentdict end
definefont pop
/Palatino-BoldItalic-latin1
    /Palatino-BoldItalic findfont
    dup length dict begin
	{1 index /FID ne {def} {pop pop} ifelse} forall
	/Encoding isolatin1encoding def
    currentdict end
definefont pop
/Symbol-latin1
    /Symbol findfont
definefont pop
/ZapfChancery-MediumItalic-latin1
    /ZapfChancery-MediumItalic findfont
    dup length dict begin
	{1 index /FID ne {def} {pop pop} ifelse} forall
	/Encoding isolatin1encoding def
    currentdict end
definefont pop
/ZapfDingbats-latin1
    /ZapfDingbats findfont
definefont pop
/Ryumin-Light-EUC-H-latin1
    /Ryumin-Light-EUC-H findfont
definefont pop
/GothicBBB-Medium-EUC-H-latin1
    /GothicBBB-Medium-EUC-H findfont
definefont pop
/cp {closepath} bind def
/c {curveto} bind def
/f {fill} bind def
/a {arc} bind def
/ef {eofill} bind def
/ex {exch} bind def
/gr {grestore} bind def
/gs {gsave} bind def
/sa {save} bind def
/rs {restore} bind def
/l {lineto} bind def
/m {moveto} bind def
/rm {rmoveto} bind def
/n {newpath} bind def
/s {stroke} bind def
/sh {show} bind def
/slc {setlinecap} bind def
/slj {setlinejoin} bind def
/slw {setlinewidth} bind def
/srgb {setrgbcolor} bind def
/rot {rotate} bind def
/sc {scale} bind def
/sd {setdash} bind def
/ff {findfont} bind def
/sf {setfont} bind def
/scf {scalefont} bind def
/sw {stringwidth pop} bind def
/tr {translate} bind def

/ellipsedict 8 dict def
ellipsedict /mtrx matrix put
/ellipse
{ ellipsedict begin
   /endangle exch def
   /startangle exch def
   /yrad exch def
   /xrad exch def
   /y exch def
   /x exch def   /savematrix mtrx currentmatrix def
   x y tr xrad yrad sc
   0 0 1 startangle endangle arc
   savematrix setmatrix
   end
} def

/mergeprocs {
dup length
3 -1 roll
dup
length
dup
5 1 roll
3 -1 roll
add
array cvx
dup
3 -1 roll
0 exch
putinterval
dup
4 2 roll
putinterval
} bind def
6.681042 -6.681042 scale
-0.950000 -65.450000 translate
%%EndProlog


0.100000 slw
[] 0 sd
1.000000 1.000000 1.000000 srgb
n 1.000000 23.000000 m 1.000000 24.400000 l 32.342400 24.400000 l 32.342400 23.000000 l f
0.000000 0.000000 0.000000 srgb
n 1.000000 23.000000 m 1.000000 24.400000 l 32.342400 24.400000 l 32.342400 23.000000 l cp s
/Helvetica-Bold-latin1 ff 1.000000 scf sf
(SingleExtendedImage) dup sw 2 div 16.671200 ex sub 24.000000 m gs 1 -1 sc sh gr
1.000000 1.000000 1.000000 srgb
n 1.000000 24.400000 m 1.000000 32.600000 l 32.342400 32.600000 l 32.342400 24.400000 l f
0.000000 0.000000 0.000000 srgb
n 1.000000 24.400000 m 1.000000 32.600000 l 32.342400 32.600000 l 32.342400 24.400000 l cp s
/Courier-latin1 ff 0.800000 scf sf
(+id: INT) 1.150000 25.134483 m gs 1 -1 sc sh gr
/Courier-latin1 ff 0.800000 scf sf
(+style_id: INT) 1.150000 25.934483 m gs 1 -1 sc sh gr
/Courier-latin1 ff 0.800000 scf sf
(+isDefined: BOOLEAN = SingleImageStyle.isDefined) 1.150000 26.734483 m gs 1 -1 sc sh gr
/Courier-latin1 ff 0.800000 scf sf
(+webpath: CHAR\(255\) = singleImageStyle.webpathRoot + id + .png ) 1.150000 27.534483 m gs 1 -1 sc sh gr
/Courier-latin1 ff 0.800000 scf sf
(+width: INT = SingleImageStyle.maxWidth) 1.150000 28.334483 m gs 1 -1 sc sh gr
/Courier-latin1 ff 0.800000 scf sf
(+height: INT = SingleImageStyle.maxHeight) 1.150000 29.134483 m gs 1 -1 sc sh gr
/Courier-latin1 ff 0.800000 scf sf
(+alt: CHAR\(255\) = SingleImageStyle.name) 1.150000 29.934483 m gs 1 -1 sc sh gr
/Courier-latin1 ff 0.800000 scf sf
(+format_id: INT) 1.150000 30.734483 m gs 1 -1 sc sh gr
/Courier-latin1 ff 0.800000 scf sf
(+sizeKb: INT) 1.150000 31.534483 m gs 1 -1 sc sh gr
/Courier-latin1 ff 0.800000 scf sf
(+css: CHAR\(32\) = $this.style.css) 1.150000 32.334483 m gs 1 -1 sc sh gr
1.000000 1.000000 1.000000 srgb
n 1.000000 32.600000 m 1.000000 36.800000 l 32.342400 36.800000 l 32.342400 32.600000 l f
0.000000 0.000000 0.000000 srgb
n 1.000000 32.600000 m 1.000000 36.800000 l 32.342400 36.800000 l 32.342400 32.600000 l cp s
/Courier-latin1 ff 0.800000 scf sf
(+backInstances\(\): QueryWrapper\(ExtendedImageInstance\)) 1.150000 33.334483 m gs 1 -1 sc sh gr
/Courier-latin1 ff 0.800000 scf sf
(+detailInstances\(\): QueryWrapper\(ExtendedImageInstance\)) 1.150000 34.134483 m gs 1 -1 sc sh gr
/Courier-latin1 ff 0.800000 scf sf
(+format\(\): SingleImageFormat) 1.150000 34.934483 m gs 1 -1 sc sh gr
/Courier-latin1 ff 0.800000 scf sf
(+style\(\): SingleImageStyle) 1.150000 35.734483 m gs 1 -1 sc sh gr
/Courier-latin1 ff 0.800000 scf sf
(+thumbnailInstances\(\): QueryWrapper\(ExtendedImageInstance\)) 1.150000 36.534483 m gs 1 -1 sc sh gr
0.100000 slw
[] 0 sd
1.000000 1.000000 1.000000 srgb
n 4.000000 40.000000 m 4.000000 41.400000 l 30.009600 41.400000 l 30.009600 40.000000 l f
0.000000 0.000000 0.000000 srgb
n 4.000000 40.000000 m 4.000000 41.400000 l 30.009600 41.400000 l 30.009600 40.000000 l cp s
/Helvetica-Bold-latin1 ff 1.000000 scf sf
(SingleImageStyle) dup sw 2 div 17.004800 ex sub 41.000000 m gs 1 -1 sc sh gr
1.000000 1.000000 1.000000 srgb
n 4.000000 41.400000 m 4.000000 55.200000 l 30.009600 55.200000 l 30.009600 41.400000 l f
0.000000 0.000000 0.000000 srgb
n 4.000000 41.400000 m 4.000000 55.200000 l 30.009600 55.200000 l 30.009600 41.400000 l cp s
/Courier-latin1 ff 0.800000 scf sf
(+id: INT) 4.150000 42.134483 m gs 1 -1 sc sh gr
/Courier-latin1 ff 0.800000 scf sf
(+name: CHAR\(255\)) 4.150000 42.934483 m gs 1 -1 sc sh gr
/Courier-latin1 ff 0.800000 scf sf
(+isOptional: BOOLEAN) 4.150000 43.734483 m gs 1 -1 sc sh gr
/Courier-latin1 ff 0.800000 scf sf
(+isDefined: BOOLEAN) 4.150000 44.534483 m gs 1 -1 sc sh gr
/Courier-latin1 ff 0.800000 scf sf
(+isEditableImage: BOOLEAN) 4.150000 45.334483 m gs 1 -1 sc sh gr
/Courier-latin1 ff 0.800000 scf sf
(+defaultFilename: CHAR\(255\)) 4.150000 46.134483 m gs 1 -1 sc sh gr
/Courier-latin1 ff 0.800000 scf sf
(+defaultWidth: INT) 4.150000 46.934483 m gs 1 -1 sc sh gr
/Courier-latin1 ff 0.800000 scf sf
(+defaultHeight: INT) 4.150000 47.734483 m gs 1 -1 sc sh gr
/Courier-latin1 ff 0.800000 scf sf
(+targetWidth: INT) 4.150000 48.534483 m gs 1 -1 sc sh gr
/Courier-latin1 ff 0.800000 scf sf
(+targetHeight: INT) 4.150000 49.334483 m gs 1 -1 sc sh gr
/Courier-latin1 ff 0.800000 scf sf
(+imageScalingMode: INT) 4.150000 50.134483 m gs 1 -1 sc sh gr
/Courier-latin1 ff 0.800000 scf sf
(+webpathRoot: CHAR\(255\)) 4.150000 50.934483 m gs 1 -1 sc sh gr
/Courier-latin1 ff 0.800000 scf sf
(+defaultAlt: CHAR\(255\)) 4.150000 51.734483 m gs 1 -1 sc sh gr
/Courier-latin1 ff 0.800000 scf sf
(+hasEditableAlt: Boolean) 4.150000 52.534483 m gs 1 -1 sc sh gr
/Courier-latin1 ff 0.800000 scf sf
(+format_id: INT) 4.150000 53.334483 m gs 1 -1 sc sh gr
/Courier-latin1 ff 0.800000 scf sf
(+isFixedFormat: BOOLEAN) 4.150000 54.134483 m gs 1 -1 sc sh gr
/Courier-latin1 ff 0.800000 scf sf
(+css: CHAR\(32\)) 4.150000 54.934483 m gs 1 -1 sc sh gr
1.000000 1.000000 1.000000 srgb
n 4.000000 55.200000 m 4.000000 59.400000 l 30.009600 59.400000 l 30.009600 55.200000 l f
0.000000 0.000000 0.000000 srgb
n 4.000000 55.200000 m 4.000000 59.400000 l 30.009600 59.400000 l 30.009600 55.200000 l cp s
/Courier-latin1 ff 0.800000 scf sf
(+backStyles\(\): QueryWrapper\(ExtendedImageStyle\)) 4.150000 55.934483 m gs 1 -1 sc sh gr
/Courier-latin1 ff 0.800000 scf sf
(+detailStyles\(\): QueryWrapper\(ExtendedImageStyle\)) 4.150000 56.734483 m gs 1 -1 sc sh gr
/Courier-latin1 ff 0.800000 scf sf
(+extendedImages\(\): QueryWrapper\(SingleImage\)) 4.150000 57.534483 m gs 1 -1 sc sh gr
/Courier-latin1 ff 0.800000 scf sf
(+format\(\): SingleImagFormat) 4.150000 58.334483 m gs 1 -1 sc sh gr
/Courier-latin1 ff 0.800000 scf sf
(+thumbnailStyles\(\): QueryWrapper\(ExtendedImageStyle\)) 4.150000 59.134483 m gs 1 -1 sc sh gr
0.100000 slw
[] 0 sd
1.000000 1.000000 1.000000 srgb
n 39.000000 36.000000 m 39.000000 37.400000 l 65.009600 37.400000 l 65.009600 36.000000 l f
0.000000 0.000000 0.000000 srgb
n 39.000000 36.000000 m 39.000000 37.400000 l 65.009600 37.400000 l 65.009600 36.000000 l cp s
/Helvetica-Bold-latin1 ff 1.000000 scf sf
(SingleImageFormat) dup sw 2 div 52.004800 ex sub 37.000000 m gs 1 -1 sc sh gr
1.000000 1.000000 1.000000 srgb
n 39.000000 37.400000 m 39.000000 41.600000 l 65.009600 41.600000 l 65.009600 37.400000 l f
0.000000 0.000000 0.000000 srgb
n 39.000000 37.400000 m 39.000000 41.600000 l 65.009600 41.600000 l 65.009600 37.400000 l cp s
/Courier-latin1 ff 0.800000 scf sf
(+id: INT) 39.150000 38.134483 m gs 1 -1 sc sh gr
/Courier-latin1 ff 0.800000 scf sf
(+name: CHAR\(255\)) 39.150000 38.934483 m gs 1 -1 sc sh gr
/Courier-latin1 ff 0.800000 scf sf
(+imParameter: CHAR\(255\)) 39.150000 39.734483 m gs 1 -1 sc sh gr
/Courier-latin1 ff 0.800000 scf sf
(+imFormat: CHAR\(255\)) 39.150000 40.534483 m gs 1 -1 sc sh gr
/Courier-latin1 ff 0.800000 scf sf
(+extension: CHAR\(255\)) 39.150000 41.334483 m gs 1 -1 sc sh gr
1.000000 1.000000 1.000000 srgb
n 39.000000 41.600000 m 39.000000 43.400000 l 65.009600 43.400000 l 65.009600 41.600000 l f
0.000000 0.000000 0.000000 srgb
n 39.000000 41.600000 m 39.000000 43.400000 l 65.009600 43.400000 l 65.009600 41.600000 l cp s
/Courier-latin1 ff 0.800000 scf sf
(+extendedImages\(\): QueryWrapper\(SingleExtendedImage\)) 39.150000 42.334483 m gs 1 -1 sc sh gr
/Courier-latin1 ff 0.800000 scf sf
(+styles\(\): QueryWrapper\(SingleImageStyle\)) 39.150000 43.134483 m gs 1 -1 sc sh gr
0.100000 slw
[] 0 sd
1.000000 1.000000 1.000000 srgb
n 39.000000 19.000000 m 39.000000 20.400000 l 58.222400 20.400000 l 58.222400 19.000000 l f
0.000000 0.000000 0.000000 srgb
n 39.000000 19.000000 m 39.000000 20.400000 l 58.222400 20.400000 l 58.222400 19.000000 l cp s
/Helvetica-Bold-latin1 ff 1.000000 scf sf
(ExtendedImageInstance) dup sw 2 div 48.611200 ex sub 20.000000 m gs 1 -1 sc sh gr
1.000000 1.000000 1.000000 srgb
n 39.000000 20.400000 m 39.000000 27.800000 l 58.222400 27.800000 l 58.222400 20.400000 l f
0.000000 0.000000 0.000000 srgb
n 39.000000 20.400000 m 39.000000 27.800000 l 58.222400 27.800000 l 58.222400 20.400000 l cp s
/Courier-latin1 ff 0.800000 scf sf
(+id: INT) 39.150000 21.134483 m gs 1 -1 sc sh gr
/Courier-latin1 ff 0.800000 scf sf
(+region_id: INT) 39.150000 21.934483 m gs 1 -1 sc sh gr
/Courier-latin1 ff 0.800000 scf sf
(+style_id: INT) 39.150000 22.734483 m gs 1 -1 sc sh gr
/Courier-latin1 ff 0.800000 scf sf
(+isDefined: BOOLEAN) 39.150000 23.534483 m gs 1 -1 sc sh gr
/Courier-latin1 ff 0.800000 scf sf
(+thumbnailImage_id: INT) 39.150000 24.334483 m gs 1 -1 sc sh gr
/Courier-latin1 ff 0.800000 scf sf
(+detailImage_id: INT) 39.150000 25.134483 m gs 1 -1 sc sh gr
/Courier-latin1 ff 0.800000 scf sf
(+backImage_id: INT) 39.150000 25.934483 m gs 1 -1 sc sh gr
/Courier-latin1 ff 0.800000 scf sf
(+title: CHAR\(255\)) 39.150000 26.734483 m gs 1 -1 sc sh gr
/Courier-latin1 ff 0.800000 scf sf
(+clickImageUrl: CHAR\(255\)) 39.150000 27.534483 m gs 1 -1 sc sh gr
1.000000 1.000000 1.000000 srgb
n 39.000000 27.800000 m 39.000000 32.000000 l 58.222400 32.000000 l 58.222400 27.800000 l f
0.000000 0.000000 0.000000 srgb
n 39.000000 27.800000 m 39.000000 32.000000 l 58.222400 32.000000 l 58.222400 27.800000 l cp s
/Courier-latin1 ff 0.800000 scf sf
(+backImage\(\): SingleExtendedImage) 39.150000 28.534483 m gs 1 -1 sc sh gr
/Courier-latin1 ff 0.800000 scf sf
(+detailImage\(\): SingleExtendedImage) 39.150000 29.334483 m gs 1 -1 sc sh gr
/Courier-latin1 ff 0.800000 scf sf
(+region\(\): Region) 39.150000 30.134483 m gs 1 -1 sc sh gr
/Courier-latin1 ff 0.800000 scf sf
(+style\(\): ExtendedImageStyle) 39.150000 30.934483 m gs 1 -1 sc sh gr
/Courier-latin1 ff 0.800000 scf sf
(+thumbnailImage\(\): SingleExtendedImage) 39.150000 31.734483 m gs 1 -1 sc sh gr
0.100000 slw
[] 0 sd
0 slj
0 slc
n 32.342400 33.100000 m 35.000000 33.100000 l 35.000000 28.300000 l 39.000000 28.300000 l s
0 slj
1.000000 1.000000 1.000000 srgb
n 33.142400 32.700000 m 32.342400 33.100000 l 33.142400 33.500000 l f
0.100000 slw
[] 0 sd
0 slj
0.000000 0.000000 0.000000 srgb
n 33.142400 32.700000 m 32.342400 33.100000 l 33.142400 33.500000 l cp s
/Courier-latin1 ff 0.800000 scf sf
0.100000 slw
[] 0 sd
0 slj
0 slc
n 32.342400 36.300000 m 38.000000 36.300000 l 38.000000 31.500000 l 39.000000 31.500000 l s
0 slj
1.000000 1.000000 1.000000 srgb
n 33.142400 35.900000 m 32.342400 36.300000 l 33.142400 36.700000 l f
0.100000 slw
[] 0 sd
0 slj
0.000000 0.000000 0.000000 srgb
n 33.142400 35.900000 m 32.342400 36.300000 l 33.142400 36.700000 l cp s
/Courier-latin1 ff 0.800000 scf sf
0.100000 slw
[] 0 sd
0 slj
0 slc
n 32.342400 33.900000 m 36.000000 33.900000 l 36.000000 29.100000 l 39.000000 29.100000 l s
0 slj
1.000000 1.000000 1.000000 srgb
n 33.142400 33.500000 m 32.342400 33.900000 l 33.142400 34.300000 l f
0.100000 slw
[] 0 sd
0 slj
0.000000 0.000000 0.000000 srgb
n 33.142400 33.500000 m 32.342400 33.900000 l 33.142400 34.300000 l cp s
/Courier-latin1 ff 0.800000 scf sf
0.100000 slw
[] 0 sd
0 slj
0 slc
n 39.000000 42.100000 m 35.000000 42.100000 l 35.000000 34.700000 l 32.342400 34.700000 l s
0 slj
1.000000 1.000000 1.000000 srgb
n 38.200000 42.500000 m 39.000000 42.100000 l 38.200000 41.700000 l f
0.100000 slw
[] 0 sd
0 slj
0.000000 0.000000 0.000000 srgb
n 38.200000 42.500000 m 39.000000 42.100000 l 38.200000 41.700000 l cp s
/Courier-latin1 ff 0.800000 scf sf
0.100000 slw
[] 0 sd
1.000000 1.000000 1.000000 srgb
n 39.000000 46.000000 m 39.000000 47.400000 l 63.555200 47.400000 l 63.555200 46.000000 l f
0.000000 0.000000 0.000000 srgb
n 39.000000 46.000000 m 39.000000 47.400000 l 63.555200 47.400000 l 63.555200 46.000000 l cp s
/Helvetica-Bold-latin1 ff 1.000000 scf sf
(ExtendedImageStyle) dup sw 2 div 51.277600 ex sub 47.000000 m gs 1 -1 sc sh gr
1.000000 1.000000 1.000000 srgb
n 39.000000 47.400000 m 39.000000 62.000000 l 63.555200 62.000000 l 63.555200 47.400000 l f
0.000000 0.000000 0.000000 srgb
n 39.000000 47.400000 m 39.000000 62.000000 l 63.555200 62.000000 l 63.555200 47.400000 l cp s
/Courier-latin1 ff 0.800000 scf sf
(+id: INT) 39.150000 48.134483 m gs 1 -1 sc sh gr
/Courier-latin1 ff 0.800000 scf sf
(+name: CHAR\(32\)) 39.150000 48.934483 m gs 1 -1 sc sh gr
/Courier-latin1 ff 0.800000 scf sf
(+isOptional: BOOLEAN) 39.150000 49.734483 m gs 1 -1 sc sh gr
/Courier-latin1 ff 0.800000 scf sf
(+isDefined: BOOLEAN) 39.150000 50.534483 m gs 1 -1 sc sh gr
/Courier-latin1 ff 0.800000 scf sf
(+thumbnailStyle_id: INT) 39.150000 51.334483 m gs 1 -1 sc sh gr
/Courier-latin1 ff 0.800000 scf sf
(+detailStyle_id: INT) 39.150000 52.134483 m gs 1 -1 sc sh gr
/Courier-latin1 ff 0.800000 scf sf
(+detailWindowName: CHAR\(32\)) 39.150000 52.934483 m gs 1 -1 sc sh gr
/Courier-latin1 ff 0.800000 scf sf
(+hasLinkedDetail: BOOLEAN) 39.150000 53.734483 m gs 1 -1 sc sh gr
/Courier-latin1 ff 0.800000 scf sf
(+detailTemplate: CHAR\(255\)) 39.150000 54.534483 m gs 1 -1 sc sh gr
/Courier-latin1 ff 0.800000 scf sf
(+detailIsRenderReset: BOOLEAN) 39.150000 55.334483 m gs 1 -1 sc sh gr
/Courier-latin1 ff 0.800000 scf sf
(+backStyle_id: INT) 39.150000 56.134483 m gs 1 -1 sc sh gr
/Courier-latin1 ff 0.800000 scf sf
(+backInvokesClose: BOOLEAN) 39.150000 56.934483 m gs 1 -1 sc sh gr
/Courier-latin1 ff 0.800000 scf sf
(+backText: CHAR\(255\)) 39.150000 57.734483 m gs 1 -1 sc sh gr
/Courier-latin1 ff 0.800000 scf sf
(+backCss: CHAR\(32\)) 39.150000 58.534483 m gs 1 -1 sc sh gr
/Courier-latin1 ff 0.800000 scf sf
(+titleCss: CHAR\(32\)) 39.150000 59.334483 m gs 1 -1 sc sh gr
/Courier-latin1 ff 0.800000 scf sf
(+defaultClickImageUrl: CHAR\(255\)) 39.150000 60.134483 m gs 1 -1 sc sh gr
/Courier-latin1 ff 0.800000 scf sf
(+isEditableClickImageUrl: BOOLEAN) 39.150000 60.934483 m gs 1 -1 sc sh gr
/Courier-latin1 ff 0.800000 scf sf
(+urlWindowName: CHAR\(32\)) 39.150000 61.734483 m gs 1 -1 sc sh gr
1.000000 1.000000 1.000000 srgb
n 39.000000 62.000000 m 39.000000 65.400000 l 63.555200 65.400000 l 63.555200 62.000000 l f
0.000000 0.000000 0.000000 srgb
n 39.000000 62.000000 m 39.000000 65.400000 l 63.555200 65.400000 l 63.555200 62.000000 l cp s
/Courier-latin1 ff 0.800000 scf sf
(+backStyle\(\): SingleImageStyle) 39.150000 62.734483 m gs 1 -1 sc sh gr
/Courier-latin1 ff 0.800000 scf sf
(+detailStyle\(\): SingleImageStyle) 39.150000 63.534483 m gs 1 -1 sc sh gr
/Courier-latin1 ff 0.800000 scf sf
(+instances\(\): QueryWrapper\(ExtendedImageInstance\)) 39.150000 64.334483 m gs 1 -1 sc sh gr
/Courier-latin1 ff 0.800000 scf sf
(+thumbnailStyle\(\): SingleImageStyle) 39.150000 65.134483 m gs 1 -1 sc sh gr
0.100000 slw
[] 0 sd
0 slj
0 slc
n 63.555200 64.100000 m 66.000000 64.100000 l 66.000000 30.700000 l 58.222400 30.700000 l s
0 slj
1.000000 1.000000 1.000000 srgb
n 64.355200 63.700000 m 63.555200 64.100000 l 64.355200 64.500000 l f
0.100000 slw
[] 0 sd
0 slj
0.000000 0.000000 0.000000 srgb
n 64.355200 63.700000 m 63.555200 64.100000 l 64.355200 64.500000 l cp s
/Courier-latin1 ff 0.800000 scf sf
0.100000 slw
[] 0 sd
0 slj
0 slc
n 30.009600 55.700000 m 35.000000 55.700000 l 35.000000 62.500000 l 39.000000 62.500000 l s
0 slj
1.000000 1.000000 1.000000 srgb
n 30.809600 55.300000 m 30.009600 55.700000 l 30.809600 56.100000 l f
0.100000 slw
[] 0 sd
0 slj
0.000000 0.000000 0.000000 srgb
n 30.809600 55.300000 m 30.009600 55.700000 l 30.809600 56.100000 l cp s
/Courier-latin1 ff 0.800000 scf sf
0.100000 slw
[] 0 sd
0 slj
0 slc
n 30.009600 56.500000 m 34.000000 56.500000 l 34.000000 63.300000 l 39.000000 63.300000 l s
0 slj
1.000000 1.000000 1.000000 srgb
n 30.809600 56.100000 m 30.009600 56.500000 l 30.809600 56.900000 l f
0.100000 slw
[] 0 sd
0 slj
0.000000 0.000000 0.000000 srgb
n 30.809600 56.100000 m 30.009600 56.500000 l 30.809600 56.900000 l cp s
/Courier-latin1 ff 0.800000 scf sf
0.100000 slw
[] 0 sd
0 slj
0 slc
n 30.009600 58.900000 m 33.000000 58.900000 l 33.000000 64.900000 l 39.000000 64.900000 l s
0 slj
1.000000 1.000000 1.000000 srgb
n 30.809600 58.500000 m 30.009600 58.900000 l 30.809600 59.300000 l f
0.100000 slw
[] 0 sd
0 slj
0.000000 0.000000 0.000000 srgb
n 30.809600 58.500000 m 30.009600 58.900000 l 30.809600 59.300000 l cp s
/Courier-latin1 ff 0.800000 scf sf
0.100000 slw
[] 0 sd
0 slj
0 slc
n 39.000000 42.900000 m 36.000000 42.900000 l 36.000000 58.100000 l 30.009600 58.100000 l s
0 slj
1.000000 1.000000 1.000000 srgb
n 38.200000 43.300000 m 39.000000 42.900000 l 38.200000 42.500000 l f
0.100000 slw
[] 0 sd
0 slj
0.000000 0.000000 0.000000 srgb
n 38.200000 43.300000 m 39.000000 42.900000 l 38.200000 42.500000 l cp s
/Courier-latin1 ff 0.800000 scf sf
0.100000 slw
[] 0 sd
0 slj
0 slc
n 30.009600 57.300000 m 37.000000 57.300000 l 37.000000 35.500000 l 32.342400 35.500000 l s
0 slj
1.000000 1.000000 1.000000 srgb
n 30.809600 56.900000 m 30.009600 57.300000 l 30.809600 57.700000 l f
0.100000 slw
[] 0 sd
0 slj
0.000000 0.000000 0.000000 srgb
n 30.809600 56.900000 m 30.009600 57.300000 l 30.809600 57.700000 l cp s
/Courier-latin1 ff 0.800000 scf sf
showpage
