%!PS-Adobe-2.0 EPSF-2.0
%%Title: /home/alex/cord/org.cord/docs/field-IndexedFastDate.dia
%%Creator: Dia v0.88.1
%%CreationDate: Fri Sep  6 20:47:16 2002
%%For: a user
%%Magnification: 1.0000
%%Orientation: Portrait
%%BoundingBox: 0 0 365 172
%%Pages: 1
%%BeginSetup
%%EndSetup
%%EndComments
%%BeginProlog
[ /.notdef /.notdef /.notdef /.notdef /.notdef /.notdef /.notdef /.notdef /.notdef /.notdef
/.notdef /.notdef /.notdef /.notdef /.notdef /.notdef /.notdef /.notdef /.notdef /.notdef
/.notdef /.notdef /.notdef /.notdef /.notdef /.notdef /.notdef /.notdef /.notdef /.notdef
/.notdef /.notdef /space /exclam /quotedbl /numbersign /dollar /percent /ampersand /quoteright
/parenleft /parenright /asterisk /plus /comma /hyphen /period /slash /zero /one
/two /three /four /five /six /seven /eight /nine /colon /semicolon
/less /equal /greater /question /at /A /B /C /D /E
/F /G /H /I /J /K /L /M /N /O
/P /Q /R /S /T /U /V /W /X /Y
/Z /bracketleft /backslash /bracketright /asciicircum /underscore /quoteleft /a /b /c
/d /e /f /g /h /i /j /k /l /m
/n /o /p /q /r /s /t /u /v /w
/x /y /z /braceleft /bar /braceright /asciitilde /.notdef /.notdef /.notdef
/.notdef /.notdef /.notdef /.notdef /.notdef /.notdef /.notdef /.notdef /.notdef /.notdef
/.notdef /.notdef /.notdef /.notdef /.notdef /.notdef /.notdef /.notdef /.notdef /.notdef
/.notdef /.notdef /.notdef /.notdef /.notdef /.notdef /.notdef /.notdef /.notdef /.notdef
/space /exclamdown /cent /sterling /currency /yen /brokenbar /section /dieresis /copyright
/ordfeminine /guillemotleft /logicalnot /hyphen /registered /macron /degree /plusminus /twosuperior /threesuperior
/acute /mu /paragraph /periodcentered /cedilla /onesuperior /ordmasculine /guillemotright /onequarter /onehalf
/threequarters /questiondown /Agrave /Aacute /Acircumflex /Atilde /Adieresis /Aring /AE /Ccedilla
/Egrave /Eacute /Ecircumflex /Edieresis /Igrave /Iacute /Icircumflex /Idieresis /Eth /Ntilde
/Ograve /Oacute /Ocircumflex /Otilde /Odieresis /multiply /Oslash /Ugrave /Uacute /Ucircumflex
/Udieresis /Yacute /Thorn /germandbls /agrave /aacute /acircumflex /atilde /adieresis /aring
/ae /ccedilla /egrave /eacute /ecircumflex /edieresis /igrave /iacute /icircumflex /idieresis
/eth /ntilde /ograve /oacute /ocircumflex /otilde /odieresis /divide /oslash /ugrave
/uacute /ucircumflex /udieresis /yacute /thorn /ydieresis] /isolatin1encoding exch def
/Times-Roman-latin1
    /Times-Roman findfont
    dup length dict begin
	{1 index /FID ne {def} {pop pop} ifelse} forall
	/Encoding isolatin1encoding def
    currentdict end
definefont pop
/Times-Italic-latin1
    /Times-Italic findfont
    dup length dict begin
	{1 index /FID ne {def} {pop pop} ifelse} forall
	/Encoding isolatin1encoding def
    currentdict end
definefont pop
/Times-Bold-latin1
    /Times-Bold findfont
    dup length dict begin
	{1 index /FID ne {def} {pop pop} ifelse} forall
	/Encoding isolatin1encoding def
    currentdict end
definefont pop
/Times-BoldItalic-latin1
    /Times-BoldItalic findfont
    dup length dict begin
	{1 index /FID ne {def} {pop pop} ifelse} forall
	/Encoding isolatin1encoding def
    currentdict end
definefont pop
/AvantGarde-Book-latin1
    /AvantGarde-Book findfont
    dup length dict begin
	{1 index /FID ne {def} {pop pop} ifelse} forall
	/Encoding isolatin1encoding def
    currentdict end
definefont pop
/AvantGarde-BookOblique-latin1
    /AvantGarde-BookOblique findfont
    dup length dict begin
	{1 index /FID ne {def} {pop pop} ifelse} forall
	/Encoding isolatin1encoding def
    currentdict end
definefont pop
/AvantGarde-Demi-latin1
    /AvantGarde-Demi findfont
    dup length dict begin
	{1 index /FID ne {def} {pop pop} ifelse} forall
	/Encoding isolatin1encoding def
    currentdict end
definefont pop
/AvantGarde-DemiOblique-latin1
    /AvantGarde-DemiOblique findfont
    dup length dict begin
	{1 index /FID ne {def} {pop pop} ifelse} forall
	/Encoding isolatin1encoding def
    currentdict end
definefont pop
/Bookman-Light-latin1
    /Bookman-Light findfont
    dup length dict begin
	{1 index /FID ne {def} {pop pop} ifelse} forall
	/Encoding isolatin1encoding def
    currentdict end
definefont pop
/Bookman-LightItalic-latin1
    /Bookman-LightItalic findfont
    dup length dict begin
	{1 index /FID ne {def} {pop pop} ifelse} forall
	/Encoding isolatin1encoding def
    currentdict end
definefont pop
/Bookman-Demi-latin1
    /Bookman-Demi findfont
    dup length dict begin
	{1 index /FID ne {def} {pop pop} ifelse} forall
	/Encoding isolatin1encoding def
    currentdict end
definefont pop
/Bookman-DemiItalic-latin1
    /Bookman-DemiItalic findfont
    dup length dict begin
	{1 index /FID ne {def} {pop pop} ifelse} forall
	/Encoding isolatin1encoding def
    currentdict end
definefont pop
/Courier-latin1
    /Courier findfont
    dup length dict begin
	{1 index /FID ne {def} {pop pop} ifelse} forall
	/Encoding isolatin1encoding def
    currentdict end
definefont pop
/Courier-Oblique-latin1
    /Courier-Oblique findfont
    dup length dict begin
	{1 index /FID ne {def} {pop pop} ifelse} forall
	/Encoding isolatin1encoding def
    currentdict end
definefont pop
/Courier-Bold-latin1
    /Courier-Bold findfont
    dup length dict begin
	{1 index /FID ne {def} {pop pop} ifelse} forall
	/Encoding isolatin1encoding def
    currentdict end
definefont pop
/Courier-BoldOblique-latin1
    /Courier-BoldOblique findfont
    dup length dict begin
	{1 index /FID ne {def} {pop pop} ifelse} forall
	/Encoding isolatin1encoding def
    currentdict end
definefont pop
/Helvetica-latin1
    /Helvetica findfont
    dup length dict begin
	{1 index /FID ne {def} {pop pop} ifelse} forall
	/Encoding isolatin1encoding def
    currentdict end
definefont pop
/Helvetica-Oblique-latin1
    /Helvetica-Oblique findfont
    dup length dict begin
	{1 index /FID ne {def} {pop pop} ifelse} forall
	/Encoding isolatin1encoding def
    currentdict end
definefont pop
/Helvetica-Bold-latin1
    /Helvetica-Bold findfont
    dup length dict begin
	{1 index /FID ne {def} {pop pop} ifelse} forall
	/Encoding isolatin1encoding def
    currentdict end
definefont pop
/Helvetica-BoldOblique-latin1
    /Helvetica-BoldOblique findfont
    dup length dict begin
	{1 index /FID ne {def} {pop pop} ifelse} forall
	/Encoding isolatin1encoding def
    currentdict end
definefont pop
/Helvetica-Narrow-latin1
    /Helvetica-Narrow findfont
    dup length dict begin
	{1 index /FID ne {def} {pop pop} ifelse} forall
	/Encoding isolatin1encoding def
    currentdict end
definefont pop
/Helvetica-Narrow-Oblique-latin1
    /Helvetica-Narrow-Oblique findfont
    dup length dict begin
	{1 index /FID ne {def} {pop pop} ifelse} forall
	/Encoding isolatin1encoding def
    currentdict end
definefont pop
/Helvetica-Narrow-Bold-latin1
    /Helvetica-Narrow-Bold findfont
    dup length dict begin
	{1 index /FID ne {def} {pop pop} ifelse} forall
	/Encoding isolatin1encoding def
    currentdict end
definefont pop
/Helvetica-Narrow-BoldOblique-latin1
    /Helvetica-Narrow-BoldOblique findfont
    dup length dict begin
	{1 index /FID ne {def} {pop pop} ifelse} forall
	/Encoding isolatin1encoding def
    currentdict end
definefont pop
/NewCenturySchoolbook-Roman-latin1
    /NewCenturySchoolbook-Roman findfont
    dup length dict begin
	{1 index /FID ne {def} {pop pop} ifelse} forall
	/Encoding isolatin1encoding def
    currentdict end
definefont pop
/NewCenturySchoolbook-Italic-latin1
    /NewCenturySchoolbook-Italic findfont
    dup length dict begin
	{1 index /FID ne {def} {pop pop} ifelse} forall
	/Encoding isolatin1encoding def
    currentdict end
definefont pop
/NewCenturySchoolbook-Bold-latin1
    /NewCenturySchoolbook-Bold findfont
    dup length dict begin
	{1 index /FID ne {def} {pop pop} ifelse} forall
	/Encoding isolatin1encoding def
    currentdict end
definefont pop
/NewCenturySchoolbook-BoldItalic-latin1
    /NewCenturySchoolbook-BoldItalic findfont
    dup length dict begin
	{1 index /FID ne {def} {pop pop} ifelse} forall
	/Encoding isolatin1encoding def
    currentdict end
definefont pop
/Palatino-Roman-latin1
    /Palatino-Roman findfont
    dup length dict begin
	{1 index /FID ne {def} {pop pop} ifelse} forall
	/Encoding isolatin1encoding def
    currentdict end
definefont pop
/Palatino-Italic-latin1
    /Palatino-Italic findfont
    dup length dict begin
	{1 index /FID ne {def} {pop pop} ifelse} forall
	/Encoding isolatin1encoding def
    currentdict end
definefont pop
/Palatino-Bold-latin1
    /Palatino-Bold findfont
    dup length dict begin
	{1 index /FID ne {def} {pop pop} ifelse} forall
	/Encoding isolatin1encoding def
    currentdict end
definefont pop
/Palatino-BoldItalic-latin1
    /Palatino-BoldItalic findfont
    dup length dict begin
	{1 index /FID ne {def} {pop pop} ifelse} forall
	/Encoding isolatin1encoding def
    currentdict end
definefont pop
/Symbol-latin1
    /Symbol findfont
definefont pop
/ZapfChancery-MediumItalic-latin1
    /ZapfChancery-MediumItalic findfont
    dup length dict begin
	{1 index /FID ne {def} {pop pop} ifelse} forall
	/Encoding isolatin1encoding def
    currentdict end
definefont pop
/ZapfDingbats-latin1
    /ZapfDingbats findfont
definefont pop
/Ryumin-Light-EUC-H-latin1
    /Ryumin-Light-EUC-H findfont
definefont pop
/GothicBBB-Medium-EUC-H-latin1
    /GothicBBB-Medium-EUC-H findfont
definefont pop
/cp {closepath} bind def
/c {curveto} bind def
/f {fill} bind def
/a {arc} bind def
/ef {eofill} bind def
/ex {exch} bind def
/gr {grestore} bind def
/gs {gsave} bind def
/sa {save} bind def
/rs {restore} bind def
/l {lineto} bind def
/m {moveto} bind def
/rm {rmoveto} bind def
/n {newpath} bind def
/s {stroke} bind def
/sh {show} bind def
/slc {setlinecap} bind def
/slj {setlinejoin} bind def
/slw {setlinewidth} bind def
/srgb {setrgbcolor} bind def
/rot {rotate} bind def
/sc {scale} bind def
/sd {setdash} bind def
/ff {findfont} bind def
/sf {setfont} bind def
/scf {scalefont} bind def
/sw {stringwidth pop} bind def
/tr {translate} bind def

/ellipsedict 8 dict def
ellipsedict /mtrx matrix put
/ellipse
{ ellipsedict begin
   /endangle exch def
   /startangle exch def
   /yrad exch def
   /xrad exch def
   /y exch def
   /x exch def   /savematrix mtrx currentmatrix def
   x y tr xrad yrad sc
   0 0 1 startangle endangle arc
   savematrix setmatrix
   end
} def

/mergeprocs {
dup length
3 -1 roll
dup
length
dup
5 1 roll
3 -1 roll
add
array cvx
dup
3 -1 roll
0 exch
putinterval
dup
4 2 roll
putinterval
} bind def
7.086500 -7.086500 scale
-2.950000 -27.100000 translate
%%EndProlog


0.100000 slw
[] 0 sd
1.000000 1.000000 1.000000 srgb
n 39.000000 3.000000 m 39.000000 4.400000 l 54.344000 4.400000 l 54.344000 3.000000 l f
0.000000 0.000000 0.000000 srgb
n 39.000000 3.000000 m 39.000000 4.400000 l 54.344000 4.400000 l 54.344000 3.000000 l cp s
/Helvetica-Bold-latin1 ff 1.000000 scf sf
(tableName) dup sw 2 div 46.672000 ex sub 4.000000 m gs 1 -1 sc sh gr
1.000000 1.000000 1.000000 srgb
n 39.000000 4.400000 m 39.000000 7.800000 l 54.344000 7.800000 l 54.344000 4.400000 l f
0.000000 0.000000 0.000000 srgb
n 39.000000 4.400000 m 39.000000 7.800000 l 54.344000 7.800000 l 54.344000 4.400000 l cp s
/Courier-latin1 ff 0.800000 scf sf
(+fieldName: BIGINT) 39.150000 5.134483 m gs 1 -1 sc sh gr
/Courier-latin1 ff 0.800000 scf sf
(+fieldName-day_id: INT) 39.150000 5.934483 m gs 1 -1 sc sh gr
/Courier-latin1 ff 0.800000 scf sf
(+fieldName-month_id: INT) 39.150000 6.734483 m gs 1 -1 sc sh gr
/Courier-latin1 ff 0.800000 scf sf
(+fieldName-year_id: INT) 39.150000 7.534483 m gs 1 -1 sc sh gr
1.000000 1.000000 1.000000 srgb
n 39.000000 7.800000 m 39.000000 10.400000 l 54.344000 10.400000 l 54.344000 7.800000 l f
0.000000 0.000000 0.000000 srgb
n 39.000000 7.800000 m 39.000000 10.400000 l 54.344000 10.400000 l 54.344000 7.800000 l cp s
/Courier-latin1 ff 0.800000 scf sf
(+fieldName-day\(\): DayIndex) 39.150000 8.534483 m gs 1 -1 sc sh gr
/Courier-latin1 ff 0.800000 scf sf
(+fieldName-month\(\): MonthIndex) 39.150000 9.334483 m gs 1 -1 sc sh gr
/Courier-latin1 ff 0.800000 scf sf
(+fieldName-year\(\): YearIndex) 39.150000 10.134483 m gs 1 -1 sc sh gr
0.100000 slw
[] 0 sd
1.000000 1.000000 1.000000 srgb
n 3.000000 21.000000 m 3.000000 22.400000 l 22.222400 22.400000 l 22.222400 21.000000 l f
0.000000 0.000000 0.000000 srgb
n 3.000000 21.000000 m 3.000000 22.400000 l 22.222400 22.400000 l 22.222400 21.000000 l cp s
/Helvetica-Bold-latin1 ff 1.000000 scf sf
(DayIndex) dup sw 2 div 12.611200 ex sub 22.000000 m gs 1 -1 sc sh gr
1.000000 1.000000 1.000000 srgb
n 3.000000 22.400000 m 3.000000 25.000000 l 22.222400 25.000000 l 22.222400 22.400000 l f
0.000000 0.000000 0.000000 srgb
n 3.000000 22.400000 m 3.000000 25.000000 l 22.222400 25.000000 l 22.222400 22.400000 l cp s
/Courier-latin1 ff 0.800000 scf sf
(+id: INT) 3.150000 23.134483 m gs 1 -1 sc sh gr
/Courier-latin1 ff 0.800000 scf sf
(+day: INT) 3.150000 23.934483 m gs 1 -1 sc sh gr
/Courier-latin1 ff 0.800000 scf sf
(+month_id: MonthIndex) 3.150000 24.734483 m gs 1 -1 sc sh gr
1.000000 1.000000 1.000000 srgb
n 3.000000 25.000000 m 3.000000 26.800000 l 22.222400 26.800000 l 22.222400 25.000000 l f
0.000000 0.000000 0.000000 srgb
n 3.000000 25.000000 m 3.000000 26.800000 l 22.222400 26.800000 l 22.222400 25.000000 l cp s
/Courier-latin1 ff 0.800000 scf sf
(+month\(\): MonthIndex) 3.150000 25.734483 m gs 1 -1 sc sh gr
/Courier-latin1 ff 0.800000 scf sf
(+fieldNames\(\): QueryWrapper\(tableName\)) 3.150000 26.534483 m gs 1 -1 sc sh gr
0.100000 slw
[] 0 sd
1.000000 1.000000 1.000000 srgb
n 3.000000 11.000000 m 3.000000 12.400000 l 22.222400 12.400000 l 22.222400 11.000000 l f
0.000000 0.000000 0.000000 srgb
n 3.000000 11.000000 m 3.000000 12.400000 l 22.222400 12.400000 l 22.222400 11.000000 l cp s
/Helvetica-Bold-latin1 ff 1.000000 scf sf
(MonthIndex) dup sw 2 div 12.611200 ex sub 12.000000 m gs 1 -1 sc sh gr
1.000000 1.000000 1.000000 srgb
n 3.000000 12.400000 m 3.000000 15.800000 l 22.222400 15.800000 l 22.222400 12.400000 l f
0.000000 0.000000 0.000000 srgb
n 3.000000 12.400000 m 3.000000 15.800000 l 22.222400 15.800000 l 22.222400 12.400000 l cp s
/Courier-latin1 ff 0.800000 scf sf
(+id: INT) 3.150000 13.134483 m gs 1 -1 sc sh gr
/Courier-latin1 ff 0.800000 scf sf
(+month: INT) 3.150000 13.934483 m gs 1 -1 sc sh gr
/Courier-latin1 ff 0.800000 scf sf
(+name: CHAR\(16\)) 3.150000 14.734483 m gs 1 -1 sc sh gr
/Courier-latin1 ff 0.800000 scf sf
(+year_id: INT) 3.150000 15.534483 m gs 1 -1 sc sh gr
1.000000 1.000000 1.000000 srgb
n 3.000000 15.800000 m 3.000000 18.400000 l 22.222400 18.400000 l 22.222400 15.800000 l f
0.000000 0.000000 0.000000 srgb
n 3.000000 15.800000 m 3.000000 18.400000 l 22.222400 18.400000 l 22.222400 15.800000 l cp s
/Courier-latin1 ff 0.800000 scf sf
(+days\(\): QueryWrapper\(DayIndex\)) 3.150000 16.534483 m gs 1 -1 sc sh gr
/Courier-latin1 ff 0.800000 scf sf
(+year\(\): YearIndex) 3.150000 17.334483 m gs 1 -1 sc sh gr
/Courier-latin1 ff 0.800000 scf sf
(+fieldNames\(\): QueryWrapper\(tableName\)) 3.150000 18.134483 m gs 1 -1 sc sh gr
0.100000 slw
[] 0 sd
1.000000 1.000000 1.000000 srgb
n 3.000000 3.000000 m 3.000000 4.400000 l 22.222400 4.400000 l 22.222400 3.000000 l f
0.000000 0.000000 0.000000 srgb
n 3.000000 3.000000 m 3.000000 4.400000 l 22.222400 4.400000 l 22.222400 3.000000 l cp s
/Helvetica-Bold-latin1 ff 1.000000 scf sf
(YearIndex) dup sw 2 div 12.611200 ex sub 4.000000 m gs 1 -1 sc sh gr
1.000000 1.000000 1.000000 srgb
n 3.000000 4.400000 m 3.000000 6.200000 l 22.222400 6.200000 l 22.222400 4.400000 l f
0.000000 0.000000 0.000000 srgb
n 3.000000 4.400000 m 3.000000 6.200000 l 22.222400 6.200000 l 22.222400 4.400000 l cp s
/Courier-latin1 ff 0.800000 scf sf
(+id: INT) 3.150000 5.134483 m gs 1 -1 sc sh gr
/Courier-latin1 ff 0.800000 scf sf
(+year: INT) 3.150000 5.934483 m gs 1 -1 sc sh gr
1.000000 1.000000 1.000000 srgb
n 3.000000 6.200000 m 3.000000 8.000000 l 22.222400 8.000000 l 22.222400 6.200000 l f
0.000000 0.000000 0.000000 srgb
n 3.000000 6.200000 m 3.000000 8.000000 l 22.222400 8.000000 l 22.222400 6.200000 l cp s
/Courier-latin1 ff 0.800000 scf sf
(+months\(\): QueryWrapper\(MonthIndex\)) 3.150000 6.934483 m gs 1 -1 sc sh gr
/Courier-latin1 ff 0.800000 scf sf
(+fieldNames\(\): QueryWrapper\(tableName\)) 3.150000 7.734483 m gs 1 -1 sc sh gr
0.100000 slw
[] 0 sd
0 slj
0 slc
n 22.222400 17.100000 m 28.000000 17.100000 l 28.000000 6.700000 l 22.222400 6.700000 l s
[] 0 sd
0 slj
0 slc
1.000000 1.000000 1.000000 srgb
n 22.222400 6.700000 m 22.922400 6.460000 l 23.622400 6.700000 l 22.922400 6.940000 l f
0.100000 slw
[] 0 sd
0 slj
0 slc
0.000000 0.000000 0.000000 srgb
n 22.222400 6.700000 m 22.922400 6.460000 l 23.622400 6.700000 l 22.922400 6.940000 l cp s
/Courier-latin1 ff 0.800000 scf sf
0.100000 slw
[] 0 sd
0 slj
0 slc
n 22.222400 25.500000 m 30.000000 25.500000 l 30.000000 16.300000 l 22.222400 16.300000 l s
[] 0 sd
0 slj
0 slc
1.000000 1.000000 1.000000 srgb
n 22.222400 16.300000 m 22.922400 16.060000 l 23.622400 16.300000 l 22.922400 16.540000 l f
0.100000 slw
[] 0 sd
0 slj
0 slc
0.000000 0.000000 0.000000 srgb
n 22.222400 16.300000 m 22.922400 16.060000 l 23.622400 16.300000 l 22.922400 16.540000 l cp s
/Courier-latin1 ff 0.800000 scf sf
0.100000 slw
[] 0 sd
0 slj
0 slc
n 39.000000 8.300000 m 33.777600 8.300000 l 33.777600 26.300000 l 22.222400 26.300000 l s
[] 0 sd
0 slj
0 slc
1.000000 1.000000 1.000000 srgb
n 22.222400 26.300000 m 22.922400 26.060000 l 23.622400 26.300000 l 22.922400 26.540000 l f
0.100000 slw
[] 0 sd
0 slj
0 slc
0.000000 0.000000 0.000000 srgb
n 22.222400 26.300000 m 22.922400 26.060000 l 23.622400 26.300000 l 22.922400 26.540000 l cp s
/Courier-latin1 ff 0.800000 scf sf
0.100000 slw
[] 0 sd
0 slj
0 slc
n 39.000000 9.100000 m 32.000000 9.100000 l 32.000000 17.900000 l 22.222400 17.900000 l s
[] 0 sd
0 slj
0 slc
1.000000 1.000000 1.000000 srgb
n 22.222400 17.900000 m 22.922400 17.660000 l 23.622400 17.900000 l 22.922400 18.140000 l f
0.100000 slw
[] 0 sd
0 slj
0 slc
0.000000 0.000000 0.000000 srgb
n 22.222400 17.900000 m 22.922400 17.660000 l 23.622400 17.900000 l 22.922400 18.140000 l cp s
/Courier-latin1 ff 0.800000 scf sf
0.100000 slw
[] 0 sd
0 slj
0 slc
n 39.000000 9.900000 m 26.000000 9.900000 l 26.000000 7.500000 l 22.222400 7.500000 l s
[] 0 sd
0 slj
0 slc
1.000000 1.000000 1.000000 srgb
n 22.222400 7.500000 m 22.922400 7.260000 l 23.622400 7.500000 l 22.922400 7.740000 l f
0.100000 slw
[] 0 sd
0 slj
0 slc
0.000000 0.000000 0.000000 srgb
n 22.222400 7.500000 m 22.922400 7.260000 l 23.622400 7.500000 l 22.922400 7.740000 l cp s
/Courier-latin1 ff 0.800000 scf sf
showpage
