%!PS-Adobe-2.0 EPSF-2.0
%%Title: /home/alex/cord/org.cord/module/modules/GenericTextNode/doc/gtn-DesignAndImplementation/gtn-uml.dia
%%Creator: Dia v0.86
%%CreationDate: Tue Oct 16 15:41:18 2001
%%For: a user
%%Magnification: 1.0000
%%Orientation: Portrait
%%BoundingBox: 0 0 425 619
%%Pages: 1
%%BeginSetup
%%EndSetup
%%EndComments
[ /.notdef /.notdef /.notdef /.notdef /.notdef /.notdef /.notdef /.notdef /.notdef /.notdef
/.notdef /.notdef /.notdef /.notdef /.notdef /.notdef /.notdef /.notdef /.notdef /.notdef
/.notdef /.notdef /.notdef /.notdef /.notdef /.notdef /.notdef /.notdef /.notdef /.notdef
/.notdef /.notdef /space /exclam /quotedbl /numbersign /dollar /percent /ampersand /quoteright
/parenleft /parenright /asterisk /plus /comma /hyphen /period /slash /zero /one
/two /three /four /five /six /seven /eight /nine /colon /semicolon
/less /equal /greater /question /at /A /B /C /D /E
/F /G /H /I /J /K /L /M /N /O
/P /Q /R /S /T /U /V /W /X /Y
/Z /bracketleft /backslash /bracketright /asciicircum /underscore /quoteleft /a /b /c
/d /e /f /g /h /i /j /k /l /m
/n /o /p /q /r /s /t /u /v /w
/x /y /z /braceleft /bar /braceright /asciitilde /.notdef /.notdef /.notdef
/.notdef /.notdef /.notdef /.notdef /.notdef /.notdef /.notdef /.notdef /.notdef /.notdef
/.notdef /.notdef /.notdef /.notdef /.notdef /.notdef /.notdef /.notdef /.notdef /.notdef
/.notdef /.notdef /.notdef /.notdef /.notdef /.notdef /.notdef /.notdef /.notdef /.notdef
/space /exclamdown /cent /sterling /currency /yen /brokenbar /section /dieresis /copyright
/ordfeminine /guillemotleft /logicalnot /hyphen /registered /macron /degree /plusminus /twosuperior /threesuperior
/acute /mu /paragraph /periodcentered /cedilla /onesuperior /ordmasculine /guillemotright /onequarter /onehalf
/threequarters /questiondown /Agrave /Aacute /Acircumflex /Atilde /Adieresis /Aring /AE /Ccedilla
/Egrave /Eacute /Ecircumflex /Edieresis /Igrave /Iacute /Icircumflex /Idieresis /Eth /Ntilde
/Ograve /Oacute /Ocircumflex /Otilde /Odieresis /multiply /Oslash /Ugrave /Uacute /Ucircumflex
/Udieresis /Yacute /Thorn /germandbls /agrave /aacute /acircumflex /atilde /adieresis /aring
/ae /ccedilla /egrave /eacute /ecircumflex /edieresis /igrave /iacute /icircumflex /idieresis
/eth /ntilde /ograve /oacute /ocircumflex /otilde /odieresis /divide /oslash /ugrave
/uacute /ucircumflex /udieresis /yacute /thorn /ydieresis] /isolatin1encoding exch def
/Times-Roman-latin1
    /Times-Roman findfont
    dup length dict begin
	{1 index /FID ne {def} {pop pop} ifelse} forall
	/Encoding isolatin1encoding def
    currentdict end
definefont pop
/Times-Italic-latin1
    /Times-Italic findfont
    dup length dict begin
	{1 index /FID ne {def} {pop pop} ifelse} forall
	/Encoding isolatin1encoding def
    currentdict end
definefont pop
/Times-Bold-latin1
    /Times-Bold findfont
    dup length dict begin
	{1 index /FID ne {def} {pop pop} ifelse} forall
	/Encoding isolatin1encoding def
    currentdict end
definefont pop
/Times-BoldItalic-latin1
    /Times-BoldItalic findfont
    dup length dict begin
	{1 index /FID ne {def} {pop pop} ifelse} forall
	/Encoding isolatin1encoding def
    currentdict end
definefont pop
/AvantGarde-Book-latin1
    /AvantGarde-Book findfont
    dup length dict begin
	{1 index /FID ne {def} {pop pop} ifelse} forall
	/Encoding isolatin1encoding def
    currentdict end
definefont pop
/AvantGarde-BookOblique-latin1
    /AvantGarde-BookOblique findfont
    dup length dict begin
	{1 index /FID ne {def} {pop pop} ifelse} forall
	/Encoding isolatin1encoding def
    currentdict end
definefont pop
/AvantGarde-Demi-latin1
    /AvantGarde-Demi findfont
    dup length dict begin
	{1 index /FID ne {def} {pop pop} ifelse} forall
	/Encoding isolatin1encoding def
    currentdict end
definefont pop
/AvantGarde-DemiOblique-latin1
    /AvantGarde-DemiOblique findfont
    dup length dict begin
	{1 index /FID ne {def} {pop pop} ifelse} forall
	/Encoding isolatin1encoding def
    currentdict end
definefont pop
/Bookman-Light-latin1
    /Bookman-Light findfont
    dup length dict begin
	{1 index /FID ne {def} {pop pop} ifelse} forall
	/Encoding isolatin1encoding def
    currentdict end
definefont pop
/Bookman-LightItalic-latin1
    /Bookman-LightItalic findfont
    dup length dict begin
	{1 index /FID ne {def} {pop pop} ifelse} forall
	/Encoding isolatin1encoding def
    currentdict end
definefont pop
/Bookman-Demi-latin1
    /Bookman-Demi findfont
    dup length dict begin
	{1 index /FID ne {def} {pop pop} ifelse} forall
	/Encoding isolatin1encoding def
    currentdict end
definefont pop
/Bookman-DemiItalic-latin1
    /Bookman-DemiItalic findfont
    dup length dict begin
	{1 index /FID ne {def} {pop pop} ifelse} forall
	/Encoding isolatin1encoding def
    currentdict end
definefont pop
/Courier-latin1
    /Courier findfont
    dup length dict begin
	{1 index /FID ne {def} {pop pop} ifelse} forall
	/Encoding isolatin1encoding def
    currentdict end
definefont pop
/Courier-Oblique-latin1
    /Courier-Oblique findfont
    dup length dict begin
	{1 index /FID ne {def} {pop pop} ifelse} forall
	/Encoding isolatin1encoding def
    currentdict end
definefont pop
/Courier-Bold-latin1
    /Courier-Bold findfont
    dup length dict begin
	{1 index /FID ne {def} {pop pop} ifelse} forall
	/Encoding isolatin1encoding def
    currentdict end
definefont pop
/Courier-BoldOblique-latin1
    /Courier-BoldOblique findfont
    dup length dict begin
	{1 index /FID ne {def} {pop pop} ifelse} forall
	/Encoding isolatin1encoding def
    currentdict end
definefont pop
/Helvetica-latin1
    /Helvetica findfont
    dup length dict begin
	{1 index /FID ne {def} {pop pop} ifelse} forall
	/Encoding isolatin1encoding def
    currentdict end
definefont pop
/Helvetica-Oblique-latin1
    /Helvetica-Oblique findfont
    dup length dict begin
	{1 index /FID ne {def} {pop pop} ifelse} forall
	/Encoding isolatin1encoding def
    currentdict end
definefont pop
/Helvetica-Bold-latin1
    /Helvetica-Bold findfont
    dup length dict begin
	{1 index /FID ne {def} {pop pop} ifelse} forall
	/Encoding isolatin1encoding def
    currentdict end
definefont pop
/Helvetica-BoldOblique-latin1
    /Helvetica-BoldOblique findfont
    dup length dict begin
	{1 index /FID ne {def} {pop pop} ifelse} forall
	/Encoding isolatin1encoding def
    currentdict end
definefont pop
/Helvetica-Narrow-latin1
    /Helvetica-Narrow findfont
    dup length dict begin
	{1 index /FID ne {def} {pop pop} ifelse} forall
	/Encoding isolatin1encoding def
    currentdict end
definefont pop
/Helvetica-Narrow-Oblique-latin1
    /Helvetica-Narrow-Oblique findfont
    dup length dict begin
	{1 index /FID ne {def} {pop pop} ifelse} forall
	/Encoding isolatin1encoding def
    currentdict end
definefont pop
/Helvetica-Narrow-Bold-latin1
    /Helvetica-Narrow-Bold findfont
    dup length dict begin
	{1 index /FID ne {def} {pop pop} ifelse} forall
	/Encoding isolatin1encoding def
    currentdict end
definefont pop
/Helvetica-Narrow-BoldOblique-latin1
    /Helvetica-Narrow-BoldOblique findfont
    dup length dict begin
	{1 index /FID ne {def} {pop pop} ifelse} forall
	/Encoding isolatin1encoding def
    currentdict end
definefont pop
/NewCenturySchoolbook-Roman-latin1
    /NewCenturySchoolbook-Roman findfont
    dup length dict begin
	{1 index /FID ne {def} {pop pop} ifelse} forall
	/Encoding isolatin1encoding def
    currentdict end
definefont pop
/NewCenturySchoolbook-Italic-latin1
    /NewCenturySchoolbook-Italic findfont
    dup length dict begin
	{1 index /FID ne {def} {pop pop} ifelse} forall
	/Encoding isolatin1encoding def
    currentdict end
definefont pop
/NewCenturySchoolbook-Bold-latin1
    /NewCenturySchoolbook-Bold findfont
    dup length dict begin
	{1 index /FID ne {def} {pop pop} ifelse} forall
	/Encoding isolatin1encoding def
    currentdict end
definefont pop
/NewCenturySchoolbook-BoldItalic-latin1
    /NewCenturySchoolbook-BoldItalic findfont
    dup length dict begin
	{1 index /FID ne {def} {pop pop} ifelse} forall
	/Encoding isolatin1encoding def
    currentdict end
definefont pop
/Palatino-Roman-latin1
    /Palatino-Roman findfont
    dup length dict begin
	{1 index /FID ne {def} {pop pop} ifelse} forall
	/Encoding isolatin1encoding def
    currentdict end
definefont pop
/Palatino-Italic-latin1
    /Palatino-Italic findfont
    dup length dict begin
	{1 index /FID ne {def} {pop pop} ifelse} forall
	/Encoding isolatin1encoding def
    currentdict end
definefont pop
/Palatino-Bold-latin1
    /Palatino-Bold findfont
    dup length dict begin
	{1 index /FID ne {def} {pop pop} ifelse} forall
	/Encoding isolatin1encoding def
    currentdict end
definefont pop
/Palatino-BoldItalic-latin1
    /Palatino-BoldItalic findfont
    dup length dict begin
	{1 index /FID ne {def} {pop pop} ifelse} forall
	/Encoding isolatin1encoding def
    currentdict end
definefont pop
/Symbol-latin1
    /Symbol findfont
definefont pop
/ZapfChancery-MediumItalic-latin1
    /ZapfChancery-MediumItalic findfont
    dup length dict begin
	{1 index /FID ne {def} {pop pop} ifelse} forall
	/Encoding isolatin1encoding def
    currentdict end
definefont pop
/ZapfDingbats-latin1
    /ZapfDingbats findfont
    dup length dict begin
	{1 index /FID ne {def} {pop pop} ifelse} forall
	/Encoding isolatin1encoding def
    currentdict end
definefont pop
/cp {closepath} bind def
/c {curveto} bind def
/f {fill} bind def
/a {arc} bind def
/ef {eofill} bind def
/ex {exch} bind def
/gr {grestore} bind def
/gs {gsave} bind def
/sa {save} bind def
/rs {restore} bind def
/l {lineto} bind def
/m {moveto} bind def
/rm {rmoveto} bind def
/n {newpath} bind def
/s {stroke} bind def
/sh {show} bind def
/slc {setlinecap} bind def
/slj {setlinejoin} bind def
/slw {setlinewidth} bind def
/srgb {setrgbcolor} bind def
/rot {rotate} bind def
/sc {scale} bind def
/sd {setdash} bind def
/ff {findfont} bind def
/sf {setfont} bind def
/scf {scalefont} bind def
/sw {stringwidth pop} bind def
/tr {translate} bind def

/ellipsedict 8 dict def
ellipsedict /mtrx matrix put
/ellipse
{ ellipsedict begin
   /endangle exch def
   /startangle exch def
   /yrad exch def
   /xrad exch def
   /y exch def
   /x exch def   /savematrix mtrx currentmatrix def
   x y tr xrad yrad sc
   0 0 1 startangle endangle arc
   savematrix setmatrix
   end
} def

/mergeprocs {
dup length
3 -1 roll
dup
length
dup
5 1 roll
3 -1 roll
add
array cvx
dup
3 -1 roll
0 exch
putinterval
dup
4 2 roll
putinterval
} bind def
7.086500 -7.086500 scale
-1.550000 -89.165517 translate
%%EndProlog


0.100000 slw
[0.200000] 0 sd
[0.200000] 0 sd
0 slj
0.000000 0.000000 0.000000 srgb
n 10.000000 52.000000 m 10.000000 88.000000 l 29.000000 88.000000 l 29.000000 52.000000 l cp s
0.100000 slw
[0.200000] 0 sd
[0.200000] 0 sd
0 slj
0.000000 0.000000 0.000000 srgb
n 13.000000 2.000000 m 13.000000 50.000000 l 29.000000 50.000000 l 29.000000 2.000000 l cp s
0.100000 slw
[] 0 sd
1.000000 1.000000 1.000000 srgb
n 14.000000 26.000000 m 14.000000 27.400000 l 27.889600 27.400000 l 27.889600 26.000000 l f
0.000000 0.000000 0.000000 srgb
n 14.000000 26.000000 m 14.000000 27.400000 l 27.889600 27.400000 l 27.889600 26.000000 l cp s
/Helvetica-Bold-latin1 ff 1.000000 scf sf
0.000000 0.000000 0.000000 srgb
(TextNode) dup sw 2 div 20.944800 ex sub 27.000000 m gs 1 -1 sc sh gr
1.000000 1.000000 1.000000 srgb
n 14.000000 27.400000 m 14.000000 42.000000 l 27.889600 42.000000 l 27.889600 27.400000 l f
0.000000 0.000000 0.000000 srgb
n 14.000000 27.400000 m 14.000000 42.000000 l 27.889600 42.000000 l 27.889600 27.400000 l cp s
/Courier-latin1 ff 0.800000 scf sf
0.000000 0.000000 0.000000 srgb
(+id: INT) 14.150000 28.134483 m gs 1 -1 sc sh gr
/Courier-latin1 ff 0.800000 scf sf
0.000000 0.000000 0.000000 srgb
(+title: VARCHAR\(255\)) 14.150000 28.934483 m gs 1 -1 sc sh gr
/Courier-latin1 ff 0.800000 scf sf
0.000000 0.000000 0.000000 srgb
(+htmlTitle: VARCHAR\(255\)) 14.150000 29.734483 m gs 1 -1 sc sh gr
/Courier-latin1 ff 0.800000 scf sf
0.000000 0.000000 0.000000 srgb
(+filename: VARCHAR\(255\)) 14.150000 30.534483 m gs 1 -1 sc sh gr
/Courier-latin1 ff 0.800000 scf sf
0.000000 0.000000 0.000000 srgb
(+summary: VARCHAR\(255\)) 14.150000 31.334483 m gs 1 -1 sc sh gr
/Courier-latin1 ff 0.800000 scf sf
0.000000 0.000000 0.000000 srgb
(+childrenGroup_id: INT) 14.150000 32.134483 m gs 1 -1 sc sh gr
/Courier-latin1 ff 0.800000 scf sf
0.000000 0.000000 0.000000 srgb
(+number: INT) 14.150000 32.934483 m gs 1 -1 sc sh gr
/Courier-latin1 ff 0.800000 scf sf
0.000000 0.000000 0.000000 srgb
(+markupStyle_id: INT) 14.150000 33.734483 m gs 1 -1 sc sh gr
/Courier-latin1 ff 0.800000 scf sf
0.000000 0.000000 0.000000 srgb
(+sourceBody_id: INT) 14.150000 34.534483 m gs 1 -1 sc sh gr
/Courier-latin1 ff 0.800000 scf sf
0.000000 0.000000 0.000000 srgb
(+objectBody_id: INT) 14.150000 35.334483 m gs 1 -1 sc sh gr
/Courier-latin1 ff 0.800000 scf sf
0.000000 0.000000 0.000000 srgb
(+thumbnail_id: INT) 14.150000 36.134483 m gs 1 -1 sc sh gr
/Courier-latin1 ff 0.800000 scf sf
0.000000 0.000000 0.000000 srgb
(+isPublished: BOOLEAN) 14.150000 36.934483 m gs 1 -1 sc sh gr
/Courier-latin1 ff 0.800000 scf sf
0.000000 0.000000 0.000000 srgb
(+creationTime: DATETIME) 14.150000 37.734483 m gs 1 -1 sc sh gr
/Courier-latin1 ff 0.800000 scf sf
0.000000 0.000000 0.000000 srgb
(+modificationTime: DATETIME) 14.150000 38.534483 m gs 1 -1 sc sh gr
/Courier-latin1 ff 0.800000 scf sf
0.000000 0.000000 0.000000 srgb
(+style_id: INT) 14.150000 39.334483 m gs 1 -1 sc sh gr
/Courier-latin1 ff 0.800000 scf sf
0.000000 0.000000 0.000000 srgb
(+viewAcl_id: INT) 14.150000 40.134483 m gs 1 -1 sc sh gr
/Courier-latin1 ff 0.800000 scf sf
0.000000 0.000000 0.000000 srgb
(+editAcl_id: INT) 14.150000 40.934483 m gs 1 -1 sc sh gr
/Courier-latin1 ff 0.800000 scf sf
0.000000 0.000000 0.000000 srgb
(+deleteAcl_id: INT) 14.150000 41.734483 m gs 1 -1 sc sh gr
1.000000 1.000000 1.000000 srgb
n 14.000000 42.000000 m 14.000000 42.400000 l 27.889600 42.400000 l 27.889600 42.000000 l f
0.000000 0.000000 0.000000 srgb
n 14.000000 42.000000 m 14.000000 42.400000 l 27.889600 42.400000 l 27.889600 42.000000 l cp s
0.100000 slw
[] 0 sd
0 slj
0 slc
0.000000 0.000000 0.000000 srgb
n 27.889600 33.500000 m 59.000000 33.500000 l 59.000000 25.900000 l 55.011200 25.900000 l s
[] 0 sd
0 slj
0 slc
1.000000 1.000000 1.000000 srgb
n 55.011200 25.900000 m 55.711200 25.660000 l 56.411200 25.900000 l 55.711200 26.140000 l f
0.100000 slw
[] 0 sd
0 slj
0 slc
0.000000 0.000000 0.000000 srgb
n 55.011200 25.900000 m 55.711200 25.660000 l 56.411200 25.900000 l 55.711200 26.140000 l cp s
/Courier-latin1 ff 0.800000 scf sf
0.000000 0.000000 0.000000 srgb
(markupStyle) 27.889600 33.334483 m gs 1 -1 sc sh gr
0.000000 0.000000 0.000000 srgb
(textNodes) 55.011200 25.734483 m gs 1 -1 sc sh gr
0.100000 slw
[] 0 sd
1.000000 1.000000 1.000000 srgb
n 14.000000 18.000000 m 14.000000 19.400000 l 22.072000 19.400000 l 22.072000 18.000000 l f
0.000000 0.000000 0.000000 srgb
n 14.000000 18.000000 m 14.000000 19.400000 l 22.072000 19.400000 l 22.072000 18.000000 l cp s
/Helvetica-Bold-latin1 ff 1.000000 scf sf
0.000000 0.000000 0.000000 srgb
(SourceBody) dup sw 2 div 18.036000 ex sub 19.000000 m gs 1 -1 sc sh gr
1.000000 1.000000 1.000000 srgb
n 14.000000 19.400000 m 14.000000 21.200000 l 22.072000 21.200000 l 22.072000 19.400000 l f
0.000000 0.000000 0.000000 srgb
n 14.000000 19.400000 m 14.000000 21.200000 l 22.072000 21.200000 l 22.072000 19.400000 l cp s
/Courier-latin1 ff 0.800000 scf sf
0.000000 0.000000 0.000000 srgb
(+id: INT) 14.150000 20.134483 m gs 1 -1 sc sh gr
/Courier-latin1 ff 0.800000 scf sf
0.000000 0.000000 0.000000 srgb
(+contents: TEXT) 14.150000 20.934483 m gs 1 -1 sc sh gr
1.000000 1.000000 1.000000 srgb
n 14.000000 21.200000 m 14.000000 21.600000 l 22.072000 21.600000 l 22.072000 21.200000 l f
0.000000 0.000000 0.000000 srgb
n 14.000000 21.200000 m 14.000000 21.600000 l 22.072000 21.600000 l 22.072000 21.200000 l cp s
0.100000 slw
[] 0 sd
1.000000 1.000000 1.000000 srgb
n 14.000000 22.000000 m 14.000000 23.400000 l 22.072000 23.400000 l 22.072000 22.000000 l f
0.000000 0.000000 0.000000 srgb
n 14.000000 22.000000 m 14.000000 23.400000 l 22.072000 23.400000 l 22.072000 22.000000 l cp s
/Helvetica-Bold-latin1 ff 1.000000 scf sf
0.000000 0.000000 0.000000 srgb
(ObjectBody) dup sw 2 div 18.036000 ex sub 23.000000 m gs 1 -1 sc sh gr
1.000000 1.000000 1.000000 srgb
n 14.000000 23.400000 m 14.000000 25.200000 l 22.072000 25.200000 l 22.072000 23.400000 l f
0.000000 0.000000 0.000000 srgb
n 14.000000 23.400000 m 14.000000 25.200000 l 22.072000 25.200000 l 22.072000 23.400000 l cp s
/Courier-latin1 ff 0.800000 scf sf
0.000000 0.000000 0.000000 srgb
(+id: INT) 14.150000 24.134483 m gs 1 -1 sc sh gr
/Courier-latin1 ff 0.800000 scf sf
0.000000 0.000000 0.000000 srgb
(+contents: TEXT) 14.150000 24.934483 m gs 1 -1 sc sh gr
1.000000 1.000000 1.000000 srgb
n 14.000000 25.200000 m 14.000000 25.600000 l 22.072000 25.600000 l 22.072000 25.200000 l f
0.000000 0.000000 0.000000 srgb
n 14.000000 25.200000 m 14.000000 25.600000 l 22.072000 25.600000 l 22.072000 25.200000 l cp s
0.100000 slw
[] 0 sd
0 slj
0 slc
0.000000 0.000000 0.000000 srgb
n 27.889600 35.100000 m 33.000000 35.100000 l 33.000000 23.900000 l 22.072000 23.900000 l s
[] 0 sd
0 slj
0 slc
1.000000 1.000000 1.000000 srgb
n 22.072000 23.900000 m 22.772000 23.660000 l 23.472000 23.900000 l 22.772000 24.140000 l f
0.100000 slw
[] 0 sd
0 slj
0 slc
0.000000 0.000000 0.000000 srgb
n 22.072000 23.900000 m 22.772000 23.660000 l 23.472000 23.900000 l 22.772000 24.140000 l cp s
/Courier-latin1 ff 0.800000 scf sf
0.000000 0.000000 0.000000 srgb
(objectBody) 27.889600 34.934483 m gs 1 -1 sc sh gr
0.000000 0.000000 0.000000 srgb
(pages) 22.072000 23.734483 m gs 1 -1 sc sh gr
0.100000 slw
[] 0 sd
0 slj
0 slc
0.000000 0.000000 0.000000 srgb
n 27.889600 34.300000 m 34.000000 34.300000 l 34.000000 19.900000 l 22.072000 19.900000 l s
[] 0 sd
0 slj
0 slc
1.000000 1.000000 1.000000 srgb
n 22.072000 19.900000 m 22.772000 19.660000 l 23.472000 19.900000 l 22.772000 20.140000 l f
0.100000 slw
[] 0 sd
0 slj
0 slc
0.000000 0.000000 0.000000 srgb
n 22.072000 19.900000 m 22.772000 19.660000 l 23.472000 19.900000 l 22.772000 20.140000 l cp s
/Courier-latin1 ff 0.800000 scf sf
0.000000 0.000000 0.000000 srgb
(sourceBody) 27.889600 34.134483 m gs 1 -1 sc sh gr
0.000000 0.000000 0.000000 srgb
(pages) 22.072000 19.734483 m gs 1 -1 sc sh gr
0.100000 slw
[] 0 sd
1.000000 1.000000 1.000000 srgb
n 14.000000 3.000000 m 14.000000 4.400000 l 23.526400 4.400000 l 23.526400 3.000000 l f
0.000000 0.000000 0.000000 srgb
n 14.000000 3.000000 m 14.000000 4.400000 l 23.526400 4.400000 l 23.526400 3.000000 l cp s
/Helvetica-Bold-latin1 ff 1.000000 scf sf
0.000000 0.000000 0.000000 srgb
(SinglePageImage) dup sw 2 div 18.763200 ex sub 4.000000 m gs 1 -1 sc sh gr
1.000000 1.000000 1.000000 srgb
n 14.000000 4.400000 m 14.000000 8.600000 l 23.526400 8.600000 l 23.526400 4.400000 l f
0.000000 0.000000 0.000000 srgb
n 14.000000 4.400000 m 14.000000 8.600000 l 23.526400 8.600000 l 23.526400 4.400000 l cp s
/Courier-latin1 ff 0.800000 scf sf
0.000000 0.000000 0.000000 srgb
(+id: INT) 14.150000 5.134483 m gs 1 -1 sc sh gr
/Courier-latin1 ff 0.800000 scf sf
0.000000 0.000000 0.000000 srgb
(+filename: VARCHAR) 14.150000 5.934483 m gs 1 -1 sc sh gr
/Courier-latin1 ff 0.800000 scf sf
0.000000 0.000000 0.000000 srgb
(+width: INT) 14.150000 6.734483 m gs 1 -1 sc sh gr
/Courier-latin1 ff 0.800000 scf sf
0.000000 0.000000 0.000000 srgb
(+height: INT) 14.150000 7.534483 m gs 1 -1 sc sh gr
/Courier-latin1 ff 0.800000 scf sf
0.000000 0.000000 0.000000 srgb
(+kilobytes: INT) 14.150000 8.334483 m gs 1 -1 sc sh gr
1.000000 1.000000 1.000000 srgb
n 14.000000 8.600000 m 14.000000 9.000000 l 23.526400 9.000000 l 23.526400 8.600000 l f
0.000000 0.000000 0.000000 srgb
n 14.000000 8.600000 m 14.000000 9.000000 l 23.526400 9.000000 l 23.526400 8.600000 l cp s
0.100000 slw
[] 0 sd
0 slj
0 slc
0.000000 0.000000 0.000000 srgb
n 25.950400 12.700000 m 31.000000 12.700000 l 31.000000 27.900000 l 27.889600 27.900000 l s
[] 0 sd
0 slj
0 slc
1.000000 1.000000 1.000000 srgb
n 27.889600 27.900000 m 28.589600 27.660000 l 29.289600 27.900000 l 28.589600 28.140000 l f
0.100000 slw
[] 0 sd
0 slj
0 slc
0.000000 0.000000 0.000000 srgb
n 27.889600 27.900000 m 28.589600 27.660000 l 29.289600 27.900000 l 28.589600 28.140000 l cp s
/Courier-latin1 ff 0.800000 scf sf
0.000000 0.000000 0.000000 srgb
(page) 25.950400 12.534483 m gs 1 -1 sc sh gr
0.000000 0.000000 0.000000 srgb
(images) 27.889600 27.734483 m gs 1 -1 sc sh gr
0.100000 slw
[] 0 sd
0 slj
0 slc
0.000000 0.000000 0.000000 srgb
n 25.950400 13.500000 m 36.000000 13.500000 l 36.000000 4.900000 l 23.526400 4.900000 l s
[] 0 sd
0 slj
0 slc
1.000000 1.000000 1.000000 srgb
n 23.526400 4.900000 m 24.226400 4.660000 l 24.926400 4.900000 l 24.226400 5.140000 l f
0.100000 slw
[] 0 sd
0 slj
0 slc
0.000000 0.000000 0.000000 srgb
n 23.526400 4.900000 m 24.226400 4.660000 l 24.926400 4.900000 l 24.226400 5.140000 l cp s
/Courier-latin1 ff 0.800000 scf sf
0.000000 0.000000 0.000000 srgb
(inlineImage) 25.950400 13.334483 m gs 1 -1 sc sh gr
0.000000 0.000000 0.000000 srgb
(inlineInliners) 23.526400 4.734483 m gs 1 -1 sc sh gr
0.100000 slw
[] 0 sd
1.000000 1.000000 1.000000 srgb
n 14.000000 10.000000 m 14.000000 11.400000 l 25.950400 11.400000 l 25.950400 10.000000 l f
0.000000 0.000000 0.000000 srgb
n 14.000000 10.000000 m 14.000000 11.400000 l 25.950400 11.400000 l 25.950400 10.000000 l cp s
/Helvetica-Bold-latin1 ff 1.000000 scf sf
0.000000 0.000000 0.000000 srgb
(InlinePageImage) dup sw 2 div 19.975200 ex sub 11.000000 m gs 1 -1 sc sh gr
1.000000 1.000000 1.000000 srgb
n 14.000000 11.400000 m 14.000000 17.200000 l 25.950400 17.200000 l 25.950400 11.400000 l f
0.000000 0.000000 0.000000 srgb
n 14.000000 11.400000 m 14.000000 17.200000 l 25.950400 17.200000 l 25.950400 11.400000 l cp s
/Courier-latin1 ff 0.800000 scf sf
0.000000 0.000000 0.000000 srgb
(+id: INT) 14.150000 12.134483 m gs 1 -1 sc sh gr
/Courier-latin1 ff 0.800000 scf sf
0.000000 0.000000 0.000000 srgb
(+page_id: INT) 14.150000 12.934483 m gs 1 -1 sc sh gr
/Courier-latin1 ff 0.800000 scf sf
0.000000 0.000000 0.000000 srgb
(+inlineImage_id: INT) 14.150000 13.734483 m gs 1 -1 sc sh gr
/Courier-latin1 ff 0.800000 scf sf
0.000000 0.000000 0.000000 srgb
(+fullImage_id: INT) 14.150000 14.534483 m gs 1 -1 sc sh gr
/Courier-latin1 ff 0.800000 scf sf
0.000000 0.000000 0.000000 srgb
(+printImage_id: INT) 14.150000 15.334483 m gs 1 -1 sc sh gr
/Courier-latin1 ff 0.800000 scf sf
0.000000 0.000000 0.000000 srgb
(+name: VARCHAR\(255\)) 14.150000 16.134483 m gs 1 -1 sc sh gr
/Courier-latin1 ff 0.800000 scf sf
0.000000 0.000000 0.000000 srgb
(+imageClickMode_id: INT) 14.150000 16.934483 m gs 1 -1 sc sh gr
1.000000 1.000000 1.000000 srgb
n 14.000000 17.200000 m 14.000000 17.600000 l 25.950400 17.600000 l 25.950400 17.200000 l f
0.000000 0.000000 0.000000 srgb
n 14.000000 17.200000 m 14.000000 17.600000 l 25.950400 17.600000 l 25.950400 17.200000 l cp s
0.100000 slw
[] 0 sd
0 slj
0 slc
0.000000 0.000000 0.000000 srgb
n 14.000000 35.900000 m 7.000000 35.900000 l 7.000000 4.900000 l 14.000000 4.900000 l s
[] 0 sd
0 slj
0 slc
1.000000 1.000000 1.000000 srgb
n 14.000000 4.900000 m 13.300000 5.140000 l 12.600000 4.900000 l 13.300000 4.660000 l f
0.100000 slw
[] 0 sd
0 slj
0 slc
0.000000 0.000000 0.000000 srgb
n 14.000000 4.900000 m 13.300000 5.140000 l 12.600000 4.900000 l 13.300000 4.660000 l cp s
/Courier-latin1 ff 0.800000 scf sf
0.000000 0.000000 0.000000 srgb
(thumbnail) dup sw 14.000000 ex sub 35.734483 m gs 1 -1 sc sh gr
0.000000 0.000000 0.000000 srgb
(thumbnailPages) dup sw 14.000000 ex sub 4.734483 m gs 1 -1 sc sh gr
0.100000 slw
[] 0 sd
0 slj
0 slc
0.000000 0.000000 0.000000 srgb
n 25.950400 15.100000 m 34.000000 15.100000 l 34.000000 4.900000 l 23.526400 4.900000 l s
[] 0 sd
0 slj
0 slc
1.000000 1.000000 1.000000 srgb
n 23.526400 4.900000 m 24.226400 4.660000 l 24.926400 4.900000 l 24.226400 5.140000 l f
0.100000 slw
[] 0 sd
0 slj
0 slc
0.000000 0.000000 0.000000 srgb
n 23.526400 4.900000 m 24.226400 4.660000 l 24.926400 4.900000 l 24.226400 5.140000 l cp s
/Courier-latin1 ff 0.800000 scf sf
0.000000 0.000000 0.000000 srgb
(printImage) 25.950400 14.934483 m gs 1 -1 sc sh gr
0.000000 0.000000 0.000000 srgb
(printInliners) 23.526400 4.734483 m gs 1 -1 sc sh gr
0.100000 slw
[] 0 sd
0 slj
0 slc
0.000000 0.000000 0.000000 srgb
n 25.950400 14.300000 m 35.000000 14.300000 l 35.000000 4.900000 l 23.526400 4.900000 l s
[] 0 sd
0 slj
0 slc
1.000000 1.000000 1.000000 srgb
n 23.526400 4.900000 m 24.226400 4.660000 l 24.926400 4.900000 l 24.226400 5.140000 l f
0.100000 slw
[] 0 sd
0 slj
0 slc
0.000000 0.000000 0.000000 srgb
n 23.526400 4.900000 m 24.226400 4.660000 l 24.926400 4.900000 l 24.226400 5.140000 l cp s
/Courier-latin1 ff 0.800000 scf sf
0.000000 0.000000 0.000000 srgb
(fullImage) 25.950400 14.134483 m gs 1 -1 sc sh gr
0.000000 0.000000 0.000000 srgb
(fullInliners) 23.526400 4.734483 m gs 1 -1 sc sh gr
0.100000 slw
[] 0 sd
1.000000 1.000000 1.000000 srgb
n 11.000000 53.000000 m 11.000000 54.400000 l 26.344000 54.400000 l 26.344000 53.000000 l f
0.000000 0.000000 0.000000 srgb
n 11.000000 53.000000 m 11.000000 54.400000 l 26.344000 54.400000 l 26.344000 53.000000 l cp s
/Helvetica-Bold-latin1 ff 1.000000 scf sf
0.000000 0.000000 0.000000 srgb
(TextNodeStyle) dup sw 2 div 18.672000 ex sub 54.000000 m gs 1 -1 sc sh gr
1.000000 1.000000 1.000000 srgb
n 11.000000 54.400000 m 11.000000 68.200000 l 26.344000 68.200000 l 26.344000 54.400000 l f
0.000000 0.000000 0.000000 srgb
n 11.000000 54.400000 m 11.000000 68.200000 l 26.344000 68.200000 l 26.344000 54.400000 l cp s
/Courier-latin1 ff 0.800000 scf sf
0.000000 0.000000 0.000000 srgb
(+id: INT) 11.150000 55.134483 m gs 1 -1 sc sh gr
/Courier-latin1 ff 0.800000 scf sf
0.000000 0.000000 0.000000 srgb
(+name: VARCHAR) 11.150000 55.934483 m gs 1 -1 sc sh gr
/Courier-latin1 ff 0.800000 scf sf
0.000000 0.000000 0.000000 srgb
(+hasSummary: BOOLEAN) 11.150000 56.734483 m gs 1 -1 sc sh gr
/Courier-latin1 ff 0.800000 scf sf
0.000000 0.000000 0.000000 srgb
(+hasBody: BOOLEAN) 11.150000 57.534483 m gs 1 -1 sc sh gr
/Courier-latin1 ff 0.800000 scf sf
0.000000 0.000000 0.000000 srgb
(+markupStyle_id: INT) 11.150000 58.334483 m gs 1 -1 sc sh gr
/Courier-latin1 ff 0.800000 scf sf
0.000000 0.000000 0.000000 srgb
(+canChangeMarkupStyle: BOOLEAN) 11.150000 59.134483 m gs 1 -1 sc sh gr
/Courier-latin1 ff 0.800000 scf sf
0.000000 0.000000 0.000000 srgb
(+viewAcl_id: INT) 11.150000 59.934483 m gs 1 -1 sc sh gr
/Courier-latin1 ff 0.800000 scf sf
0.000000 0.000000 0.000000 srgb
(+updateViewAcl_id: INT) 11.150000 60.734483 m gs 1 -1 sc sh gr
/Courier-latin1 ff 0.800000 scf sf
0.000000 0.000000 0.000000 srgb
(+editAcl_id: INT) 11.150000 61.534483 m gs 1 -1 sc sh gr
/Courier-latin1 ff 0.800000 scf sf
0.000000 0.000000 0.000000 srgb
(+updateEditAcl_id: INT) 11.150000 62.334483 m gs 1 -1 sc sh gr
/Courier-latin1 ff 0.800000 scf sf
0.000000 0.000000 0.000000 srgb
(+deleteAcl_id: INT) 11.150000 63.134483 m gs 1 -1 sc sh gr
/Courier-latin1 ff 0.800000 scf sf
0.000000 0.000000 0.000000 srgb
(+updateDeleteAcl_id: INT) 11.150000 63.934483 m gs 1 -1 sc sh gr
/Courier-latin1 ff 0.800000 scf sf
0.000000 0.000000 0.000000 srgb
(+imageStyle_id: INT) 11.150000 64.734483 m gs 1 -1 sc sh gr
/Courier-latin1 ff 0.800000 scf sf
0.000000 0.000000 0.000000 srgb
(+renderSummaryOnPage: BOOLEAN) 11.150000 65.534483 m gs 1 -1 sc sh gr
/Courier-latin1 ff 0.800000 scf sf
0.000000 0.000000 0.000000 srgb
(+showThumbnail: BOOLEAN) 11.150000 66.334483 m gs 1 -1 sc sh gr
/Courier-latin1 ff 0.800000 scf sf
0.000000 0.000000 0.000000 srgb
(+viewTemplateName: VARCHAR) 11.150000 67.134483 m gs 1 -1 sc sh gr
/Courier-latin1 ff 0.800000 scf sf
0.000000 0.000000 0.000000 srgb
(+editTemplateName: VARCHAR) 11.150000 67.934483 m gs 1 -1 sc sh gr
1.000000 1.000000 1.000000 srgb
n 11.000000 68.200000 m 11.000000 68.600000 l 26.344000 68.600000 l 26.344000 68.200000 l f
0.000000 0.000000 0.000000 srgb
n 11.000000 68.200000 m 11.000000 68.600000 l 26.344000 68.600000 l 26.344000 68.200000 l cp s
0.100000 slw
[] 0 sd
0 slj
0 slc
0.000000 0.000000 0.000000 srgb
n 14.000000 31.900000 m 10.000000 31.900000 l 10.000000 44.900000 l 14.000000 44.900000 l s
[] 0 sd
0 slj
0 slc
1.000000 1.000000 1.000000 srgb
n 14.000000 44.900000 m 13.300000 45.140000 l 12.600000 44.900000 l 13.300000 44.660000 l f
0.100000 slw
[] 0 sd
0 slj
0 slc
0.000000 0.000000 0.000000 srgb
n 14.000000 44.900000 m 13.300000 45.140000 l 12.600000 44.900000 l 13.300000 44.660000 l cp s
/Courier-latin1 ff 0.800000 scf sf
0.000000 0.000000 0.000000 srgb
(parent) dup sw 14.000000 ex sub 31.734483 m gs 1 -1 sc sh gr
0.000000 0.000000 0.000000 srgb
(children) dup sw 14.000000 ex sub 44.734483 m gs 1 -1 sc sh gr
0.100000 slw
[] 0 sd
0 slj
0 slc
0.000000 0.000000 0.000000 srgb
n 14.000000 39.100000 m 3.000000 39.100000 l 3.000000 54.900000 l 11.000000 54.900000 l s
[] 0 sd
0 slj
0 slc
1.000000 1.000000 1.000000 srgb
n 11.000000 54.900000 m 10.300000 55.140000 l 9.600000 54.900000 l 10.300000 54.660000 l f
0.100000 slw
[] 0 sd
0 slj
0 slc
0.000000 0.000000 0.000000 srgb
n 11.000000 54.900000 m 10.300000 55.140000 l 9.600000 54.900000 l 10.300000 54.660000 l cp s
/Courier-latin1 ff 0.800000 scf sf
0.000000 0.000000 0.000000 srgb
(style) dup sw 14.000000 ex sub 38.934483 m gs 1 -1 sc sh gr
0.000000 0.000000 0.000000 srgb
(nodes) dup sw 11.000000 ex sub 54.734483 m gs 1 -1 sc sh gr
0.100000 slw
[] 0 sd
1.000000 1.000000 1.000000 srgb
n 11.000000 70.000000 m 11.000000 71.400000 l 25.859200 71.400000 l 25.859200 70.000000 l f
0.000000 0.000000 0.000000 srgb
n 11.000000 70.000000 m 11.000000 71.400000 l 25.859200 71.400000 l 25.859200 70.000000 l cp s
/Helvetica-Bold-latin1 ff 1.000000 scf sf
0.000000 0.000000 0.000000 srgb
(ChildrenGroupStyle) dup sw 2 div 18.429600 ex sub 71.000000 m gs 1 -1 sc sh gr
1.000000 1.000000 1.000000 srgb
n 11.000000 71.400000 m 11.000000 77.200000 l 25.859200 77.200000 l 25.859200 71.400000 l f
0.000000 0.000000 0.000000 srgb
n 11.000000 71.400000 m 11.000000 77.200000 l 25.859200 77.200000 l 25.859200 71.400000 l cp s
/Courier-latin1 ff 0.800000 scf sf
0.000000 0.000000 0.000000 srgb
(+id: INT) 11.150000 72.134483 m gs 1 -1 sc sh gr
/Courier-latin1 ff 0.800000 scf sf
0.000000 0.000000 0.000000 srgb
(+name: VARCHAR) 11.150000 72.934483 m gs 1 -1 sc sh gr
/Courier-latin1 ff 0.800000 scf sf
0.000000 0.000000 0.000000 srgb
(+parentTextNodeStyle_id: ) 11.150000 73.734483 m gs 1 -1 sc sh gr
/Courier-latin1 ff 0.800000 scf sf
0.000000 0.000000 0.000000 srgb
(+childTextNodeStyle_id: INT) 11.150000 74.534483 m gs 1 -1 sc sh gr
/Courier-latin1 ff 0.800000 scf sf
0.000000 0.000000 0.000000 srgb
(+createChildAcl_id: INT) 11.150000 75.334483 m gs 1 -1 sc sh gr
/Courier-latin1 ff 0.800000 scf sf
0.000000 0.000000 0.000000 srgb
(+updateCreateChildAcl_id: INT) 11.150000 76.134483 m gs 1 -1 sc sh gr
/Courier-latin1 ff 0.800000 scf sf
0.000000 0.000000 0.000000 srgb
(+number: INT) 11.150000 76.934483 m gs 1 -1 sc sh gr
1.000000 1.000000 1.000000 srgb
n 11.000000 77.200000 m 11.000000 77.600000 l 25.859200 77.600000 l 25.859200 77.200000 l f
0.000000 0.000000 0.000000 srgb
n 11.000000 77.200000 m 11.000000 77.600000 l 25.859200 77.600000 l 25.859200 77.200000 l cp s
0.100000 slw
[] 0 sd
1.000000 1.000000 1.000000 srgb
n 14.000000 43.000000 m 14.000000 44.400000 l 27.889600 44.400000 l 27.889600 43.000000 l f
0.000000 0.000000 0.000000 srgb
n 14.000000 43.000000 m 14.000000 44.400000 l 27.889600 44.400000 l 27.889600 43.000000 l cp s
/Helvetica-Bold-latin1 ff 1.000000 scf sf
0.000000 0.000000 0.000000 srgb
(ChildrenGroup) dup sw 2 div 20.944800 ex sub 44.000000 m gs 1 -1 sc sh gr
1.000000 1.000000 1.000000 srgb
n 14.000000 44.400000 m 14.000000 48.600000 l 27.889600 48.600000 l 27.889600 44.400000 l f
0.000000 0.000000 0.000000 srgb
n 14.000000 44.400000 m 14.000000 48.600000 l 27.889600 48.600000 l 27.889600 44.400000 l cp s
/Courier-latin1 ff 0.800000 scf sf
0.000000 0.000000 0.000000 srgb
(+id: INT) 14.150000 45.134483 m gs 1 -1 sc sh gr
/Courier-latin1 ff 0.800000 scf sf
0.000000 0.000000 0.000000 srgb
(+textNode_id: INT) 14.150000 45.934483 m gs 1 -1 sc sh gr
/Courier-latin1 ff 0.800000 scf sf
0.000000 0.000000 0.000000 srgb
(+createChildAcl_id: INT) 14.150000 46.734483 m gs 1 -1 sc sh gr
/Courier-latin1 ff 0.800000 scf sf
0.000000 0.000000 0.000000 srgb
(+number: INT) 14.150000 47.534483 m gs 1 -1 sc sh gr
/Courier-latin1 ff 0.800000 scf sf
0.000000 0.000000 0.000000 srgb
(+childrenGroupStyle_id: INT) 14.150000 48.334483 m gs 1 -1 sc sh gr
1.000000 1.000000 1.000000 srgb
n 14.000000 48.600000 m 14.000000 49.000000 l 27.889600 49.000000 l 27.889600 48.600000 l f
0.000000 0.000000 0.000000 srgb
n 14.000000 48.600000 m 14.000000 49.000000 l 27.889600 49.000000 l 27.889600 48.600000 l cp s
0.100000 slw
[] 0 sd
0 slj
0 slc
0.000000 0.000000 0.000000 srgb
n 11.000000 73.500000 m 4.000000 73.500000 l 4.000000 54.900000 l 11.000000 54.900000 l s
[] 0 sd
0 slj
0 slc
1.000000 1.000000 1.000000 srgb
n 11.000000 54.900000 m 10.300000 55.140000 l 9.600000 54.900000 l 10.300000 54.660000 l f
0.100000 slw
[] 0 sd
0 slj
0 slc
0.000000 0.000000 0.000000 srgb
n 11.000000 54.900000 m 10.300000 55.140000 l 9.600000 54.900000 l 10.300000 54.660000 l cp s
/Courier-latin1 ff 0.800000 scf sf
0.000000 0.000000 0.000000 srgb
(parentStyle) dup sw 11.000000 ex sub 73.334483 m gs 1 -1 sc sh gr
0.000000 0.000000 0.000000 srgb
(childrenGroupStyles) dup sw 11.000000 ex sub 54.734483 m gs 1 -1 sc sh gr
0.100000 slw
[] 0 sd
0 slj
0 slc
0.000000 0.000000 0.000000 srgb
n 26.344000 58.100000 m 36.000000 58.100000 l 36.000000 25.900000 l 45.000000 25.900000 l s
[] 0 sd
0 slj
0 slc
1.000000 1.000000 1.000000 srgb
n 45.000000 25.900000 m 44.300000 26.140000 l 43.600000 25.900000 l 44.300000 25.660000 l f
0.100000 slw
[] 0 sd
0 slj
0 slc
0.000000 0.000000 0.000000 srgb
n 45.000000 25.900000 m 44.300000 26.140000 l 43.600000 25.900000 l 44.300000 25.660000 l cp s
/Courier-latin1 ff 0.800000 scf sf
0.000000 0.000000 0.000000 srgb
(markupStyle) 26.344000 57.934483 m gs 1 -1 sc sh gr
0.000000 0.000000 0.000000 srgb
(textNodeStyles) dup sw 45.000000 ex sub 25.734483 m gs 1 -1 sc sh gr
0.100000 slw
[] 0 sd
1.000000 1.000000 1.000000 srgb
n 50.000000 63.000000 m 50.000000 64.400000 l 59.193100 64.400000 l 59.193100 63.000000 l f
0.000000 0.000000 0.000000 srgb
n 50.000000 63.000000 m 50.000000 64.400000 l 59.193100 64.400000 l 59.193100 63.000000 l cp s
/Helvetica-Bold-latin1 ff 1.000000 scf sf
0.000000 0.000000 0.000000 srgb
(Acl \(foreign table\)) dup sw 2 div 54.596550 ex sub 64.000000 m gs 1 -1 sc sh gr
1.000000 1.000000 1.000000 srgb
n 50.000000 64.400000 m 50.000000 65.400000 l 59.193100 65.400000 l 59.193100 64.400000 l f
0.000000 0.000000 0.000000 srgb
n 50.000000 64.400000 m 50.000000 65.400000 l 59.193100 65.400000 l 59.193100 64.400000 l cp s
/Courier-latin1 ff 0.800000 scf sf
0.000000 0.000000 0.000000 srgb
(+id: INT) 50.150000 65.134483 m gs 1 -1 sc sh gr
1.000000 1.000000 1.000000 srgb
n 50.000000 65.400000 m 50.000000 65.800000 l 59.193100 65.800000 l 59.193100 65.400000 l f
0.000000 0.000000 0.000000 srgb
n 50.000000 65.400000 m 50.000000 65.800000 l 59.193100 65.800000 l 59.193100 65.400000 l cp s
0.100000 slw
[] 0 sd
0 slj
0 slc
0.000000 0.000000 0.000000 srgb
n 26.344000 59.700000 m 36.000000 59.700000 l 36.000000 64.900000 l 50.000000 64.900000 l s
[] 0 sd
0 slj
0 slc
1.000000 1.000000 1.000000 srgb
n 50.000000 64.900000 m 49.300000 65.140000 l 48.600000 64.900000 l 49.300000 64.660000 l f
0.100000 slw
[] 0 sd
0 slj
0 slc
0.000000 0.000000 0.000000 srgb
n 50.000000 64.900000 m 49.300000 65.140000 l 48.600000 64.900000 l 49.300000 64.660000 l cp s
/Courier-latin1 ff 0.800000 scf sf
0.000000 0.000000 0.000000 srgb
(viewAcl) 26.344000 59.534483 m gs 1 -1 sc sh gr
0.000000 0.000000 0.000000 srgb
(viewTextStyles) dup sw 50.000000 ex sub 64.734483 m gs 1 -1 sc sh gr
0.100000 slw
[] 0 sd
0 slj
0 slc
0.000000 0.000000 0.000000 srgb
n 26.344000 61.300000 m 34.000000 61.300000 l 34.000000 64.900000 l 50.000000 64.900000 l s
[] 0 sd
0 slj
0 slc
1.000000 1.000000 1.000000 srgb
n 50.000000 64.900000 m 49.300000 65.140000 l 48.600000 64.900000 l 49.300000 64.660000 l f
0.100000 slw
[] 0 sd
0 slj
0 slc
0.000000 0.000000 0.000000 srgb
n 50.000000 64.900000 m 49.300000 65.140000 l 48.600000 64.900000 l 49.300000 64.660000 l cp s
/Courier-latin1 ff 0.800000 scf sf
0.000000 0.000000 0.000000 srgb
(editAcl) 26.344000 61.134483 m gs 1 -1 sc sh gr
0.000000 0.000000 0.000000 srgb
(editAclStyles) dup sw 50.000000 ex sub 64.734483 m gs 1 -1 sc sh gr
0.100000 slw
[] 0 sd
0 slj
0 slc
0.000000 0.000000 0.000000 srgb
n 26.344000 62.900000 m 32.000000 62.900000 l 32.000000 64.900000 l 50.000000 64.900000 l s
[] 0 sd
0 slj
0 slc
1.000000 1.000000 1.000000 srgb
n 50.000000 64.900000 m 49.300000 65.140000 l 48.600000 64.900000 l 49.300000 64.660000 l f
0.100000 slw
[] 0 sd
0 slj
0 slc
0.000000 0.000000 0.000000 srgb
n 50.000000 64.900000 m 49.300000 65.140000 l 48.600000 64.900000 l 49.300000 64.660000 l cp s
/Courier-latin1 ff 0.800000 scf sf
0.000000 0.000000 0.000000 srgb
(deleteAcl) 26.344000 62.734483 m gs 1 -1 sc sh gr
0.000000 0.000000 0.000000 srgb
(deleteTextStyles) dup sw 50.000000 ex sub 64.734483 m gs 1 -1 sc sh gr
0.100000 slw
[] 0 sd
0 slj
0 slc
0.000000 0.000000 0.000000 srgb
n 27.889600 41.500000 m 39.000000 41.500000 l 39.000000 64.900000 l 50.000000 64.900000 l s
[] 0 sd
0 slj
0 slc
1.000000 1.000000 1.000000 srgb
n 50.000000 64.900000 m 49.300000 65.140000 l 48.600000 64.900000 l 49.300000 64.660000 l f
0.100000 slw
[] 0 sd
0 slj
0 slc
0.000000 0.000000 0.000000 srgb
n 50.000000 64.900000 m 49.300000 65.140000 l 48.600000 64.900000 l 49.300000 64.660000 l cp s
/Courier-latin1 ff 0.800000 scf sf
0.000000 0.000000 0.000000 srgb
(deleteAcl) 27.889600 41.334483 m gs 1 -1 sc sh gr
0.000000 0.000000 0.000000 srgb
(deleteTextNodes) dup sw 50.000000 ex sub 64.734483 m gs 1 -1 sc sh gr
0.100000 slw
[] 0 sd
0 slj
0 slc
0.000000 0.000000 0.000000 srgb
n 27.889600 40.700000 m 40.000000 40.700000 l 40.000000 64.900000 l 50.000000 64.900000 l s
[] 0 sd
0 slj
0 slc
1.000000 1.000000 1.000000 srgb
n 50.000000 64.900000 m 49.300000 65.140000 l 48.600000 64.900000 l 49.300000 64.660000 l f
0.100000 slw
[] 0 sd
0 slj
0 slc
0.000000 0.000000 0.000000 srgb
n 50.000000 64.900000 m 49.300000 65.140000 l 48.600000 64.900000 l 49.300000 64.660000 l cp s
/Courier-latin1 ff 0.800000 scf sf
0.000000 0.000000 0.000000 srgb
(editAcl) 27.889600 40.534483 m gs 1 -1 sc sh gr
0.000000 0.000000 0.000000 srgb
(editTextNodes) dup sw 50.000000 ex sub 64.734483 m gs 1 -1 sc sh gr
0.100000 slw
[] 0 sd
0 slj
0 slc
0.000000 0.000000 0.000000 srgb
n 27.889600 39.900000 m 41.000000 39.900000 l 41.000000 64.900000 l 50.000000 64.900000 l s
[] 0 sd
0 slj
0 slc
1.000000 1.000000 1.000000 srgb
n 50.000000 64.900000 m 49.300000 65.140000 l 48.600000 64.900000 l 49.300000 64.660000 l f
0.100000 slw
[] 0 sd
0 slj
0 slc
0.000000 0.000000 0.000000 srgb
n 50.000000 64.900000 m 49.300000 65.140000 l 48.600000 64.900000 l 49.300000 64.660000 l cp s
/Courier-latin1 ff 0.800000 scf sf
0.000000 0.000000 0.000000 srgb
(viewAcl) 27.889600 39.734483 m gs 1 -1 sc sh gr
0.000000 0.000000 0.000000 srgb
(viewTextNodes) dup sw 50.000000 ex sub 64.734483 m gs 1 -1 sc sh gr
0.100000 slw
[] 0 sd
0 slj
0 slc
0.000000 0.000000 0.000000 srgb
n 14.000000 45.700000 m 9.000000 45.700000 l 9.000000 27.900000 l 14.000000 27.900000 l s
[] 0 sd
0 slj
0 slc
1.000000 1.000000 1.000000 srgb
n 14.000000 27.900000 m 13.300000 28.140000 l 12.600000 27.900000 l 13.300000 27.660000 l f
0.100000 slw
[] 0 sd
0 slj
0 slc
0.000000 0.000000 0.000000 srgb
n 14.000000 27.900000 m 13.300000 28.140000 l 12.600000 27.900000 l 13.300000 27.660000 l cp s
/Courier-latin1 ff 0.800000 scf sf
0.000000 0.000000 0.000000 srgb
(node) dup sw 14.000000 ex sub 45.534483 m gs 1 -1 sc sh gr
0.000000 0.000000 0.000000 srgb
(childrenGroups) dup sw 14.000000 ex sub 27.734483 m gs 1 -1 sc sh gr
0.100000 slw
[] 0 sd
0 slj
0 slc
0.000000 0.000000 0.000000 srgb
n 27.889600 46.500000 m 38.000000 46.500000 l 38.000000 64.900000 l 50.000000 64.900000 l s
[] 0 sd
0 slj
0 slc
1.000000 1.000000 1.000000 srgb
n 50.000000 64.900000 m 49.300000 65.140000 l 48.600000 64.900000 l 49.300000 64.660000 l f
0.100000 slw
[] 0 sd
0 slj
0 slc
0.000000 0.000000 0.000000 srgb
n 50.000000 64.900000 m 49.300000 65.140000 l 48.600000 64.900000 l 49.300000 64.660000 l cp s
/Courier-latin1 ff 0.800000 scf sf
0.000000 0.000000 0.000000 srgb
(createAcl) 27.889600 46.334483 m gs 1 -1 sc sh gr
0.000000 0.000000 0.000000 srgb
(createChildrenGroups) dup sw 50.000000 ex sub 64.734483 m gs 1 -1 sc sh gr
0.100000 slw
[] 0 sd
0 slj
0 slc
0.000000 0.000000 0.000000 srgb
n 25.859200 75.100000 m 42.000000 75.100000 l 42.000000 64.900000 l 50.000000 64.900000 l s
[] 0 sd
0 slj
0 slc
1.000000 1.000000 1.000000 srgb
n 50.000000 64.900000 m 49.300000 65.140000 l 48.600000 64.900000 l 49.300000 64.660000 l f
0.100000 slw
[] 0 sd
0 slj
0 slc
0.000000 0.000000 0.000000 srgb
n 50.000000 64.900000 m 49.300000 65.140000 l 48.600000 64.900000 l 49.300000 64.660000 l cp s
/Courier-latin1 ff 0.800000 scf sf
0.000000 0.000000 0.000000 srgb
(createAcl) 25.859200 74.934483 m gs 1 -1 sc sh gr
0.000000 0.000000 0.000000 srgb
(createChildrenStyles) dup sw 50.000000 ex sub 64.734483 m gs 1 -1 sc sh gr
0.100000 slw
[] 0 sd
0 slj
0 slc
0.000000 0.000000 0.000000 srgb
n 25.950400 16.700000 m 35.000000 16.700000 l 35.000000 21.900000 l 45.000000 21.900000 l s
[] 0 sd
0 slj
0 slc
1.000000 1.000000 1.000000 srgb
n 45.000000 21.900000 m 44.300000 22.140000 l 43.600000 21.900000 l 44.300000 21.660000 l f
0.100000 slw
[] 0 sd
0 slj
0 slc
0.000000 0.000000 0.000000 srgb
n 45.000000 21.900000 m 44.300000 22.140000 l 43.600000 21.900000 l 44.300000 21.660000 l cp s
/Courier-latin1 ff 0.800000 scf sf
0.000000 0.000000 0.000000 srgb
(imageClickMode) 25.950400 16.534483 m gs 1 -1 sc sh gr
0.000000 0.000000 0.000000 srgb
(inlinePageImages) dup sw 45.000000 ex sub 21.734483 m gs 1 -1 sc sh gr
0.100000 slw
[] 0 sd
1.000000 1.000000 1.000000 srgb
n 11.000000 79.000000 m 11.000000 80.400000 l 28.283200 80.400000 l 28.283200 79.000000 l f
0.000000 0.000000 0.000000 srgb
n 11.000000 79.000000 m 11.000000 80.400000 l 28.283200 80.400000 l 28.283200 79.000000 l cp s
/Helvetica-Bold-latin1 ff 1.000000 scf sf
0.000000 0.000000 0.000000 srgb
(ImageStyle) dup sw 2 div 19.641600 ex sub 80.000000 m gs 1 -1 sc sh gr
1.000000 1.000000 1.000000 srgb
n 11.000000 80.400000 m 11.000000 87.000000 l 28.283200 87.000000 l 28.283200 80.400000 l f
0.000000 0.000000 0.000000 srgb
n 11.000000 80.400000 m 11.000000 87.000000 l 28.283200 87.000000 l 28.283200 80.400000 l cp s
/Courier-latin1 ff 0.800000 scf sf
0.000000 0.000000 0.000000 srgb
(+id: INT) 11.150000 81.134483 m gs 1 -1 sc sh gr
/Courier-latin1 ff 0.800000 scf sf
0.000000 0.000000 0.000000 srgb
(+imageClickMode_id: INT) 11.150000 81.934483 m gs 1 -1 sc sh gr
/Courier-latin1 ff 0.800000 scf sf
0.000000 0.000000 0.000000 srgb
(+isEditableImageClickMode: Boolean) 11.150000 82.734483 m gs 1 -1 sc sh gr
/Courier-latin1 ff 0.800000 scf sf
0.000000 0.000000 0.000000 srgb
(+maxInlineWidth: INT) 11.150000 83.534483 m gs 1 -1 sc sh gr
/Courier-latin1 ff 0.800000 scf sf
0.000000 0.000000 0.000000 srgb
(+maxInlineHeight: INT) 11.150000 84.334483 m gs 1 -1 sc sh gr
/Courier-latin1 ff 0.800000 scf sf
0.000000 0.000000 0.000000 srgb
(+maxFullWidth: INT) 11.150000 85.134483 m gs 1 -1 sc sh gr
/Courier-latin1 ff 0.800000 scf sf
0.000000 0.000000 0.000000 srgb
(+maxFullHeight: INT) 11.150000 85.934483 m gs 1 -1 sc sh gr
/Courier-latin1 ff 0.800000 scf sf
0.000000 0.000000 0.000000 srgb
(+maxPrintKilobytes: ) 11.150000 86.734483 m gs 1 -1 sc sh gr
1.000000 1.000000 1.000000 srgb
n 11.000000 87.000000 m 11.000000 87.400000 l 28.283200 87.400000 l 28.283200 87.000000 l f
0.000000 0.000000 0.000000 srgb
n 11.000000 87.000000 m 11.000000 87.400000 l 28.283200 87.400000 l 28.283200 87.000000 l cp s
0.100000 slw
[] 0 sd
0 slj
0 slc
0.000000 0.000000 0.000000 srgb
n 11.000000 64.500000 m 3.000000 64.500000 l 3.000000 80.900000 l 11.000000 80.900000 l s
[] 0 sd
0 slj
0 slc
1.000000 1.000000 1.000000 srgb
n 11.000000 80.900000 m 10.300000 81.140000 l 9.600000 80.900000 l 10.300000 80.660000 l f
0.100000 slw
[] 0 sd
0 slj
0 slc
0.000000 0.000000 0.000000 srgb
n 11.000000 80.900000 m 10.300000 81.140000 l 9.600000 80.900000 l 10.300000 80.660000 l cp s
/Courier-latin1 ff 0.800000 scf sf
0.000000 0.000000 0.000000 srgb
(imageStyle) dup sw 11.000000 ex sub 64.334483 m gs 1 -1 sc sh gr
0.000000 0.000000 0.000000 srgb
(textNodeStyles) dup sw 11.000000 ex sub 80.734483 m gs 1 -1 sc sh gr
0.100000 slw
[] 0 sd
0 slj
0 slc
0.000000 0.000000 0.000000 srgb
n 28.283200 81.700000 m 60.000000 81.700000 l 60.000000 21.900000 l 53.647700 21.900000 l s
[] 0 sd
0 slj
0 slc
1.000000 1.000000 1.000000 srgb
n 53.647700 21.900000 m 54.347700 21.660000 l 55.047700 21.900000 l 54.347700 22.140000 l f
0.100000 slw
[] 0 sd
0 slj
0 slc
0.000000 0.000000 0.000000 srgb
n 53.647700 21.900000 m 54.347700 21.660000 l 55.047700 21.900000 l 54.347700 22.140000 l cp s
/Courier-latin1 ff 0.800000 scf sf
0.000000 0.000000 0.000000 srgb
(imageClickMode) 28.283200 81.534483 m gs 1 -1 sc sh gr
0.000000 0.000000 0.000000 srgb
(imageStyles) 53.647700 21.734483 m gs 1 -1 sc sh gr
/Courier-latin1 ff 0.800000 scf sf
0.000000 0.000000 0.000000 srgb
(Structural Tables) dup sw 2 div 22.000000 ex sub 89.000000 m gs 1 -1 sc sh gr
/Courier-latin1 ff 0.800000 scf sf
0.000000 0.000000 0.000000 srgb
(Data tables) dup sw 2 div 26.000000 ex sub 51.000000 m gs 1 -1 sc sh gr
0.100000 slw
[] 0 sd
0 slj
0 slc
0.000000 0.000000 0.000000 srgb
n 11.000000 74.300000 m 5.000000 74.300000 l 5.000000 54.900000 l 11.000000 54.900000 l s
[] 0 sd
0 slj
0 slc
1.000000 1.000000 1.000000 srgb
n 11.000000 54.900000 m 10.300000 55.140000 l 9.600000 54.900000 l 10.300000 54.660000 l f
0.100000 slw
[] 0 sd
0 slj
0 slc
0.000000 0.000000 0.000000 srgb
n 11.000000 54.900000 m 10.300000 55.140000 l 9.600000 54.900000 l 10.300000 54.660000 l cp s
/Courier-latin1 ff 0.800000 scf sf
0.000000 0.000000 0.000000 srgb
(childStyle) dup sw 11.000000 ex sub 74.134483 m gs 1 -1 sc sh gr
0.000000 0.000000 0.000000 srgb
(parentGroupStyles) dup sw 11.000000 ex sub 54.734483 m gs 1 -1 sc sh gr
0.100000 slw
[] 0 sd
0 slj
0 slc
0.000000 0.000000 0.000000 srgb
n 14.000000 48.100000 m 6.000000 48.100000 l 6.000000 71.900000 l 11.000000 71.900000 l s
[] 0 sd
0 slj
0 slc
1.000000 1.000000 1.000000 srgb
n 11.000000 71.900000 m 10.300000 72.140000 l 9.600000 71.900000 l 10.300000 71.660000 l f
0.100000 slw
[] 0 sd
0 slj
0 slc
0.000000 0.000000 0.000000 srgb
n 11.000000 71.900000 m 10.300000 72.140000 l 9.600000 71.900000 l 10.300000 71.660000 l cp s
/Courier-latin1 ff 0.800000 scf sf
0.000000 0.000000 0.000000 srgb
(childrenGroupStyle) dup sw 14.000000 ex sub 47.934483 m gs 1 -1 sc sh gr
0.000000 0.000000 0.000000 srgb
(childrenGroups) dup sw 11.000000 ex sub 71.734483 m gs 1 -1 sc sh gr
0.100000 slw
[] 0 sd
0 slj
0 slc
0.000000 0.000000 0.000000 srgb
n 26.344000 63.700000 m 31.000000 63.700000 l 31.000000 64.900000 l 50.000000 64.900000 l s
[] 0 sd
0 slj
0 slc
1.000000 1.000000 1.000000 srgb
n 50.000000 64.900000 m 49.300000 65.140000 l 48.600000 64.900000 l 49.300000 64.660000 l f
0.100000 slw
[] 0 sd
0 slj
0 slc
0.000000 0.000000 0.000000 srgb
n 50.000000 64.900000 m 49.300000 65.140000 l 48.600000 64.900000 l 49.300000 64.660000 l cp s
/Courier-latin1 ff 0.800000 scf sf
0.000000 0.000000 0.000000 srgb
(updateDeleteAcls) 26.344000 63.534483 m gs 1 -1 sc sh gr
0.100000 slw
[] 0 sd
0 slj
0 slc
0.000000 0.000000 0.000000 srgb
n 26.344000 62.100000 m 33.000000 62.100000 l 33.000000 64.900000 l 50.000000 64.900000 l s
[] 0 sd
0 slj
0 slc
1.000000 1.000000 1.000000 srgb
n 50.000000 64.900000 m 49.300000 65.140000 l 48.600000 64.900000 l 49.300000 64.660000 l f
0.100000 slw
[] 0 sd
0 slj
0 slc
0.000000 0.000000 0.000000 srgb
n 50.000000 64.900000 m 49.300000 65.140000 l 48.600000 64.900000 l 49.300000 64.660000 l cp s
/Courier-latin1 ff 0.800000 scf sf
0.000000 0.000000 0.000000 srgb
(updateEditAcls) 26.344000 61.934483 m gs 1 -1 sc sh gr
0.100000 slw
[] 0 sd
0 slj
0 slc
0.000000 0.000000 0.000000 srgb
n 26.344000 60.500000 m 35.000000 60.500000 l 35.000000 64.900000 l 50.000000 64.900000 l s
[] 0 sd
0 slj
0 slc
1.000000 1.000000 1.000000 srgb
n 50.000000 64.900000 m 49.300000 65.140000 l 48.600000 64.900000 l 49.300000 64.660000 l f
0.100000 slw
[] 0 sd
0 slj
0 slc
0.000000 0.000000 0.000000 srgb
n 50.000000 64.900000 m 49.300000 65.140000 l 48.600000 64.900000 l 49.300000 64.660000 l cp s
/Courier-latin1 ff 0.800000 scf sf
0.000000 0.000000 0.000000 srgb
(updateViewAcl) 26.344000 60.334483 m gs 1 -1 sc sh gr
0.100000 slw
[] 0 sd
0 slj
0 slc
0.000000 0.000000 0.000000 srgb
n 25.859200 75.900000 m 43.000000 75.900000 l 43.000000 64.900000 l 50.000000 64.900000 l s
[] 0 sd
0 slj
0 slc
1.000000 1.000000 1.000000 srgb
n 50.000000 64.900000 m 49.300000 65.140000 l 48.600000 64.900000 l 49.300000 64.660000 l f
0.100000 slw
[] 0 sd
0 slj
0 slc
0.000000 0.000000 0.000000 srgb
n 50.000000 64.900000 m 49.300000 65.140000 l 48.600000 64.900000 l 49.300000 64.660000 l cp s
/Courier-latin1 ff 0.800000 scf sf
0.000000 0.000000 0.000000 srgb
(updateCreateAcls) 25.859200 75.734483 m gs 1 -1 sc sh gr
0.100000 slw
[0.200000] 0 sd
[0.200000] 0 sd
0 slj
0.000000 0.000000 0.000000 srgb
n 44.000000 19.000000 m 44.000000 28.000000 l 56.000000 28.000000 l 56.000000 19.000000 l cp s
0.100000 slw
[] 0 sd
1.000000 1.000000 1.000000 srgb
n 45.000000 24.000000 m 45.000000 25.400000 l 55.011200 25.400000 l 55.011200 24.000000 l f
0.000000 0.000000 0.000000 srgb
n 45.000000 24.000000 m 45.000000 25.400000 l 55.011200 25.400000 l 55.011200 24.000000 l cp s
/Helvetica-Bold-latin1 ff 1.000000 scf sf
0.000000 0.000000 0.000000 srgb
(MarkupStyle) dup sw 2 div 50.005600 ex sub 25.000000 m gs 1 -1 sc sh gr
1.000000 1.000000 1.000000 srgb
n 45.000000 25.400000 m 45.000000 27.200000 l 55.011200 27.200000 l 55.011200 25.400000 l f
0.000000 0.000000 0.000000 srgb
n 45.000000 25.400000 m 45.000000 27.200000 l 55.011200 27.200000 l 55.011200 25.400000 l cp s
/Courier-latin1 ff 0.800000 scf sf
0.000000 0.000000 0.000000 srgb
(+id: INT) 45.150000 26.134483 m gs 1 -1 sc sh gr
/Courier-latin1 ff 0.800000 scf sf
0.000000 0.000000 0.000000 srgb
(+name: VARCHAR\(255\)) 45.150000 26.934483 m gs 1 -1 sc sh gr
1.000000 1.000000 1.000000 srgb
n 45.000000 27.200000 m 45.000000 27.600000 l 55.011200 27.600000 l 55.011200 27.200000 l f
0.000000 0.000000 0.000000 srgb
n 45.000000 27.200000 m 45.000000 27.600000 l 55.011200 27.600000 l 55.011200 27.200000 l cp s
0.100000 slw
[] 0 sd
1.000000 1.000000 1.000000 srgb
n 45.000000 20.000000 m 45.000000 21.400000 l 53.647700 21.400000 l 53.647700 20.000000 l f
0.000000 0.000000 0.000000 srgb
n 45.000000 20.000000 m 45.000000 21.400000 l 53.647700 21.400000 l 53.647700 20.000000 l cp s
/Helvetica-Bold-latin1 ff 1.000000 scf sf
0.000000 0.000000 0.000000 srgb
(ImageClickMode) dup sw 2 div 49.323850 ex sub 21.000000 m gs 1 -1 sc sh gr
1.000000 1.000000 1.000000 srgb
n 45.000000 21.400000 m 45.000000 23.200000 l 53.647700 23.200000 l 53.647700 21.400000 l f
0.000000 0.000000 0.000000 srgb
n 45.000000 21.400000 m 45.000000 23.200000 l 53.647700 23.200000 l 53.647700 21.400000 l cp s
/Courier-latin1 ff 0.800000 scf sf
0.000000 0.000000 0.000000 srgb
(+id: INT) 45.150000 22.134483 m gs 1 -1 sc sh gr
/Courier-latin1 ff 0.800000 scf sf
0.000000 0.000000 0.000000 srgb
(+name: VARCHAR) 45.150000 22.934483 m gs 1 -1 sc sh gr
1.000000 1.000000 1.000000 srgb
n 45.000000 23.200000 m 45.000000 23.600000 l 53.647700 23.600000 l 53.647700 23.200000 l f
0.000000 0.000000 0.000000 srgb
n 45.000000 23.200000 m 45.000000 23.600000 l 53.647700 23.600000 l 53.647700 23.200000 l cp s
/Courier-latin1 ff 0.800000 scf sf
0.000000 0.000000 0.000000 srgb
(Reference Tables) dup sw 2 div 52.000000 ex sub 29.000000 m gs 1 -1 sc sh gr
showpage
