%!PS-Adobe-2.0 EPSF-2.0
%%Title: /home/alex/cord/org.cord/module/modules/GenericTextNode/doc/gtn-DesignAndImplementation/gtn-structure.dia
%%Creator: Dia v0.86
%%CreationDate: Tue Oct 16 13:54:43 2001
%%For: a user
%%Magnification: 1.0000
%%Orientation: Portrait
%%BoundingBox: 0 0 382 597
%%Pages: 1
%%BeginSetup
%%EndSetup
%%EndComments
[ /.notdef /.notdef /.notdef /.notdef /.notdef /.notdef /.notdef /.notdef /.notdef /.notdef
/.notdef /.notdef /.notdef /.notdef /.notdef /.notdef /.notdef /.notdef /.notdef /.notdef
/.notdef /.notdef /.notdef /.notdef /.notdef /.notdef /.notdef /.notdef /.notdef /.notdef
/.notdef /.notdef /space /exclam /quotedbl /numbersign /dollar /percent /ampersand /quoteright
/parenleft /parenright /asterisk /plus /comma /hyphen /period /slash /zero /one
/two /three /four /five /six /seven /eight /nine /colon /semicolon
/less /equal /greater /question /at /A /B /C /D /E
/F /G /H /I /J /K /L /M /N /O
/P /Q /R /S /T /U /V /W /X /Y
/Z /bracketleft /backslash /bracketright /asciicircum /underscore /quoteleft /a /b /c
/d /e /f /g /h /i /j /k /l /m
/n /o /p /q /r /s /t /u /v /w
/x /y /z /braceleft /bar /braceright /asciitilde /.notdef /.notdef /.notdef
/.notdef /.notdef /.notdef /.notdef /.notdef /.notdef /.notdef /.notdef /.notdef /.notdef
/.notdef /.notdef /.notdef /.notdef /.notdef /.notdef /.notdef /.notdef /.notdef /.notdef
/.notdef /.notdef /.notdef /.notdef /.notdef /.notdef /.notdef /.notdef /.notdef /.notdef
/space /exclamdown /cent /sterling /currency /yen /brokenbar /section /dieresis /copyright
/ordfeminine /guillemotleft /logicalnot /hyphen /registered /macron /degree /plusminus /twosuperior /threesuperior
/acute /mu /paragraph /periodcentered /cedilla /onesuperior /ordmasculine /guillemotright /onequarter /onehalf
/threequarters /questiondown /Agrave /Aacute /Acircumflex /Atilde /Adieresis /Aring /AE /Ccedilla
/Egrave /Eacute /Ecircumflex /Edieresis /Igrave /Iacute /Icircumflex /Idieresis /Eth /Ntilde
/Ograve /Oacute /Ocircumflex /Otilde /Odieresis /multiply /Oslash /Ugrave /Uacute /Ucircumflex
/Udieresis /Yacute /Thorn /germandbls /agrave /aacute /acircumflex /atilde /adieresis /aring
/ae /ccedilla /egrave /eacute /ecircumflex /edieresis /igrave /iacute /icircumflex /idieresis
/eth /ntilde /ograve /oacute /ocircumflex /otilde /odieresis /divide /oslash /ugrave
/uacute /ucircumflex /udieresis /yacute /thorn /ydieresis] /isolatin1encoding exch def
/Times-Roman-latin1
    /Times-Roman findfont
    dup length dict begin
	{1 index /FID ne {def} {pop pop} ifelse} forall
	/Encoding isolatin1encoding def
    currentdict end
definefont pop
/Times-Italic-latin1
    /Times-Italic findfont
    dup length dict begin
	{1 index /FID ne {def} {pop pop} ifelse} forall
	/Encoding isolatin1encoding def
    currentdict end
definefont pop
/Times-Bold-latin1
    /Times-Bold findfont
    dup length dict begin
	{1 index /FID ne {def} {pop pop} ifelse} forall
	/Encoding isolatin1encoding def
    currentdict end
definefont pop
/Times-BoldItalic-latin1
    /Times-BoldItalic findfont
    dup length dict begin
	{1 index /FID ne {def} {pop pop} ifelse} forall
	/Encoding isolatin1encoding def
    currentdict end
definefont pop
/AvantGarde-Book-latin1
    /AvantGarde-Book findfont
    dup length dict begin
	{1 index /FID ne {def} {pop pop} ifelse} forall
	/Encoding isolatin1encoding def
    currentdict end
definefont pop
/AvantGarde-BookOblique-latin1
    /AvantGarde-BookOblique findfont
    dup length dict begin
	{1 index /FID ne {def} {pop pop} ifelse} forall
	/Encoding isolatin1encoding def
    currentdict end
definefont pop
/AvantGarde-Demi-latin1
    /AvantGarde-Demi findfont
    dup length dict begin
	{1 index /FID ne {def} {pop pop} ifelse} forall
	/Encoding isolatin1encoding def
    currentdict end
definefont pop
/AvantGarde-DemiOblique-latin1
    /AvantGarde-DemiOblique findfont
    dup length dict begin
	{1 index /FID ne {def} {pop pop} ifelse} forall
	/Encoding isolatin1encoding def
    currentdict end
definefont pop
/Bookman-Light-latin1
    /Bookman-Light findfont
    dup length dict begin
	{1 index /FID ne {def} {pop pop} ifelse} forall
	/Encoding isolatin1encoding def
    currentdict end
definefont pop
/Bookman-LightItalic-latin1
    /Bookman-LightItalic findfont
    dup length dict begin
	{1 index /FID ne {def} {pop pop} ifelse} forall
	/Encoding isolatin1encoding def
    currentdict end
definefont pop
/Bookman-Demi-latin1
    /Bookman-Demi findfont
    dup length dict begin
	{1 index /FID ne {def} {pop pop} ifelse} forall
	/Encoding isolatin1encoding def
    currentdict end
definefont pop
/Bookman-DemiItalic-latin1
    /Bookman-DemiItalic findfont
    dup length dict begin
	{1 index /FID ne {def} {pop pop} ifelse} forall
	/Encoding isolatin1encoding def
    currentdict end
definefont pop
/Courier-latin1
    /Courier findfont
    dup length dict begin
	{1 index /FID ne {def} {pop pop} ifelse} forall
	/Encoding isolatin1encoding def
    currentdict end
definefont pop
/Courier-Oblique-latin1
    /Courier-Oblique findfont
    dup length dict begin
	{1 index /FID ne {def} {pop pop} ifelse} forall
	/Encoding isolatin1encoding def
    currentdict end
definefont pop
/Courier-Bold-latin1
    /Courier-Bold findfont
    dup length dict begin
	{1 index /FID ne {def} {pop pop} ifelse} forall
	/Encoding isolatin1encoding def
    currentdict end
definefont pop
/Courier-BoldOblique-latin1
    /Courier-BoldOblique findfont
    dup length dict begin
	{1 index /FID ne {def} {pop pop} ifelse} forall
	/Encoding isolatin1encoding def
    currentdict end
definefont pop
/Helvetica-latin1
    /Helvetica findfont
    dup length dict begin
	{1 index /FID ne {def} {pop pop} ifelse} forall
	/Encoding isolatin1encoding def
    currentdict end
definefont pop
/Helvetica-Oblique-latin1
    /Helvetica-Oblique findfont
    dup length dict begin
	{1 index /FID ne {def} {pop pop} ifelse} forall
	/Encoding isolatin1encoding def
    currentdict end
definefont pop
/Helvetica-Bold-latin1
    /Helvetica-Bold findfont
    dup length dict begin
	{1 index /FID ne {def} {pop pop} ifelse} forall
	/Encoding isolatin1encoding def
    currentdict end
definefont pop
/Helvetica-BoldOblique-latin1
    /Helvetica-BoldOblique findfont
    dup length dict begin
	{1 index /FID ne {def} {pop pop} ifelse} forall
	/Encoding isolatin1encoding def
    currentdict end
definefont pop
/Helvetica-Narrow-latin1
    /Helvetica-Narrow findfont
    dup length dict begin
	{1 index /FID ne {def} {pop pop} ifelse} forall
	/Encoding isolatin1encoding def
    currentdict end
definefont pop
/Helvetica-Narrow-Oblique-latin1
    /Helvetica-Narrow-Oblique findfont
    dup length dict begin
	{1 index /FID ne {def} {pop pop} ifelse} forall
	/Encoding isolatin1encoding def
    currentdict end
definefont pop
/Helvetica-Narrow-Bold-latin1
    /Helvetica-Narrow-Bold findfont
    dup length dict begin
	{1 index /FID ne {def} {pop pop} ifelse} forall
	/Encoding isolatin1encoding def
    currentdict end
definefont pop
/Helvetica-Narrow-BoldOblique-latin1
    /Helvetica-Narrow-BoldOblique findfont
    dup length dict begin
	{1 index /FID ne {def} {pop pop} ifelse} forall
	/Encoding isolatin1encoding def
    currentdict end
definefont pop
/NewCenturySchoolbook-Roman-latin1
    /NewCenturySchoolbook-Roman findfont
    dup length dict begin
	{1 index /FID ne {def} {pop pop} ifelse} forall
	/Encoding isolatin1encoding def
    currentdict end
definefont pop
/NewCenturySchoolbook-Italic-latin1
    /NewCenturySchoolbook-Italic findfont
    dup length dict begin
	{1 index /FID ne {def} {pop pop} ifelse} forall
	/Encoding isolatin1encoding def
    currentdict end
definefont pop
/NewCenturySchoolbook-Bold-latin1
    /NewCenturySchoolbook-Bold findfont
    dup length dict begin
	{1 index /FID ne {def} {pop pop} ifelse} forall
	/Encoding isolatin1encoding def
    currentdict end
definefont pop
/NewCenturySchoolbook-BoldItalic-latin1
    /NewCenturySchoolbook-BoldItalic findfont
    dup length dict begin
	{1 index /FID ne {def} {pop pop} ifelse} forall
	/Encoding isolatin1encoding def
    currentdict end
definefont pop
/Palatino-Roman-latin1
    /Palatino-Roman findfont
    dup length dict begin
	{1 index /FID ne {def} {pop pop} ifelse} forall
	/Encoding isolatin1encoding def
    currentdict end
definefont pop
/Palatino-Italic-latin1
    /Palatino-Italic findfont
    dup length dict begin
	{1 index /FID ne {def} {pop pop} ifelse} forall
	/Encoding isolatin1encoding def
    currentdict end
definefont pop
/Palatino-Bold-latin1
    /Palatino-Bold findfont
    dup length dict begin
	{1 index /FID ne {def} {pop pop} ifelse} forall
	/Encoding isolatin1encoding def
    currentdict end
definefont pop
/Palatino-BoldItalic-latin1
    /Palatino-BoldItalic findfont
    dup length dict begin
	{1 index /FID ne {def} {pop pop} ifelse} forall
	/Encoding isolatin1encoding def
    currentdict end
definefont pop
/Symbol-latin1
    /Symbol findfont
definefont pop
/ZapfChancery-MediumItalic-latin1
    /ZapfChancery-MediumItalic findfont
    dup length dict begin
	{1 index /FID ne {def} {pop pop} ifelse} forall
	/Encoding isolatin1encoding def
    currentdict end
definefont pop
/ZapfDingbats-latin1
    /ZapfDingbats findfont
    dup length dict begin
	{1 index /FID ne {def} {pop pop} ifelse} forall
	/Encoding isolatin1encoding def
    currentdict end
definefont pop
/cp {closepath} bind def
/c {curveto} bind def
/f {fill} bind def
/a {arc} bind def
/ef {eofill} bind def
/ex {exch} bind def
/gr {grestore} bind def
/gs {gsave} bind def
/sa {save} bind def
/rs {restore} bind def
/l {lineto} bind def
/m {moveto} bind def
/rm {rmoveto} bind def
/n {newpath} bind def
/s {stroke} bind def
/sh {show} bind def
/slc {setlinecap} bind def
/slj {setlinejoin} bind def
/slw {setlinewidth} bind def
/srgb {setrgbcolor} bind def
/rot {rotate} bind def
/sc {scale} bind def
/sd {setdash} bind def
/ff {findfont} bind def
/sf {setfont} bind def
/scf {scalefont} bind def
/sw {stringwidth pop} bind def
/tr {translate} bind def

/ellipsedict 8 dict def
ellipsedict /mtrx matrix put
/ellipse
{ ellipsedict begin
   /endangle exch def
   /startangle exch def
   /yrad exch def
   /xrad exch def
   /y exch def
   /x exch def   /savematrix mtrx currentmatrix def
   x y tr xrad yrad sc
   0 0 1 startangle endangle arc
   savematrix setmatrix
   end
} def

/mergeprocs {
dup length
3 -1 roll
dup
length
dup
5 1 roll
3 -1 roll
add
array cvx
dup
3 -1 roll
0 exch
putinterval
dup
4 2 roll
putinterval
} bind def
7.086500 -7.086500 scale
-1.550000 -92.165517 translate
%%EndProlog


0.100000 slw
[] 0 sd
1.000000 1.000000 1.000000 srgb
n 31.000000 8.000000 m 31.000000 9.400000 l 39.072000 9.400000 l 39.072000 8.000000 l f
0.000000 0.000000 0.000000 srgb
n 31.000000 8.000000 m 31.000000 9.400000 l 39.072000 9.400000 l 39.072000 8.000000 l cp s
/Helvetica-Bold-latin1 ff 1.000000 scf sf
0.000000 0.000000 0.000000 srgb
(TextNodeStyle) dup sw 2 div 35.036000 ex sub 9.000000 m gs 1 -1 sc sh gr
1.000000 1.000000 1.000000 srgb
n 31.000000 9.400000 m 31.000000 11.200000 l 39.072000 11.200000 l 39.072000 9.400000 l f
0.000000 0.000000 0.000000 srgb
n 31.000000 9.400000 m 31.000000 11.200000 l 39.072000 11.200000 l 39.072000 9.400000 l cp s
/Courier-latin1 ff 0.800000 scf sf
0.000000 0.000000 0.000000 srgb
(+id: 1) 31.150000 10.134483 m gs 1 -1 sc sh gr
/Courier-latin1 ff 0.800000 scf sf
0.000000 0.000000 0.000000 srgb
(+name: Category) 31.150000 10.934483 m gs 1 -1 sc sh gr
1.000000 1.000000 1.000000 srgb
n 31.000000 11.200000 m 31.000000 11.600000 l 39.072000 11.600000 l 39.072000 11.200000 l f
0.000000 0.000000 0.000000 srgb
n 31.000000 11.200000 m 31.000000 11.600000 l 39.072000 11.600000 l 39.072000 11.200000 l cp s
0.100000 slw
[] 0 sd
1.000000 1.000000 1.000000 srgb
n 11.000000 24.000000 m 11.000000 25.400000 l 23.435200 25.400000 l 23.435200 24.000000 l f
0.000000 0.000000 0.000000 srgb
n 11.000000 24.000000 m 11.000000 25.400000 l 23.435200 25.400000 l 23.435200 24.000000 l cp s
/Helvetica-Bold-latin1 ff 1.000000 scf sf
0.000000 0.000000 0.000000 srgb
(TextNodeStyle) dup sw 2 div 17.217600 ex sub 25.000000 m gs 1 -1 sc sh gr
1.000000 1.000000 1.000000 srgb
n 11.000000 25.400000 m 11.000000 27.200000 l 23.435200 27.200000 l 23.435200 25.400000 l f
0.000000 0.000000 0.000000 srgb
n 11.000000 25.400000 m 11.000000 27.200000 l 23.435200 27.200000 l 23.435200 25.400000 l cp s
/Courier-latin1 ff 0.800000 scf sf
0.000000 0.000000 0.000000 srgb
(+id:  = 2) 11.150000 26.134483 m gs 1 -1 sc sh gr
/Courier-latin1 ff 0.800000 scf sf
0.000000 0.000000 0.000000 srgb
(+name:  = LinearDocument) 11.150000 26.934483 m gs 1 -1 sc sh gr
1.000000 1.000000 1.000000 srgb
n 11.000000 27.200000 m 11.000000 27.600000 l 23.435200 27.600000 l 23.435200 27.200000 l f
0.000000 0.000000 0.000000 srgb
n 11.000000 27.200000 m 11.000000 27.600000 l 23.435200 27.600000 l 23.435200 27.200000 l cp s
0.100000 slw
[] 0 sd
1.000000 1.000000 1.000000 srgb
n 11.000000 35.000000 m 11.000000 36.400000 l 18.738700 36.400000 l 18.738700 35.000000 l f
0.000000 0.000000 0.000000 srgb
n 11.000000 35.000000 m 11.000000 36.400000 l 18.738700 36.400000 l 18.738700 35.000000 l cp s
/Helvetica-Bold-latin1 ff 1.000000 scf sf
0.000000 0.000000 0.000000 srgb
(TextNodeStyle) dup sw 2 div 14.869350 ex sub 36.000000 m gs 1 -1 sc sh gr
1.000000 1.000000 1.000000 srgb
n 11.000000 36.400000 m 11.000000 38.200000 l 18.738700 38.200000 l 18.738700 36.400000 l f
0.000000 0.000000 0.000000 srgb
n 11.000000 36.400000 m 11.000000 38.200000 l 18.738700 38.200000 l 18.738700 36.400000 l cp s
/Courier-latin1 ff 0.800000 scf sf
0.000000 0.000000 0.000000 srgb
(+id: 3) 11.150000 37.134483 m gs 1 -1 sc sh gr
/Courier-latin1 ff 0.800000 scf sf
0.000000 0.000000 0.000000 srgb
(+name: Page) 11.150000 37.934483 m gs 1 -1 sc sh gr
1.000000 1.000000 1.000000 srgb
n 11.000000 38.200000 m 11.000000 38.600000 l 18.738700 38.600000 l 18.738700 38.200000 l f
0.000000 0.000000 0.000000 srgb
n 11.000000 38.200000 m 11.000000 38.600000 l 18.738700 38.600000 l 18.738700 38.200000 l cp s
0.100000 slw
[] 0 sd
1.000000 1.000000 1.000000 srgb
n 11.000000 18.000000 m 11.000000 19.400000 l 23.920000 19.400000 l 23.920000 18.000000 l f
0.000000 0.000000 0.000000 srgb
n 11.000000 18.000000 m 11.000000 19.400000 l 23.920000 19.400000 l 23.920000 18.000000 l cp s
/Helvetica-Bold-latin1 ff 1.000000 scf sf
0.000000 0.000000 0.000000 srgb
(ChildrenGroupStyle) dup sw 2 div 17.460000 ex sub 19.000000 m gs 1 -1 sc sh gr
1.000000 1.000000 1.000000 srgb
n 11.000000 19.400000 m 11.000000 22.800000 l 23.920000 22.800000 l 23.920000 19.400000 l f
0.000000 0.000000 0.000000 srgb
n 11.000000 19.400000 m 11.000000 22.800000 l 23.920000 22.800000 l 23.920000 19.400000 l cp s
/Courier-latin1 ff 0.800000 scf sf
0.000000 0.000000 0.000000 srgb
(+id:  = 1) 11.150000 20.134483 m gs 1 -1 sc sh gr
/Courier-latin1 ff 0.800000 scf sf
0.000000 0.000000 0.000000 srgb
(+name:  = LinearDocuments) 11.150000 20.934483 m gs 1 -1 sc sh gr
/Courier-latin1 ff 0.800000 scf sf
0.000000 0.000000 0.000000 srgb
(+parentStyle_id:  = 1) 11.150000 21.734483 m gs 1 -1 sc sh gr
/Courier-latin1 ff 0.800000 scf sf
0.000000 0.000000 0.000000 srgb
(+childStyle_id:  = 2) 11.150000 22.534483 m gs 1 -1 sc sh gr
1.000000 1.000000 1.000000 srgb
n 11.000000 22.800000 m 11.000000 23.200000 l 23.920000 23.200000 l 23.920000 22.800000 l f
0.000000 0.000000 0.000000 srgb
n 11.000000 22.800000 m 11.000000 23.200000 l 23.920000 23.200000 l 23.920000 22.800000 l cp s
0.100000 slw
[] 0 sd
1.000000 1.000000 1.000000 srgb
n 31.000000 18.000000 m 31.000000 19.400000 l 42.950400 19.400000 l 42.950400 18.000000 l f
0.000000 0.000000 0.000000 srgb
n 31.000000 18.000000 m 31.000000 19.400000 l 42.950400 19.400000 l 42.950400 18.000000 l cp s
/Helvetica-Bold-latin1 ff 1.000000 scf sf
0.000000 0.000000 0.000000 srgb
(ChildrenGroupStyle) dup sw 2 div 36.975200 ex sub 19.000000 m gs 1 -1 sc sh gr
1.000000 1.000000 1.000000 srgb
n 31.000000 19.400000 m 31.000000 22.800000 l 42.950400 22.800000 l 42.950400 19.400000 l f
0.000000 0.000000 0.000000 srgb
n 31.000000 19.400000 m 31.000000 22.800000 l 42.950400 22.800000 l 42.950400 19.400000 l cp s
/Courier-latin1 ff 0.800000 scf sf
0.000000 0.000000 0.000000 srgb
(+id:  = 2) 31.150000 20.134483 m gs 1 -1 sc sh gr
/Courier-latin1 ff 0.800000 scf sf
0.000000 0.000000 0.000000 srgb
(+name:  = SubCategories) 31.150000 20.934483 m gs 1 -1 sc sh gr
/Courier-latin1 ff 0.800000 scf sf
0.000000 0.000000 0.000000 srgb
(+parentStyle_id:  = 1) 31.150000 21.734483 m gs 1 -1 sc sh gr
/Courier-latin1 ff 0.800000 scf sf
0.000000 0.000000 0.000000 srgb
(+childStyle_id:  = 1) 31.150000 22.534483 m gs 1 -1 sc sh gr
1.000000 1.000000 1.000000 srgb
n 31.000000 22.800000 m 31.000000 23.200000 l 42.950400 23.200000 l 42.950400 22.800000 l f
0.000000 0.000000 0.000000 srgb
n 31.000000 22.800000 m 31.000000 23.200000 l 42.950400 23.200000 l 42.950400 22.800000 l cp s
0.100000 slw
[] 0 sd
1.000000 1.000000 1.000000 srgb
n 11.000000 29.000000 m 11.000000 30.400000 l 21.980800 30.400000 l 21.980800 29.000000 l f
0.000000 0.000000 0.000000 srgb
n 11.000000 29.000000 m 11.000000 30.400000 l 21.980800 30.400000 l 21.980800 29.000000 l cp s
/Helvetica-Bold-latin1 ff 1.000000 scf sf
0.000000 0.000000 0.000000 srgb
(ChildrenGroupStyle) dup sw 2 div 16.490400 ex sub 30.000000 m gs 1 -1 sc sh gr
1.000000 1.000000 1.000000 srgb
n 11.000000 30.400000 m 11.000000 33.800000 l 21.980800 33.800000 l 21.980800 30.400000 l f
0.000000 0.000000 0.000000 srgb
n 11.000000 30.400000 m 11.000000 33.800000 l 21.980800 33.800000 l 21.980800 30.400000 l cp s
/Courier-latin1 ff 0.800000 scf sf
0.000000 0.000000 0.000000 srgb
(+id:  = 3) 11.150000 31.134483 m gs 1 -1 sc sh gr
/Courier-latin1 ff 0.800000 scf sf
0.000000 0.000000 0.000000 srgb
(+name:  = Pages) 11.150000 31.934483 m gs 1 -1 sc sh gr
/Courier-latin1 ff 0.800000 scf sf
0.000000 0.000000 0.000000 srgb
(+parentStyle_id:  = 2) 11.150000 32.734483 m gs 1 -1 sc sh gr
/Courier-latin1 ff 0.800000 scf sf
0.000000 0.000000 0.000000 srgb
(+childStyle_id:  = 3) 11.150000 33.534483 m gs 1 -1 sc sh gr
1.000000 1.000000 1.000000 srgb
n 11.000000 33.800000 m 11.000000 34.200000 l 21.980800 34.200000 l 21.980800 33.800000 l f
0.000000 0.000000 0.000000 srgb
n 11.000000 33.800000 m 11.000000 34.200000 l 21.980800 34.200000 l 21.980800 33.800000 l cp s
0.100000 slw
[] 0 sd
0 slj
0 slc
0.000000 0.000000 0.000000 srgb
n 11.000000 21.500000 m 8.000000 21.500000 l 8.000000 9.900000 l 31.000000 9.900000 l s
[] 0 sd
0 slj
0 slc
1.000000 1.000000 1.000000 srgb
n 31.000000 9.900000 m 30.300000 10.140000 l 29.600000 9.900000 l 30.300000 9.660000 l f
0.100000 slw
[] 0 sd
0 slj
0 slc
0.000000 0.000000 0.000000 srgb
n 31.000000 9.900000 m 30.300000 10.140000 l 29.600000 9.900000 l 30.300000 9.660000 l cp s
/Courier-latin1 ff 0.800000 scf sf
0.100000 slw
[] 0 sd
0 slj
0 slc
0.000000 0.000000 0.000000 srgb
n 11.000000 22.300000 m 8.000000 22.300000 l 8.000000 25.900000 l 11.000000 25.900000 l s
[] 0 sd
0 slj
0 slc
1.000000 1.000000 1.000000 srgb
n 11.000000 25.900000 m 10.300000 26.140000 l 9.600000 25.900000 l 10.300000 25.660000 l f
0.100000 slw
[] 0 sd
0 slj
0 slc
0.000000 0.000000 0.000000 srgb
n 11.000000 25.900000 m 10.300000 26.140000 l 9.600000 25.900000 l 10.300000 25.660000 l cp s
/Courier-latin1 ff 0.800000 scf sf
0.100000 slw
[] 0 sd
0 slj
0 slc
0.000000 0.000000 0.000000 srgb
n 11.000000 32.500000 m 9.000000 32.500000 l 9.000000 25.900000 l 11.000000 25.900000 l s
[] 0 sd
0 slj
0 slc
1.000000 1.000000 1.000000 srgb
n 11.000000 25.900000 m 10.300000 26.140000 l 9.600000 25.900000 l 10.300000 25.660000 l f
0.100000 slw
[] 0 sd
0 slj
0 slc
0.000000 0.000000 0.000000 srgb
n 11.000000 25.900000 m 10.300000 26.140000 l 9.600000 25.900000 l 10.300000 25.660000 l cp s
/Courier-latin1 ff 0.800000 scf sf
0.100000 slw
[] 0 sd
0 slj
0 slc
0.000000 0.000000 0.000000 srgb
n 11.000000 33.300000 m 8.000000 33.300000 l 8.000000 36.900000 l 11.000000 36.900000 l s
[] 0 sd
0 slj
0 slc
1.000000 1.000000 1.000000 srgb
n 11.000000 36.900000 m 10.300000 37.140000 l 9.600000 36.900000 l 10.300000 36.660000 l f
0.100000 slw
[] 0 sd
0 slj
0 slc
0.000000 0.000000 0.000000 srgb
n 11.000000 36.900000 m 10.300000 37.140000 l 9.600000 36.900000 l 10.300000 36.660000 l cp s
/Courier-latin1 ff 0.800000 scf sf
0.100000 slw
[] 0 sd
0 slj
0 slc
0.000000 0.000000 0.000000 srgb
n 31.000000 21.500000 m 29.000000 21.500000 l 29.000000 9.900000 l 31.000000 9.900000 l s
[] 0 sd
0 slj
0 slc
1.000000 1.000000 1.000000 srgb
n 31.000000 9.900000 m 30.300000 10.140000 l 29.600000 9.900000 l 30.300000 9.660000 l f
0.100000 slw
[] 0 sd
0 slj
0 slc
0.000000 0.000000 0.000000 srgb
n 31.000000 9.900000 m 30.300000 10.140000 l 29.600000 9.900000 l 30.300000 9.660000 l cp s
/Courier-latin1 ff 0.800000 scf sf
0.100000 slw
[] 0 sd
0 slj
0 slc
0.000000 0.000000 0.000000 srgb
n 31.000000 22.300000 m 28.000000 22.300000 l 28.000000 9.900000 l 31.000000 9.900000 l s
[] 0 sd
0 slj
0 slc
1.000000 1.000000 1.000000 srgb
n 31.000000 9.900000 m 30.300000 10.140000 l 29.600000 9.900000 l 30.300000 9.660000 l f
0.100000 slw
[] 0 sd
0 slj
0 slc
0.000000 0.000000 0.000000 srgb
n 31.000000 9.900000 m 30.300000 10.140000 l 29.600000 9.900000 l 30.300000 9.660000 l cp s
/Courier-latin1 ff 0.800000 scf sf
0.100000 slw
[] 0 sd
1.000000 1.000000 1.000000 srgb
n 31.000000 39.000000 m 31.000000 40.400000 l 40.526400 40.400000 l 40.526400 39.000000 l f
0.000000 0.000000 0.000000 srgb
n 31.000000 39.000000 m 31.000000 40.400000 l 40.526400 40.400000 l 40.526400 39.000000 l cp s
/Helvetica-Bold-latin1 ff 1.000000 scf sf
0.000000 0.000000 0.000000 srgb
(TextNode) dup sw 2 div 35.763200 ex sub 40.000000 m gs 1 -1 sc sh gr
1.000000 1.000000 1.000000 srgb
n 31.000000 40.400000 m 31.000000 43.000000 l 40.526400 43.000000 l 40.526400 40.400000 l f
0.000000 0.000000 0.000000 srgb
n 31.000000 40.400000 m 31.000000 43.000000 l 40.526400 43.000000 l 40.526400 40.400000 l cp s
/Courier-latin1 ff 0.800000 scf sf
0.000000 0.000000 0.000000 srgb
(+id:  = 1) 31.150000 41.134483 m gs 1 -1 sc sh gr
/Courier-latin1 ff 0.800000 scf sf
0.000000 0.000000 0.000000 srgb
(+title:  = Animals) 31.150000 41.934483 m gs 1 -1 sc sh gr
/Courier-latin1 ff 0.800000 scf sf
0.000000 0.000000 0.000000 srgb
(+style_id:  = 1) 31.150000 42.734483 m gs 1 -1 sc sh gr
1.000000 1.000000 1.000000 srgb
n 31.000000 43.000000 m 31.000000 43.400000 l 40.526400 43.400000 l 40.526400 43.000000 l f
0.000000 0.000000 0.000000 srgb
n 31.000000 43.000000 m 31.000000 43.400000 l 40.526400 43.400000 l 40.526400 43.000000 l cp s
0.100000 slw
[] 0 sd
1.000000 1.000000 1.000000 srgb
n 30.000000 55.000000 m 30.000000 56.400000 l 41.950400 56.400000 l 41.950400 55.000000 l f
0.000000 0.000000 0.000000 srgb
n 30.000000 55.000000 m 30.000000 56.400000 l 41.950400 56.400000 l 41.950400 55.000000 l cp s
/Helvetica-Bold-latin1 ff 1.000000 scf sf
0.000000 0.000000 0.000000 srgb
(TextNode) dup sw 2 div 35.975200 ex sub 56.000000 m gs 1 -1 sc sh gr
1.000000 1.000000 1.000000 srgb
n 30.000000 56.400000 m 30.000000 59.800000 l 41.950400 59.800000 l 41.950400 56.400000 l f
0.000000 0.000000 0.000000 srgb
n 30.000000 56.400000 m 30.000000 59.800000 l 41.950400 59.800000 l 41.950400 56.400000 l cp s
/Courier-latin1 ff 0.800000 scf sf
0.000000 0.000000 0.000000 srgb
(+id:  = 2) 30.150000 57.134483 m gs 1 -1 sc sh gr
/Courier-latin1 ff 0.800000 scf sf
0.000000 0.000000 0.000000 srgb
(+title:  = Mammals) 30.150000 57.934483 m gs 1 -1 sc sh gr
/Courier-latin1 ff 0.800000 scf sf
0.000000 0.000000 0.000000 srgb
(+style_id:  = 1) 30.150000 58.734483 m gs 1 -1 sc sh gr
/Courier-latin1 ff 0.800000 scf sf
0.000000 0.000000 0.000000 srgb
(+childrenGroup_id:  = 1) 30.150000 59.534483 m gs 1 -1 sc sh gr
1.000000 1.000000 1.000000 srgb
n 30.000000 59.800000 m 30.000000 60.200000 l 41.950400 60.200000 l 41.950400 59.800000 l f
0.000000 0.000000 0.000000 srgb
n 30.000000 59.800000 m 30.000000 60.200000 l 41.950400 60.200000 l 41.950400 59.800000 l cp s
0.100000 slw
[] 0 sd
1.000000 1.000000 1.000000 srgb
n 30.000000 49.000000 m 30.000000 50.400000 l 44.374400 50.400000 l 44.374400 49.000000 l f
0.000000 0.000000 0.000000 srgb
n 30.000000 49.000000 m 30.000000 50.400000 l 44.374400 50.400000 l 44.374400 49.000000 l cp s
/Helvetica-Bold-latin1 ff 1.000000 scf sf
0.000000 0.000000 0.000000 srgb
(ChildrenGroup) dup sw 2 div 37.187200 ex sub 50.000000 m gs 1 -1 sc sh gr
1.000000 1.000000 1.000000 srgb
n 30.000000 50.400000 m 30.000000 53.000000 l 44.374400 53.000000 l 44.374400 50.400000 l f
0.000000 0.000000 0.000000 srgb
n 30.000000 50.400000 m 30.000000 53.000000 l 44.374400 53.000000 l 44.374400 50.400000 l cp s
/Courier-latin1 ff 0.800000 scf sf
0.000000 0.000000 0.000000 srgb
(+id:  = 1) 30.150000 51.134483 m gs 1 -1 sc sh gr
/Courier-latin1 ff 0.800000 scf sf
0.000000 0.000000 0.000000 srgb
(+textNode_id:  = 1) 30.150000 51.934483 m gs 1 -1 sc sh gr
/Courier-latin1 ff 0.800000 scf sf
0.000000 0.000000 0.000000 srgb
(+childrenGroupStyle_id:  = 2) 30.150000 52.734483 m gs 1 -1 sc sh gr
1.000000 1.000000 1.000000 srgb
n 30.000000 53.000000 m 30.000000 53.400000 l 44.374400 53.400000 l 44.374400 53.000000 l f
0.000000 0.000000 0.000000 srgb
n 30.000000 53.000000 m 30.000000 53.400000 l 44.374400 53.400000 l 44.374400 53.000000 l cp s
0.100000 slw
[] 0 sd
0 slj
0 slc
0.000000 0.000000 0.000000 srgb
n 44.374400 52.500000 m 46.000000 52.500000 l 46.000000 19.900000 l 42.950400 19.900000 l s
[] 0 sd
0 slj
0 slc
1.000000 1.000000 1.000000 srgb
n 42.950400 19.900000 m 43.650400 19.660000 l 44.350400 19.900000 l 43.650400 20.140000 l f
0.100000 slw
[] 0 sd
0 slj
0 slc
0.000000 0.000000 0.000000 srgb
n 42.950400 19.900000 m 43.650400 19.660000 l 44.350400 19.900000 l 43.650400 20.140000 l cp s
/Courier-latin1 ff 0.800000 scf sf
0.100000 slw
[] 0 sd
0 slj
0 slc
0.000000 0.000000 0.000000 srgb
n 30.000000 51.700000 m 24.000000 51.700000 l 24.000000 40.900000 l 31.000000 40.900000 l s
[] 0 sd
0 slj
0 slc
1.000000 1.000000 1.000000 srgb
n 31.000000 40.900000 m 30.300000 41.140000 l 29.600000 40.900000 l 30.300000 40.660000 l f
0.100000 slw
[] 0 sd
0 slj
0 slc
0.000000 0.000000 0.000000 srgb
n 31.000000 40.900000 m 30.300000 41.140000 l 29.600000 40.900000 l 30.300000 40.660000 l cp s
/Courier-latin1 ff 0.800000 scf sf
0.100000 slw
[] 0 sd
0 slj
0 slc
0.000000 0.000000 0.000000 srgb
n 41.950400 58.500000 m 47.000000 58.500000 l 47.000000 9.900000 l 39.072000 9.900000 l s
[] 0 sd
0 slj
0 slc
1.000000 1.000000 1.000000 srgb
n 39.072000 9.900000 m 39.772000 9.660000 l 40.472000 9.900000 l 39.772000 10.140000 l f
0.100000 slw
[] 0 sd
0 slj
0 slc
0.000000 0.000000 0.000000 srgb
n 39.072000 9.900000 m 39.772000 9.660000 l 40.472000 9.900000 l 39.772000 10.140000 l cp s
/Courier-latin1 ff 0.800000 scf sf
0.100000 slw
[] 0 sd
0 slj
0 slc
0.000000 0.000000 0.000000 srgb
n 41.950400 59.300000 m 48.000000 59.300000 l 48.000000 50.900000 l 44.374400 50.900000 l s
[] 0 sd
0 slj
0 slc
1.000000 1.000000 1.000000 srgb
n 44.374400 50.900000 m 45.074400 50.660000 l 45.774400 50.900000 l 45.074400 51.140000 l f
0.100000 slw
[] 0 sd
0 slj
0 slc
0.000000 0.000000 0.000000 srgb
n 44.374400 50.900000 m 45.074400 50.660000 l 45.774400 50.900000 l 45.074400 51.140000 l cp s
/Courier-latin1 ff 0.800000 scf sf
0.100000 slw
[] 0 sd
1.000000 1.000000 1.000000 srgb
n 7.000000 45.000000 m 7.000000 46.400000 l 21.374400 46.400000 l 21.374400 45.000000 l f
0.000000 0.000000 0.000000 srgb
n 7.000000 45.000000 m 7.000000 46.400000 l 21.374400 46.400000 l 21.374400 45.000000 l cp s
/Helvetica-Bold-latin1 ff 1.000000 scf sf
0.000000 0.000000 0.000000 srgb
(ChildrenGroup) dup sw 2 div 14.187200 ex sub 46.000000 m gs 1 -1 sc sh gr
1.000000 1.000000 1.000000 srgb
n 7.000000 46.400000 m 7.000000 49.000000 l 21.374400 49.000000 l 21.374400 46.400000 l f
0.000000 0.000000 0.000000 srgb
n 7.000000 46.400000 m 7.000000 49.000000 l 21.374400 49.000000 l 21.374400 46.400000 l cp s
/Courier-latin1 ff 0.800000 scf sf
0.000000 0.000000 0.000000 srgb
(+id:  = 2) 7.150000 47.134483 m gs 1 -1 sc sh gr
/Courier-latin1 ff 0.800000 scf sf
0.000000 0.000000 0.000000 srgb
(+textNode_id:  = 1) 7.150000 47.934483 m gs 1 -1 sc sh gr
/Courier-latin1 ff 0.800000 scf sf
0.000000 0.000000 0.000000 srgb
(+childrenGroupStyle_id:  = 1) 7.150000 48.734483 m gs 1 -1 sc sh gr
1.000000 1.000000 1.000000 srgb
n 7.000000 49.000000 m 7.000000 49.400000 l 21.374400 49.400000 l 21.374400 49.000000 l f
0.000000 0.000000 0.000000 srgb
n 7.000000 49.000000 m 7.000000 49.400000 l 21.374400 49.400000 l 21.374400 49.000000 l cp s
0.100000 slw
[] 0 sd
0 slj
0 slc
0.000000 0.000000 0.000000 srgb
n 21.374400 47.700000 m 23.000000 47.700000 l 23.000000 40.900000 l 31.000000 40.900000 l s
[] 0 sd
0 slj
0 slc
1.000000 1.000000 1.000000 srgb
n 31.000000 40.900000 m 30.300000 41.140000 l 29.600000 40.900000 l 30.300000 40.660000 l f
0.100000 slw
[] 0 sd
0 slj
0 slc
0.000000 0.000000 0.000000 srgb
n 31.000000 40.900000 m 30.300000 41.140000 l 29.600000 40.900000 l 30.300000 40.660000 l cp s
/Courier-latin1 ff 0.800000 scf sf
0.100000 slw
[] 0 sd
0 slj
0 slc
0.000000 0.000000 0.000000 srgb
n 21.374400 48.500000 m 27.000000 48.500000 l 27.000000 19.900000 l 23.920000 19.900000 l s
[] 0 sd
0 slj
0 slc
1.000000 1.000000 1.000000 srgb
n 23.920000 19.900000 m 24.620000 19.660000 l 25.320000 19.900000 l 24.620000 20.140000 l f
0.100000 slw
[] 0 sd
0 slj
0 slc
0.000000 0.000000 0.000000 srgb
n 23.920000 19.900000 m 24.620000 19.660000 l 25.320000 19.900000 l 24.620000 20.140000 l cp s
/Courier-latin1 ff 0.800000 scf sf
0.100000 slw
[] 0 sd
0 slj
0 slc
0.000000 0.000000 0.000000 srgb
n 40.526400 42.500000 m 48.000000 42.500000 l 48.000000 9.900000 l 39.072000 9.900000 l s
[] 0 sd
0 slj
0 slc
1.000000 1.000000 1.000000 srgb
n 39.072000 9.900000 m 39.772000 9.660000 l 40.472000 9.900000 l 39.772000 10.140000 l f
0.100000 slw
[] 0 sd
0 slj
0 slc
0.000000 0.000000 0.000000 srgb
n 39.072000 9.900000 m 39.772000 9.660000 l 40.472000 9.900000 l 39.772000 10.140000 l cp s
/Courier-latin1 ff 0.800000 scf sf
0.100000 slw
[] 0 sd
0 slj
0 slc
0.000000 0.000000 0.000000 srgb
n 7.000000 62.600000 m 4.000000 62.600000 l 4.000000 46.900000 l 7.000000 46.900000 l s
[] 0 sd
0 slj
0 slc
1.000000 1.000000 1.000000 srgb
n 7.000000 46.900000 m 6.300000 47.140000 l 5.600000 46.900000 l 6.300000 46.660000 l f
0.100000 slw
[] 0 sd
0 slj
0 slc
0.000000 0.000000 0.000000 srgb
n 7.000000 46.900000 m 6.300000 47.140000 l 5.600000 46.900000 l 6.300000 46.660000 l cp s
/Courier-latin1 ff 0.800000 scf sf
0.100000 slw
[] 0 sd
0 slj
0 slc
0.000000 0.000000 0.000000 srgb
n 20.889600 61.800000 m 26.000000 61.800000 l 26.000000 25.900000 l 23.435200 25.900000 l s
[] 0 sd
0 slj
0 slc
1.000000 1.000000 1.000000 srgb
n 23.435200 25.900000 m 24.135200 25.660000 l 24.835200 25.900000 l 24.135200 26.140000 l f
0.100000 slw
[] 0 sd
0 slj
0 slc
0.000000 0.000000 0.000000 srgb
n 23.435200 25.900000 m 24.135200 25.660000 l 24.835200 25.900000 l 24.135200 26.140000 l cp s
/Courier-latin1 ff 0.800000 scf sf
0.100000 slw
[] 0 sd
0 slj
0 slc
0.000000 0.000000 0.000000 srgb
n 21.374400 67.500000 m 25.000000 67.500000 l 25.000000 30.900000 l 21.980800 30.900000 l s
[] 0 sd
0 slj
0 slc
1.000000 1.000000 1.000000 srgb
n 21.980800 30.900000 m 22.680800 30.660000 l 23.380800 30.900000 l 22.680800 31.140000 l f
0.100000 slw
[] 0 sd
0 slj
0 slc
0.000000 0.000000 0.000000 srgb
n 21.980800 30.900000 m 22.680800 30.660000 l 23.380800 30.900000 l 22.680800 31.140000 l cp s
/Courier-latin1 ff 0.800000 scf sf
0.100000 slw
[] 0 sd
0 slj
0 slc
0.000000 0.000000 0.000000 srgb
n 21.374400 72.500000 m 28.000000 72.500000 l 28.000000 36.900000 l 18.738700 36.900000 l s
[] 0 sd
0 slj
0 slc
1.000000 1.000000 1.000000 srgb
n 18.738700 36.900000 m 19.438700 36.660000 l 20.138700 36.900000 l 19.438700 37.140000 l f
0.100000 slw
[] 0 sd
0 slj
0 slc
0.000000 0.000000 0.000000 srgb
n 18.738700 36.900000 m 19.438700 36.660000 l 20.138700 36.900000 l 19.438700 37.140000 l cp s
/Courier-latin1 ff 0.800000 scf sf
0.100000 slw
[] 0 sd
0 slj
0 slc
0.000000 0.000000 0.000000 srgb
n 20.889600 78.500000 m 29.000000 78.500000 l 29.000000 36.900000 l 18.738700 36.900000 l s
[] 0 sd
0 slj
0 slc
1.000000 1.000000 1.000000 srgb
n 18.738700 36.900000 m 19.438700 36.660000 l 20.138700 36.900000 l 19.438700 37.140000 l f
0.100000 slw
[] 0 sd
0 slj
0 slc
0.000000 0.000000 0.000000 srgb
n 18.738700 36.900000 m 19.438700 36.660000 l 20.138700 36.900000 l 19.438700 37.140000 l cp s
/Courier-latin1 ff 0.800000 scf sf
0.100000 slw
[] 0 sd
1.000000 1.000000 1.000000 srgb
n 30.000000 61.000000 m 30.000000 62.400000 l 44.374400 62.400000 l 44.374400 61.000000 l f
0.000000 0.000000 0.000000 srgb
n 30.000000 61.000000 m 30.000000 62.400000 l 44.374400 62.400000 l 44.374400 61.000000 l cp s
/Helvetica-Bold-latin1 ff 1.000000 scf sf
0.000000 0.000000 0.000000 srgb
(ChildrenGroup) dup sw 2 div 37.187200 ex sub 62.000000 m gs 1 -1 sc sh gr
1.000000 1.000000 1.000000 srgb
n 30.000000 62.400000 m 30.000000 65.000000 l 44.374400 65.000000 l 44.374400 62.400000 l f
0.000000 0.000000 0.000000 srgb
n 30.000000 62.400000 m 30.000000 65.000000 l 44.374400 65.000000 l 44.374400 62.400000 l cp s
/Courier-latin1 ff 0.800000 scf sf
0.000000 0.000000 0.000000 srgb
(+id:  = 4) 30.150000 63.134483 m gs 1 -1 sc sh gr
/Courier-latin1 ff 0.800000 scf sf
0.000000 0.000000 0.000000 srgb
(+textNode_id:  = 2) 30.150000 63.934483 m gs 1 -1 sc sh gr
/Courier-latin1 ff 0.800000 scf sf
0.000000 0.000000 0.000000 srgb
(+childrenGroupStyle_id:  = 1) 30.150000 64.734483 m gs 1 -1 sc sh gr
1.000000 1.000000 1.000000 srgb
n 30.000000 65.000000 m 30.000000 65.400000 l 44.374400 65.400000 l 44.374400 65.000000 l f
0.000000 0.000000 0.000000 srgb
n 30.000000 65.000000 m 30.000000 65.400000 l 44.374400 65.400000 l 44.374400 65.000000 l cp s
0.100000 slw
[] 0 sd
0 slj
0 slc
0.000000 0.000000 0.000000 srgb
n 44.374400 63.700000 m 49.000000 63.700000 l 49.000000 56.900000 l 41.950400 56.900000 l s
[] 0 sd
0 slj
0 slc
1.000000 1.000000 1.000000 srgb
n 41.950400 56.900000 m 42.650400 56.660000 l 43.350400 56.900000 l 42.650400 57.140000 l f
0.100000 slw
[] 0 sd
0 slj
0 slc
0.000000 0.000000 0.000000 srgb
n 41.950400 56.900000 m 42.650400 56.660000 l 43.350400 56.900000 l 42.650400 57.140000 l cp s
/Courier-latin1 ff 0.800000 scf sf
0.100000 slw
[] 0 sd
0 slj
0 slc
0.000000 0.000000 0.000000 srgb
n 44.374400 64.500000 m 50.000000 64.500000 l 50.000000 27.000000 l 30.000000 27.000000 l 30.000000 19.900000 l 23.920000 19.900000 l s
[] 0 sd
0 slj
0 slc
1.000000 1.000000 1.000000 srgb
n 23.920000 19.900000 m 24.620000 19.660000 l 25.320000 19.900000 l 24.620000 20.140000 l f
0.100000 slw
[] 0 sd
0 slj
0 slc
0.000000 0.000000 0.000000 srgb
n 23.920000 19.900000 m 24.620000 19.660000 l 25.320000 19.900000 l 24.620000 20.140000 l cp s
/Courier-latin1 ff 0.800000 scf sf
0.100000 slw
[] 0 sd
0 slj
0 slc
0.000000 0.000000 0.000000 srgb
n 47.889600 71.500000 m 51.000000 71.500000 l 51.000000 25.900000 l 23.435200 25.900000 l s
[] 0 sd
0 slj
0 slc
1.000000 1.000000 1.000000 srgb
n 23.435200 25.900000 m 24.135200 25.660000 l 24.835200 25.900000 l 24.135200 26.140000 l f
0.100000 slw
[] 0 sd
0 slj
0 slc
0.000000 0.000000 0.000000 srgb
n 23.435200 25.900000 m 24.135200 25.660000 l 24.835200 25.900000 l 24.135200 26.140000 l cp s
/Courier-latin1 ff 0.800000 scf sf
0.100000 slw
[] 0 sd
0 slj
0 slc
0.000000 0.000000 0.000000 srgb
n 47.889600 72.300000 m 54.000000 72.300000 l 54.000000 62.900000 l 44.374400 62.900000 l s
[] 0 sd
0 slj
0 slc
1.000000 1.000000 1.000000 srgb
n 44.374400 62.900000 m 45.074400 62.660000 l 45.774400 62.900000 l 45.074400 63.140000 l f
0.100000 slw
[] 0 sd
0 slj
0 slc
0.000000 0.000000 0.000000 srgb
n 44.374400 62.900000 m 45.074400 62.660000 l 45.774400 62.900000 l 45.074400 63.140000 l cp s
/Courier-latin1 ff 0.800000 scf sf
0.100000 slw
[] 0 sd
0 slj
0 slc
0.000000 0.000000 0.000000 srgb
n 48.374400 82.500000 m 52.000000 82.500000 l 52.000000 36.900000 l 18.738700 36.900000 l s
[] 0 sd
0 slj
0 slc
1.000000 1.000000 1.000000 srgb
n 18.738700 36.900000 m 19.438700 36.660000 l 20.138700 36.900000 l 19.438700 37.140000 l f
0.100000 slw
[] 0 sd
0 slj
0 slc
0.000000 0.000000 0.000000 srgb
n 18.738700 36.900000 m 19.438700 36.660000 l 20.138700 36.900000 l 19.438700 37.140000 l cp s
/Courier-latin1 ff 0.800000 scf sf
0.100000 slw
[] 0 sd
0 slj
0 slc
0.000000 0.000000 0.000000 srgb
n 47.889600 88.500000 m 53.000000 88.500000 l 53.000000 36.900000 l 18.738700 36.900000 l s
[] 0 sd
0 slj
0 slc
1.000000 1.000000 1.000000 srgb
n 18.738700 36.900000 m 19.438700 36.660000 l 20.138700 36.900000 l 19.438700 37.140000 l f
0.100000 slw
[] 0 sd
0 slj
0 slc
0.000000 0.000000 0.000000 srgb
n 18.738700 36.900000 m 19.438700 36.660000 l 20.138700 36.900000 l 19.438700 37.140000 l cp s
/Courier-latin1 ff 0.800000 scf sf
0.100000 slw
[0.200000] 0 sd
[0.200000] 0 sd
0 slj
0.000000 0.000000 0.000000 srgb
n 6.000000 57.300000 m 6.000000 81.000000 l 22.000000 81.000000 l 22.000000 57.300000 l cp s
0.100000 slw
[] 0 sd
0 slj
0 slc
0.000000 0.000000 0.000000 srgb
n 7.000000 66.700000 m 5.000000 66.700000 l 5.000000 60.200000 l 7.000000 60.200000 l s
[] 0 sd
0 slj
0 slc
1.000000 1.000000 1.000000 srgb
n 7.000000 60.200000 m 6.300000 60.440000 l 5.600000 60.200000 l 6.300000 59.960000 l f
0.100000 slw
[] 0 sd
0 slj
0 slc
0.000000 0.000000 0.000000 srgb
n 7.000000 60.200000 m 6.300000 60.440000 l 5.600000 60.200000 l 6.300000 59.960000 l cp s
/Courier-latin1 ff 0.800000 scf sf
0.100000 slw
[] 0 sd
0 slj
0 slc
0.000000 0.000000 0.000000 srgb
n 7.000000 73.300000 m 4.000000 73.300000 l 4.000000 65.900000 l 7.000000 65.900000 l s
[] 0 sd
0 slj
0 slc
1.000000 1.000000 1.000000 srgb
n 7.000000 65.900000 m 6.300000 66.140000 l 5.600000 65.900000 l 6.300000 65.660000 l f
0.100000 slw
[] 0 sd
0 slj
0 slc
0.000000 0.000000 0.000000 srgb
n 7.000000 65.900000 m 6.300000 66.140000 l 5.600000 65.900000 l 6.300000 65.660000 l cp s
/Courier-latin1 ff 0.800000 scf sf
0.100000 slw
[] 0 sd
0 slj
0 slc
0.000000 0.000000 0.000000 srgb
n 7.000000 78.500000 m 3.000000 78.500000 l 3.000000 65.900000 l 7.000000 65.900000 l s
[] 0 sd
0 slj
0 slc
1.000000 1.000000 1.000000 srgb
n 7.000000 65.900000 m 6.300000 66.140000 l 5.600000 65.900000 l 6.300000 65.660000 l f
0.100000 slw
[] 0 sd
0 slj
0 slc
0.000000 0.000000 0.000000 srgb
n 7.000000 65.900000 m 6.300000 66.140000 l 5.600000 65.900000 l 6.300000 65.660000 l cp s
/Courier-latin1 ff 0.800000 scf sf
0.100000 slw
[] 0 sd
1.000000 1.000000 1.000000 srgb
n 7.000000 58.300000 m 7.000000 59.700000 l 20.889600 59.700000 l 20.889600 58.300000 l f
0.000000 0.000000 0.000000 srgb
n 7.000000 58.300000 m 7.000000 59.700000 l 20.889600 59.700000 l 20.889600 58.300000 l cp s
/Helvetica-Bold-latin1 ff 1.000000 scf sf
0.000000 0.000000 0.000000 srgb
(TextNode) dup sw 2 div 13.944800 ex sub 59.300000 m gs 1 -1 sc sh gr
1.000000 1.000000 1.000000 srgb
n 7.000000 59.700000 m 7.000000 63.100000 l 20.889600 63.100000 l 20.889600 59.700000 l f
0.000000 0.000000 0.000000 srgb
n 7.000000 59.700000 m 7.000000 63.100000 l 20.889600 63.100000 l 20.889600 59.700000 l cp s
/Courier-latin1 ff 0.800000 scf sf
0.000000 0.000000 0.000000 srgb
(+id:  = 3) 7.150000 60.434483 m gs 1 -1 sc sh gr
/Courier-latin1 ff 0.800000 scf sf
0.000000 0.000000 0.000000 srgb
(+title:  = Guide to Animals) 7.150000 61.234483 m gs 1 -1 sc sh gr
/Courier-latin1 ff 0.800000 scf sf
0.000000 0.000000 0.000000 srgb
(+style_id:  = 2) 7.150000 62.034483 m gs 1 -1 sc sh gr
/Courier-latin1 ff 0.800000 scf sf
0.000000 0.000000 0.000000 srgb
(+childrenGroup_id:  = 2) 7.150000 62.834483 m gs 1 -1 sc sh gr
1.000000 1.000000 1.000000 srgb
n 7.000000 63.100000 m 7.000000 63.500000 l 20.889600 63.500000 l 20.889600 63.100000 l f
0.000000 0.000000 0.000000 srgb
n 7.000000 63.100000 m 7.000000 63.500000 l 20.889600 63.500000 l 20.889600 63.100000 l cp s
0.100000 slw
[] 0 sd
1.000000 1.000000 1.000000 srgb
n 7.000000 64.000000 m 7.000000 65.400000 l 21.374400 65.400000 l 21.374400 64.000000 l f
0.000000 0.000000 0.000000 srgb
n 7.000000 64.000000 m 7.000000 65.400000 l 21.374400 65.400000 l 21.374400 64.000000 l cp s
/Helvetica-Bold-latin1 ff 1.000000 scf sf
0.000000 0.000000 0.000000 srgb
(ChildrenGroup) dup sw 2 div 14.187200 ex sub 65.000000 m gs 1 -1 sc sh gr
1.000000 1.000000 1.000000 srgb
n 7.000000 65.400000 m 7.000000 68.000000 l 21.374400 68.000000 l 21.374400 65.400000 l f
0.000000 0.000000 0.000000 srgb
n 7.000000 65.400000 m 7.000000 68.000000 l 21.374400 68.000000 l 21.374400 65.400000 l cp s
/Courier-latin1 ff 0.800000 scf sf
0.000000 0.000000 0.000000 srgb
(+id:  = 3) 7.150000 66.134483 m gs 1 -1 sc sh gr
/Courier-latin1 ff 0.800000 scf sf
0.000000 0.000000 0.000000 srgb
(+textNode_id:  = 3) 7.150000 66.934483 m gs 1 -1 sc sh gr
/Courier-latin1 ff 0.800000 scf sf
0.000000 0.000000 0.000000 srgb
(+childrenGroupStyle_id:  = 3) 7.150000 67.734483 m gs 1 -1 sc sh gr
1.000000 1.000000 1.000000 srgb
n 7.000000 68.000000 m 7.000000 68.400000 l 21.374400 68.400000 l 21.374400 68.000000 l f
0.000000 0.000000 0.000000 srgb
n 7.000000 68.000000 m 7.000000 68.400000 l 21.374400 68.400000 l 21.374400 68.000000 l cp s
0.100000 slw
[] 0 sd
1.000000 1.000000 1.000000 srgb
n 7.000000 69.000000 m 7.000000 70.400000 l 21.374400 70.400000 l 21.374400 69.000000 l f
0.000000 0.000000 0.000000 srgb
n 7.000000 69.000000 m 7.000000 70.400000 l 21.374400 70.400000 l 21.374400 69.000000 l cp s
/Helvetica-Bold-latin1 ff 1.000000 scf sf
0.000000 0.000000 0.000000 srgb
(TextNode) dup sw 2 div 14.187200 ex sub 70.000000 m gs 1 -1 sc sh gr
1.000000 1.000000 1.000000 srgb
n 7.000000 70.400000 m 7.000000 73.800000 l 21.374400 73.800000 l 21.374400 70.400000 l f
0.000000 0.000000 0.000000 srgb
n 7.000000 70.400000 m 7.000000 73.800000 l 21.374400 73.800000 l 21.374400 70.400000 l cp s
/Courier-latin1 ff 0.800000 scf sf
0.000000 0.000000 0.000000 srgb
(+id:  = 4) 7.150000 71.134483 m gs 1 -1 sc sh gr
/Courier-latin1 ff 0.800000 scf sf
0.000000 0.000000 0.000000 srgb
(+title:  = What is an Animal) 7.150000 71.934483 m gs 1 -1 sc sh gr
/Courier-latin1 ff 0.800000 scf sf
0.000000 0.000000 0.000000 srgb
(+style_id:  = 3) 7.150000 72.734483 m gs 1 -1 sc sh gr
/Courier-latin1 ff 0.800000 scf sf
0.000000 0.000000 0.000000 srgb
(+childrenGroup_id:  = 3) 7.150000 73.534483 m gs 1 -1 sc sh gr
1.000000 1.000000 1.000000 srgb
n 7.000000 73.800000 m 7.000000 74.200000 l 21.374400 74.200000 l 21.374400 73.800000 l f
0.000000 0.000000 0.000000 srgb
n 7.000000 73.800000 m 7.000000 74.200000 l 21.374400 74.200000 l 21.374400 73.800000 l cp s
0.100000 slw
[] 0 sd
1.000000 1.000000 1.000000 srgb
n 7.000000 75.000000 m 7.000000 76.400000 l 20.889600 76.400000 l 20.889600 75.000000 l f
0.000000 0.000000 0.000000 srgb
n 7.000000 75.000000 m 7.000000 76.400000 l 20.889600 76.400000 l 20.889600 75.000000 l cp s
/Helvetica-Bold-latin1 ff 1.000000 scf sf
0.000000 0.000000 0.000000 srgb
(TextNode) dup sw 2 div 13.944800 ex sub 76.000000 m gs 1 -1 sc sh gr
1.000000 1.000000 1.000000 srgb
n 7.000000 76.400000 m 7.000000 79.800000 l 20.889600 79.800000 l 20.889600 76.400000 l f
0.000000 0.000000 0.000000 srgb
n 7.000000 76.400000 m 7.000000 79.800000 l 20.889600 79.800000 l 20.889600 76.400000 l cp s
/Courier-latin1 ff 0.800000 scf sf
0.000000 0.000000 0.000000 srgb
(+id:  = 5) 7.150000 77.134483 m gs 1 -1 sc sh gr
/Courier-latin1 ff 0.800000 scf sf
0.000000 0.000000 0.000000 srgb
(+title:  = Animal behaviour) 7.150000 77.934483 m gs 1 -1 sc sh gr
/Courier-latin1 ff 0.800000 scf sf
0.000000 0.000000 0.000000 srgb
(+style_id:  = 3) 7.150000 78.734483 m gs 1 -1 sc sh gr
/Courier-latin1 ff 0.800000 scf sf
0.000000 0.000000 0.000000 srgb
(+childrenGroup_id:  = 3) 7.150000 79.534483 m gs 1 -1 sc sh gr
1.000000 1.000000 1.000000 srgb
n 7.000000 79.800000 m 7.000000 80.200000 l 20.889600 80.200000 l 20.889600 79.800000 l f
0.000000 0.000000 0.000000 srgb
n 7.000000 79.800000 m 7.000000 80.200000 l 20.889600 80.200000 l 20.889600 79.800000 l cp s
/Courier-latin1 ff 0.800000 scf sf
0.000000 0.000000 0.000000 srgb
(document) dup sw 2 div 20.000000 ex sub 82.000000 m gs 1 -1 sc sh gr
/Courier-latin1 ff 0.800000 scf sf
0.000000 0.000000 0.000000 srgb
() dup sw 2 div 42.000000 ex sub 92.000000 m gs 1 -1 sc sh gr
0.100000 slw
[0.200000] 0 sd
[0.200000] 0 sd
0 slj
0.000000 0.000000 0.000000 srgb
n 33.000000 67.000000 m 33.000000 91.000000 l 49.000000 91.000000 l 49.000000 67.000000 l cp s
0.100000 slw
[] 0 sd
1.000000 1.000000 1.000000 srgb
n 34.000000 68.000000 m 34.000000 69.400000 l 47.889600 69.400000 l 47.889600 68.000000 l f
0.000000 0.000000 0.000000 srgb
n 34.000000 68.000000 m 34.000000 69.400000 l 47.889600 69.400000 l 47.889600 68.000000 l cp s
/Helvetica-Bold-latin1 ff 1.000000 scf sf
0.000000 0.000000 0.000000 srgb
(TextNode) dup sw 2 div 40.944800 ex sub 69.000000 m gs 1 -1 sc sh gr
1.000000 1.000000 1.000000 srgb
n 34.000000 69.400000 m 34.000000 72.800000 l 47.889600 72.800000 l 47.889600 69.400000 l f
0.000000 0.000000 0.000000 srgb
n 34.000000 69.400000 m 34.000000 72.800000 l 47.889600 72.800000 l 47.889600 69.400000 l cp s
/Courier-latin1 ff 0.800000 scf sf
0.000000 0.000000 0.000000 srgb
(+id:  = 6) 34.150000 70.134483 m gs 1 -1 sc sh gr
/Courier-latin1 ff 0.800000 scf sf
0.000000 0.000000 0.000000 srgb
(+title:  = Guide to Mammals) 34.150000 70.934483 m gs 1 -1 sc sh gr
/Courier-latin1 ff 0.800000 scf sf
0.000000 0.000000 0.000000 srgb
(+style_id:  = 2) 34.150000 71.734483 m gs 1 -1 sc sh gr
/Courier-latin1 ff 0.800000 scf sf
0.000000 0.000000 0.000000 srgb
(+childrenGroup_id:  = 4) 34.150000 72.534483 m gs 1 -1 sc sh gr
1.000000 1.000000 1.000000 srgb
n 34.000000 72.800000 m 34.000000 73.200000 l 47.889600 73.200000 l 47.889600 72.800000 l f
0.000000 0.000000 0.000000 srgb
n 34.000000 72.800000 m 34.000000 73.200000 l 47.889600 73.200000 l 47.889600 72.800000 l cp s
0.100000 slw
[] 0 sd
1.000000 1.000000 1.000000 srgb
n 34.000000 74.000000 m 34.000000 75.400000 l 48.374400 75.400000 l 48.374400 74.000000 l f
0.000000 0.000000 0.000000 srgb
n 34.000000 74.000000 m 34.000000 75.400000 l 48.374400 75.400000 l 48.374400 74.000000 l cp s
/Helvetica-Bold-latin1 ff 1.000000 scf sf
0.000000 0.000000 0.000000 srgb
(ChildrenGroup) dup sw 2 div 41.187200 ex sub 75.000000 m gs 1 -1 sc sh gr
1.000000 1.000000 1.000000 srgb
n 34.000000 75.400000 m 34.000000 78.000000 l 48.374400 78.000000 l 48.374400 75.400000 l f
0.000000 0.000000 0.000000 srgb
n 34.000000 75.400000 m 34.000000 78.000000 l 48.374400 78.000000 l 48.374400 75.400000 l cp s
/Courier-latin1 ff 0.800000 scf sf
0.000000 0.000000 0.000000 srgb
(+id:  = 5) 34.150000 76.134483 m gs 1 -1 sc sh gr
/Courier-latin1 ff 0.800000 scf sf
0.000000 0.000000 0.000000 srgb
(+textNode_id:  = 6) 34.150000 76.934483 m gs 1 -1 sc sh gr
/Courier-latin1 ff 0.800000 scf sf
0.000000 0.000000 0.000000 srgb
(+childrenGroupStyle_id:  = 3) 34.150000 77.734483 m gs 1 -1 sc sh gr
1.000000 1.000000 1.000000 srgb
n 34.000000 78.000000 m 34.000000 78.400000 l 48.374400 78.400000 l 48.374400 78.000000 l f
0.000000 0.000000 0.000000 srgb
n 34.000000 78.000000 m 34.000000 78.400000 l 48.374400 78.400000 l 48.374400 78.000000 l cp s
0.100000 slw
[] 0 sd
0 slj
0 slc
0.000000 0.000000 0.000000 srgb
n 34.000000 76.700000 m 32.000000 76.700000 l 32.000000 69.900000 l 34.000000 69.900000 l s
[] 0 sd
0 slj
0 slc
1.000000 1.000000 1.000000 srgb
n 34.000000 69.900000 m 33.300000 70.140000 l 32.600000 69.900000 l 33.300000 69.660000 l f
0.100000 slw
[] 0 sd
0 slj
0 slc
0.000000 0.000000 0.000000 srgb
n 34.000000 69.900000 m 33.300000 70.140000 l 32.600000 69.900000 l 33.300000 69.660000 l cp s
/Courier-latin1 ff 0.800000 scf sf
0.100000 slw
[] 0 sd
1.000000 1.000000 1.000000 srgb
n 34.000000 79.000000 m 34.000000 80.400000 l 48.374400 80.400000 l 48.374400 79.000000 l f
0.000000 0.000000 0.000000 srgb
n 34.000000 79.000000 m 34.000000 80.400000 l 48.374400 80.400000 l 48.374400 79.000000 l cp s
/Helvetica-Bold-latin1 ff 1.000000 scf sf
0.000000 0.000000 0.000000 srgb
(TextNode) dup sw 2 div 41.187200 ex sub 80.000000 m gs 1 -1 sc sh gr
1.000000 1.000000 1.000000 srgb
n 34.000000 80.400000 m 34.000000 83.800000 l 48.374400 83.800000 l 48.374400 80.400000 l f
0.000000 0.000000 0.000000 srgb
n 34.000000 80.400000 m 34.000000 83.800000 l 48.374400 83.800000 l 48.374400 80.400000 l cp s
/Courier-latin1 ff 0.800000 scf sf
0.000000 0.000000 0.000000 srgb
(+id:  = 7) 34.150000 81.134483 m gs 1 -1 sc sh gr
/Courier-latin1 ff 0.800000 scf sf
0.000000 0.000000 0.000000 srgb
(+title:  = What is a mammal?) 34.150000 81.934483 m gs 1 -1 sc sh gr
/Courier-latin1 ff 0.800000 scf sf
0.000000 0.000000 0.000000 srgb
(+style_id:  = 3) 34.150000 82.734483 m gs 1 -1 sc sh gr
/Courier-latin1 ff 0.800000 scf sf
0.000000 0.000000 0.000000 srgb
(+childrenGroup_id:  = 5) 34.150000 83.534483 m gs 1 -1 sc sh gr
1.000000 1.000000 1.000000 srgb
n 34.000000 83.800000 m 34.000000 84.200000 l 48.374400 84.200000 l 48.374400 83.800000 l f
0.000000 0.000000 0.000000 srgb
n 34.000000 83.800000 m 34.000000 84.200000 l 48.374400 84.200000 l 48.374400 83.800000 l cp s
0.100000 slw
[] 0 sd
1.000000 1.000000 1.000000 srgb
n 34.000000 85.000000 m 34.000000 86.400000 l 47.889600 86.400000 l 47.889600 85.000000 l f
0.000000 0.000000 0.000000 srgb
n 34.000000 85.000000 m 34.000000 86.400000 l 47.889600 86.400000 l 47.889600 85.000000 l cp s
/Helvetica-Bold-latin1 ff 1.000000 scf sf
0.000000 0.000000 0.000000 srgb
(TextNode) dup sw 2 div 40.944800 ex sub 86.000000 m gs 1 -1 sc sh gr
1.000000 1.000000 1.000000 srgb
n 34.000000 86.400000 m 34.000000 89.800000 l 47.889600 89.800000 l 47.889600 86.400000 l f
0.000000 0.000000 0.000000 srgb
n 34.000000 86.400000 m 34.000000 89.800000 l 47.889600 89.800000 l 47.889600 86.400000 l cp s
/Courier-latin1 ff 0.800000 scf sf
0.000000 0.000000 0.000000 srgb
(+id:  = 8) 34.150000 87.134483 m gs 1 -1 sc sh gr
/Courier-latin1 ff 0.800000 scf sf
0.000000 0.000000 0.000000 srgb
(+title:  = Mammal behaviour) 34.150000 87.934483 m gs 1 -1 sc sh gr
/Courier-latin1 ff 0.800000 scf sf
0.000000 0.000000 0.000000 srgb
(+style_id:  = 3) 34.150000 88.734483 m gs 1 -1 sc sh gr
/Courier-latin1 ff 0.800000 scf sf
0.000000 0.000000 0.000000 srgb
(+childrenGroup_id:  = 5) 34.150000 89.534483 m gs 1 -1 sc sh gr
1.000000 1.000000 1.000000 srgb
n 34.000000 89.800000 m 34.000000 90.200000 l 47.889600 90.200000 l 47.889600 89.800000 l f
0.000000 0.000000 0.000000 srgb
n 34.000000 89.800000 m 34.000000 90.200000 l 47.889600 90.200000 l 47.889600 89.800000 l cp s
0.100000 slw
[] 0 sd
0 slj
0 slc
0.000000 0.000000 0.000000 srgb
n 34.000000 83.300000 m 31.000000 83.300000 l 31.000000 75.900000 l 34.000000 75.900000 l s
[] 0 sd
0 slj
0 slc
1.000000 1.000000 1.000000 srgb
n 34.000000 75.900000 m 33.300000 76.140000 l 32.600000 75.900000 l 33.300000 75.660000 l f
0.100000 slw
[] 0 sd
0 slj
0 slc
0.000000 0.000000 0.000000 srgb
n 34.000000 75.900000 m 33.300000 76.140000 l 32.600000 75.900000 l 33.300000 75.660000 l cp s
/Courier-latin1 ff 0.800000 scf sf
0.100000 slw
[] 0 sd
0 slj
0 slc
0.000000 0.000000 0.000000 srgb
n 34.000000 89.300000 m 30.000000 89.300000 l 30.000000 75.900000 l 34.000000 75.900000 l s
[] 0 sd
0 slj
0 slc
1.000000 1.000000 1.000000 srgb
n 34.000000 75.900000 m 33.300000 76.140000 l 32.600000 75.900000 l 33.300000 75.660000 l f
0.100000 slw
[] 0 sd
0 slj
0 slc
0.000000 0.000000 0.000000 srgb
n 34.000000 75.900000 m 33.300000 76.140000 l 32.600000 75.900000 l 33.300000 75.660000 l cp s
/Courier-latin1 ff 0.800000 scf sf
/Courier-latin1 ff 0.800000 scf sf
0.000000 0.000000 0.000000 srgb
(document) dup sw 2 div 47.000000 ex sub 92.000000 m gs 1 -1 sc sh gr
showpage
