%!PS-Adobe-2.0 EPSF-2.0
%%Title: /home/alex/cord/org.cord/docs/HashedList-overview.fig
%%Creator: Dia v0.88.1
%%CreationDate: Mon Aug  5 12:24:05 2002
%%For: a user
%%Magnification: 1.0000
%%Orientation: Portrait
%%BoundingBox: 0 0 132 188
%%Pages: 1
%%BeginSetup
%%EndSetup
%%EndComments
%%BeginProlog
[ /.notdef /.notdef /.notdef /.notdef /.notdef /.notdef /.notdef /.notdef /.notdef /.notdef
/.notdef /.notdef /.notdef /.notdef /.notdef /.notdef /.notdef /.notdef /.notdef /.notdef
/.notdef /.notdef /.notdef /.notdef /.notdef /.notdef /.notdef /.notdef /.notdef /.notdef
/.notdef /.notdef /space /exclam /quotedbl /numbersign /dollar /percent /ampersand /quoteright
/parenleft /parenright /asterisk /plus /comma /hyphen /period /slash /zero /one
/two /three /four /five /six /seven /eight /nine /colon /semicolon
/less /equal /greater /question /at /A /B /C /D /E
/F /G /H /I /J /K /L /M /N /O
/P /Q /R /S /T /U /V /W /X /Y
/Z /bracketleft /backslash /bracketright /asciicircum /underscore /quoteleft /a /b /c
/d /e /f /g /h /i /j /k /l /m
/n /o /p /q /r /s /t /u /v /w
/x /y /z /braceleft /bar /braceright /asciitilde /.notdef /.notdef /.notdef
/.notdef /.notdef /.notdef /.notdef /.notdef /.notdef /.notdef /.notdef /.notdef /.notdef
/.notdef /.notdef /.notdef /.notdef /.notdef /.notdef /.notdef /.notdef /.notdef /.notdef
/.notdef /.notdef /.notdef /.notdef /.notdef /.notdef /.notdef /.notdef /.notdef /.notdef
/space /exclamdown /cent /sterling /currency /yen /brokenbar /section /dieresis /copyright
/ordfeminine /guillemotleft /logicalnot /hyphen /registered /macron /degree /plusminus /twosuperior /threesuperior
/acute /mu /paragraph /periodcentered /cedilla /onesuperior /ordmasculine /guillemotright /onequarter /onehalf
/threequarters /questiondown /Agrave /Aacute /Acircumflex /Atilde /Adieresis /Aring /AE /Ccedilla
/Egrave /Eacute /Ecircumflex /Edieresis /Igrave /Iacute /Icircumflex /Idieresis /Eth /Ntilde
/Ograve /Oacute /Ocircumflex /Otilde /Odieresis /multiply /Oslash /Ugrave /Uacute /Ucircumflex
/Udieresis /Yacute /Thorn /germandbls /agrave /aacute /acircumflex /atilde /adieresis /aring
/ae /ccedilla /egrave /eacute /ecircumflex /edieresis /igrave /iacute /icircumflex /idieresis
/eth /ntilde /ograve /oacute /ocircumflex /otilde /odieresis /divide /oslash /ugrave
/uacute /ucircumflex /udieresis /yacute /thorn /ydieresis] /isolatin1encoding exch def
/Times-Roman-latin1
    /Times-Roman findfont
    dup length dict begin
	{1 index /FID ne {def} {pop pop} ifelse} forall
	/Encoding isolatin1encoding def
    currentdict end
definefont pop
/Times-Italic-latin1
    /Times-Italic findfont
    dup length dict begin
	{1 index /FID ne {def} {pop pop} ifelse} forall
	/Encoding isolatin1encoding def
    currentdict end
definefont pop
/Times-Bold-latin1
    /Times-Bold findfont
    dup length dict begin
	{1 index /FID ne {def} {pop pop} ifelse} forall
	/Encoding isolatin1encoding def
    currentdict end
definefont pop
/Times-BoldItalic-latin1
    /Times-BoldItalic findfont
    dup length dict begin
	{1 index /FID ne {def} {pop pop} ifelse} forall
	/Encoding isolatin1encoding def
    currentdict end
definefont pop
/AvantGarde-Book-latin1
    /AvantGarde-Book findfont
    dup length dict begin
	{1 index /FID ne {def} {pop pop} ifelse} forall
	/Encoding isolatin1encoding def
    currentdict end
definefont pop
/AvantGarde-BookOblique-latin1
    /AvantGarde-BookOblique findfont
    dup length dict begin
	{1 index /FID ne {def} {pop pop} ifelse} forall
	/Encoding isolatin1encoding def
    currentdict end
definefont pop
/AvantGarde-Demi-latin1
    /AvantGarde-Demi findfont
    dup length dict begin
	{1 index /FID ne {def} {pop pop} ifelse} forall
	/Encoding isolatin1encoding def
    currentdict end
definefont pop
/AvantGarde-DemiOblique-latin1
    /AvantGarde-DemiOblique findfont
    dup length dict begin
	{1 index /FID ne {def} {pop pop} ifelse} forall
	/Encoding isolatin1encoding def
    currentdict end
definefont pop
/Bookman-Light-latin1
    /Bookman-Light findfont
    dup length dict begin
	{1 index /FID ne {def} {pop pop} ifelse} forall
	/Encoding isolatin1encoding def
    currentdict end
definefont pop
/Bookman-LightItalic-latin1
    /Bookman-LightItalic findfont
    dup length dict begin
	{1 index /FID ne {def} {pop pop} ifelse} forall
	/Encoding isolatin1encoding def
    currentdict end
definefont pop
/Bookman-Demi-latin1
    /Bookman-Demi findfont
    dup length dict begin
	{1 index /FID ne {def} {pop pop} ifelse} forall
	/Encoding isolatin1encoding def
    currentdict end
definefont pop
/Bookman-DemiItalic-latin1
    /Bookman-DemiItalic findfont
    dup length dict begin
	{1 index /FID ne {def} {pop pop} ifelse} forall
	/Encoding isolatin1encoding def
    currentdict end
definefont pop
/Courier-latin1
    /Courier findfont
    dup length dict begin
	{1 index /FID ne {def} {pop pop} ifelse} forall
	/Encoding isolatin1encoding def
    currentdict end
definefont pop
/Courier-Oblique-latin1
    /Courier-Oblique findfont
    dup length dict begin
	{1 index /FID ne {def} {pop pop} ifelse} forall
	/Encoding isolatin1encoding def
    currentdict end
definefont pop
/Courier-Bold-latin1
    /Courier-Bold findfont
    dup length dict begin
	{1 index /FID ne {def} {pop pop} ifelse} forall
	/Encoding isolatin1encoding def
    currentdict end
definefont pop
/Courier-BoldOblique-latin1
    /Courier-BoldOblique findfont
    dup length dict begin
	{1 index /FID ne {def} {pop pop} ifelse} forall
	/Encoding isolatin1encoding def
    currentdict end
definefont pop
/Helvetica-latin1
    /Helvetica findfont
    dup length dict begin
	{1 index /FID ne {def} {pop pop} ifelse} forall
	/Encoding isolatin1encoding def
    currentdict end
definefont pop
/Helvetica-Oblique-latin1
    /Helvetica-Oblique findfont
    dup length dict begin
	{1 index /FID ne {def} {pop pop} ifelse} forall
	/Encoding isolatin1encoding def
    currentdict end
definefont pop
/Helvetica-Bold-latin1
    /Helvetica-Bold findfont
    dup length dict begin
	{1 index /FID ne {def} {pop pop} ifelse} forall
	/Encoding isolatin1encoding def
    currentdict end
definefont pop
/Helvetica-BoldOblique-latin1
    /Helvetica-BoldOblique findfont
    dup length dict begin
	{1 index /FID ne {def} {pop pop} ifelse} forall
	/Encoding isolatin1encoding def
    currentdict end
definefont pop
/Helvetica-Narrow-latin1
    /Helvetica-Narrow findfont
    dup length dict begin
	{1 index /FID ne {def} {pop pop} ifelse} forall
	/Encoding isolatin1encoding def
    currentdict end
definefont pop
/Helvetica-Narrow-Oblique-latin1
    /Helvetica-Narrow-Oblique findfont
    dup length dict begin
	{1 index /FID ne {def} {pop pop} ifelse} forall
	/Encoding isolatin1encoding def
    currentdict end
definefont pop
/Helvetica-Narrow-Bold-latin1
    /Helvetica-Narrow-Bold findfont
    dup length dict begin
	{1 index /FID ne {def} {pop pop} ifelse} forall
	/Encoding isolatin1encoding def
    currentdict end
definefont pop
/Helvetica-Narrow-BoldOblique-latin1
    /Helvetica-Narrow-BoldOblique findfont
    dup length dict begin
	{1 index /FID ne {def} {pop pop} ifelse} forall
	/Encoding isolatin1encoding def
    currentdict end
definefont pop
/NewCenturySchoolbook-Roman-latin1
    /NewCenturySchoolbook-Roman findfont
    dup length dict begin
	{1 index /FID ne {def} {pop pop} ifelse} forall
	/Encoding isolatin1encoding def
    currentdict end
definefont pop
/NewCenturySchoolbook-Italic-latin1
    /NewCenturySchoolbook-Italic findfont
    dup length dict begin
	{1 index /FID ne {def} {pop pop} ifelse} forall
	/Encoding isolatin1encoding def
    currentdict end
definefont pop
/NewCenturySchoolbook-Bold-latin1
    /NewCenturySchoolbook-Bold findfont
    dup length dict begin
	{1 index /FID ne {def} {pop pop} ifelse} forall
	/Encoding isolatin1encoding def
    currentdict end
definefont pop
/NewCenturySchoolbook-BoldItalic-latin1
    /NewCenturySchoolbook-BoldItalic findfont
    dup length dict begin
	{1 index /FID ne {def} {pop pop} ifelse} forall
	/Encoding isolatin1encoding def
    currentdict end
definefont pop
/Palatino-Roman-latin1
    /Palatino-Roman findfont
    dup length dict begin
	{1 index /FID ne {def} {pop pop} ifelse} forall
	/Encoding isolatin1encoding def
    currentdict end
definefont pop
/Palatino-Italic-latin1
    /Palatino-Italic findfont
    dup length dict begin
	{1 index /FID ne {def} {pop pop} ifelse} forall
	/Encoding isolatin1encoding def
    currentdict end
definefont pop
/Palatino-Bold-latin1
    /Palatino-Bold findfont
    dup length dict begin
	{1 index /FID ne {def} {pop pop} ifelse} forall
	/Encoding isolatin1encoding def
    currentdict end
definefont pop
/Palatino-BoldItalic-latin1
    /Palatino-BoldItalic findfont
    dup length dict begin
	{1 index /FID ne {def} {pop pop} ifelse} forall
	/Encoding isolatin1encoding def
    currentdict end
definefont pop
/Symbol-latin1
    /Symbol findfont
definefont pop
/ZapfChancery-MediumItalic-latin1
    /ZapfChancery-MediumItalic findfont
    dup length dict begin
	{1 index /FID ne {def} {pop pop} ifelse} forall
	/Encoding isolatin1encoding def
    currentdict end
definefont pop
/ZapfDingbats-latin1
    /ZapfDingbats findfont
definefont pop
/Ryumin-Light-EUC-H-latin1
    /Ryumin-Light-EUC-H findfont
definefont pop
/GothicBBB-Medium-EUC-H-latin1
    /GothicBBB-Medium-EUC-H findfont
definefont pop
/cp {closepath} bind def
/c {curveto} bind def
/f {fill} bind def
/a {arc} bind def
/ef {eofill} bind def
/ex {exch} bind def
/gr {grestore} bind def
/gs {gsave} bind def
/sa {save} bind def
/rs {restore} bind def
/l {lineto} bind def
/m {moveto} bind def
/rm {rmoveto} bind def
/n {newpath} bind def
/s {stroke} bind def
/sh {show} bind def
/slc {setlinecap} bind def
/slj {setlinejoin} bind def
/slw {setlinewidth} bind def
/srgb {setrgbcolor} bind def
/rot {rotate} bind def
/sc {scale} bind def
/sd {setdash} bind def
/ff {findfont} bind def
/sf {setfont} bind def
/scf {scalefont} bind def
/sw {stringwidth pop} bind def
/tr {translate} bind def

/ellipsedict 8 dict def
ellipsedict /mtrx matrix put
/ellipse
{ ellipsedict begin
   /endangle exch def
   /startangle exch def
   /yrad exch def
   /xrad exch def
   /y exch def
   /x exch def   /savematrix mtrx currentmatrix def
   x y tr xrad yrad sc
   0 0 1 startangle endangle arc
   savematrix setmatrix
   end
} def

/mergeprocs {
dup length
3 -1 roll
dup
length
dup
5 1 roll
3 -1 roll
add
array cvx
dup
3 -1 roll
0 exch
putinterval
dup
4 2 roll
putinterval
} bind def
7.086500 -7.086500 scale
-4.950000 -30.385018 translate
%%EndProlog


1.000000 1.000000 1.000000 srgb
n 12.000000 22.000000 m 12.000000 24.000000 l 15.724000 24.000000 l 15.724000 22.000000 l f
0.100000 slw
[] 0 sd
[] 0 sd
0 slj
0.000000 0.000000 0.000000 srgb
n 12.000000 22.000000 m 12.000000 24.000000 l 15.724000 24.000000 l 15.724000 22.000000 l cp s
/Courier-latin1 ff 0.800000 scf sf
(key A) dup sw 2 div 13.862000 ex sub 23.234483 m gs 1 -1 sc sh gr
1.000000 1.000000 1.000000 srgb
n 12.000000 10.000000 m 12.000000 12.000000 l 15.724000 12.000000 l 15.724000 10.000000 l f
0.100000 slw
[] 0 sd
[] 0 sd
0 slj
0.000000 0.000000 0.000000 srgb
n 12.000000 10.000000 m 12.000000 12.000000 l 15.724000 12.000000 l 15.724000 10.000000 l cp s
/Courier-latin1 ff 0.800000 scf sf
(key D) dup sw 2 div 13.862000 ex sub 11.234483 m gs 1 -1 sc sh gr
1.000000 1.000000 1.000000 srgb
n 12.000000 14.000000 m 12.000000 16.000000 l 15.724000 16.000000 l 15.724000 14.000000 l f
0.100000 slw
[] 0 sd
[] 0 sd
0 slj
0.000000 0.000000 0.000000 srgb
n 12.000000 14.000000 m 12.000000 16.000000 l 15.724000 16.000000 l 15.724000 14.000000 l cp s
/Courier-latin1 ff 0.800000 scf sf
(key C) dup sw 2 div 13.862000 ex sub 15.234483 m gs 1 -1 sc sh gr
1.000000 1.000000 1.000000 srgb
n 12.000000 18.000000 m 12.000000 20.000000 l 15.724000 20.000000 l 15.724000 18.000000 l f
0.100000 slw
[] 0 sd
[] 0 sd
0 slj
0.000000 0.000000 0.000000 srgb
n 12.000000 18.000000 m 12.000000 20.000000 l 15.724000 20.000000 l 15.724000 18.000000 l cp s
/Courier-latin1 ff 0.800000 scf sf
(key B) dup sw 2 div 13.862000 ex sub 19.234483 m gs 1 -1 sc sh gr
1.000000 1.000000 1.000000 srgb
n 18.757600 22.000000 m 18.757600 24.000000 l 23.451200 24.000000 l 23.451200 22.000000 l f
0.100000 slw
[] 0 sd
[] 0 sd
0 slj
0.000000 0.000000 0.000000 srgb
n 18.757600 22.000000 m 18.757600 24.000000 l 23.451200 24.000000 l 23.451200 22.000000 l cp s
/Courier-latin1 ff 0.800000 scf sf
(value A) dup sw 2 div 21.104400 ex sub 23.234483 m gs 1 -1 sc sh gr
1.000000 1.000000 1.000000 srgb
n 18.757600 18.000000 m 18.757600 20.000000 l 23.451200 20.000000 l 23.451200 18.000000 l f
0.100000 slw
[] 0 sd
[] 0 sd
0 slj
0.000000 0.000000 0.000000 srgb
n 18.757600 18.000000 m 18.757600 20.000000 l 23.451200 20.000000 l 23.451200 18.000000 l cp s
/Courier-latin1 ff 0.800000 scf sf
(value B) dup sw 2 div 21.104400 ex sub 19.234483 m gs 1 -1 sc sh gr
1.000000 1.000000 1.000000 srgb
n 18.757600 14.000000 m 18.757600 16.000000 l 23.451200 16.000000 l 23.451200 14.000000 l f
0.100000 slw
[] 0 sd
[] 0 sd
0 slj
0.000000 0.000000 0.000000 srgb
n 18.757600 14.000000 m 18.757600 16.000000 l 23.451200 16.000000 l 23.451200 14.000000 l cp s
/Courier-latin1 ff 0.800000 scf sf
(value C) dup sw 2 div 21.104400 ex sub 15.234483 m gs 1 -1 sc sh gr
1.000000 1.000000 1.000000 srgb
n 18.757600 10.000000 m 18.757600 12.000000 l 23.451200 12.000000 l 23.451200 10.000000 l f
0.100000 slw
[] 0 sd
[] 0 sd
0 slj
0.000000 0.000000 0.000000 srgb
n 18.757600 10.000000 m 18.757600 12.000000 l 23.451200 12.000000 l 23.451200 10.000000 l cp s
/Courier-latin1 ff 0.800000 scf sf
(value D) dup sw 2 div 21.104400 ex sub 11.234483 m gs 1 -1 sc sh gr
0.100000 slw
[] 0 sd
[] 0 sd
0 slc
n 15.724000 11.000000 m 19.000000 11.000000 l s
0.100000 slw
[] 0 sd
0 slj
0 slc
n 18.200000 11.400000 m 19.000000 11.000000 l 18.200000 10.600000 l s
0.100000 slw
[] 0 sd
[] 0 sd
0 slc
n 15.724000 15.000000 m 19.000000 15.000000 l s
0.100000 slw
[] 0 sd
0 slj
0 slc
n 18.200000 15.400000 m 19.000000 15.000000 l 18.200000 14.600000 l s
0.100000 slw
[] 0 sd
[] 0 sd
0 slc
n 15.724000 19.000000 m 19.000000 19.000000 l s
0.100000 slw
[] 0 sd
0 slj
0 slc
n 18.200000 19.400000 m 19.000000 19.000000 l 18.200000 18.600000 l s
0.100000 slw
[] 0 sd
[] 0 sd
0 slc
n 15.724000 23.000000 m 19.000000 23.000000 l s
0.100000 slw
[] 0 sd
0 slj
0 slc
n 18.200000 23.400000 m 19.000000 23.000000 l 18.200000 22.600000 l s
1.000000 1.000000 1.000000 srgb
n 6.667509 16.667509 1.667509 1.667509 0 360 ellipse f
0.100000 slw
[] 0 sd
[] 0 sd
0 slj
0.000000 0.000000 0.000000 srgb
n 6.667509 16.667509 1.667509 1.667509 0 360 ellipse cp s
/Courier-latin1 ff 0.800000 scf sf
(Hash) dup sw 2 div 6.667509 ex sub 16.901992 m gs 1 -1 sc sh gr
1.000000 1.000000 1.000000 srgb
n 13.862000 28.667509 1.667509 1.667509 0 360 ellipse f
0.100000 slw
[] 0 sd
[] 0 sd
0 slj
0.000000 0.000000 0.000000 srgb
n 13.862000 28.667509 1.667509 1.667509 0 360 ellipse cp s
/Courier-latin1 ff 0.800000 scf sf
(Head) dup sw 2 div 13.862000 ex sub 28.901992 m gs 1 -1 sc sh gr
1.000000 1.000000 1.000000 srgb
n 13.862000 5.667509 1.667509 1.667509 0 360 ellipse f
0.100000 slw
[] 0 sd
[] 0 sd
0 slj
0.000000 0.000000 0.000000 srgb
n 13.862000 5.667509 1.667509 1.667509 0 360 ellipse cp s
/Courier-latin1 ff 0.800000 scf sf
(Tail) dup sw 2 div 13.862000 ex sub 5.901992 m gs 1 -1 sc sh gr
0.100000 slw
[] 0 sd
[] 0 sd
0 slc
n 13.862000 7.335018 m 13.862000 10.000000 l s
0.100000 slw
[] 0 sd
0 slj
0 slc
n 14.262000 8.135018 m 13.862000 7.335018 l 13.462000 8.135018 l s
0.100000 slw
[] 0 sd
0 slj
0 slc
n 13.462000 9.200000 m 13.862000 10.000000 l 14.262000 9.200000 l s
0.100000 slw
[] 0 sd
[] 0 sd
0 slc
n 13.862000 12.000000 m 13.862000 14.000000 l s
0.100000 slw
[] 0 sd
0 slj
0 slc
n 14.262000 12.800000 m 13.862000 12.000000 l 13.462000 12.800000 l s
0.100000 slw
[] 0 sd
0 slj
0 slc
n 13.462000 13.200000 m 13.862000 14.000000 l 14.262000 13.200000 l s
0.100000 slw
[] 0 sd
[] 0 sd
0 slc
n 13.862000 16.000000 m 13.862000 18.000000 l s
0.100000 slw
[] 0 sd
0 slj
0 slc
n 14.262000 16.800000 m 13.862000 16.000000 l 13.462000 16.800000 l s
0.100000 slw
[] 0 sd
0 slj
0 slc
n 13.462000 17.200000 m 13.862000 18.000000 l 14.262000 17.200000 l s
0.100000 slw
[] 0 sd
[] 0 sd
0 slc
n 13.862000 20.000000 m 13.862000 22.000000 l s
0.100000 slw
[] 0 sd
0 slj
0 slc
n 14.262000 20.800000 m 13.862000 20.000000 l 13.462000 20.800000 l s
0.100000 slw
[] 0 sd
0 slj
0 slc
n 13.462000 21.200000 m 13.862000 22.000000 l 14.262000 21.200000 l s
0.100000 slw
[] 0 sd
[] 0 sd
0 slc
n 13.862000 24.000000 m 13.862000 27.000000 l s
0.100000 slw
[] 0 sd
0 slj
0 slc
n 14.262000 24.800000 m 13.862000 24.000000 l 13.462000 24.800000 l s
0.100000 slw
[] 0 sd
0 slj
0 slc
n 13.462000 26.200000 m 13.862000 27.000000 l 14.262000 26.200000 l s
0.100000 slw
[] 0 sd
[] 0 sd
0 slc
n 8.335018 16.667509 m 12.000000 11.000000 l s
0.100000 slw
[] 0 sd
0 slj
0 slc
n 11.901474 11.888984 m 12.000000 11.000000 l 11.229697 11.454569 l s
0.100000 slw
[] 0 sd
[] 0 sd
0 slc
n 8.335018 16.667509 m 12.000000 15.000000 l s
0.100000 slw
[] 0 sd
0 slj
0 slc
n 11.437481 15.695393 m 12.000000 15.000000 l 11.106174 14.967221 l s
0.100000 slw
[] 0 sd
[] 0 sd
0 slc
n 8.335018 16.667509 m 12.000000 19.000000 l s
0.100000 slw
[] 0 sd
0 slj
0 slc
n 11.110325 18.907925 m 12.000000 19.000000 l 11.539855 18.233014 l s
0.100000 slw
[] 0 sd
[] 0 sd
0 slc
n 8.335018 16.667509 m 12.000000 23.000000 l s
0.100000 slw
[] 0 sd
0 slj
0 slc
n 11.253070 22.507968 m 12.000000 23.000000 l 11.945468 22.107237 l s
showpage
