%!PS-Adobe-2.0 EPSF-2.0
%%Title: /home/alex/cord/org.cord/docs/HashedList-implementation.dia
%%Creator: Dia v0.88.1
%%CreationDate: Mon Aug  5 12:46:18 2002
%%For: a user
%%Magnification: 1.0000
%%Orientation: Portrait
%%BoundingBox: 0 0 372 149
%%Pages: 1
%%BeginSetup
%%EndSetup
%%EndComments
%%BeginProlog
[ /.notdef /.notdef /.notdef /.notdef /.notdef /.notdef /.notdef /.notdef /.notdef /.notdef
/.notdef /.notdef /.notdef /.notdef /.notdef /.notdef /.notdef /.notdef /.notdef /.notdef
/.notdef /.notdef /.notdef /.notdef /.notdef /.notdef /.notdef /.notdef /.notdef /.notdef
/.notdef /.notdef /space /exclam /quotedbl /numbersign /dollar /percent /ampersand /quoteright
/parenleft /parenright /asterisk /plus /comma /hyphen /period /slash /zero /one
/two /three /four /five /six /seven /eight /nine /colon /semicolon
/less /equal /greater /question /at /A /B /C /D /E
/F /G /H /I /J /K /L /M /N /O
/P /Q /R /S /T /U /V /W /X /Y
/Z /bracketleft /backslash /bracketright /asciicircum /underscore /quoteleft /a /b /c
/d /e /f /g /h /i /j /k /l /m
/n /o /p /q /r /s /t /u /v /w
/x /y /z /braceleft /bar /braceright /asciitilde /.notdef /.notdef /.notdef
/.notdef /.notdef /.notdef /.notdef /.notdef /.notdef /.notdef /.notdef /.notdef /.notdef
/.notdef /.notdef /.notdef /.notdef /.notdef /.notdef /.notdef /.notdef /.notdef /.notdef
/.notdef /.notdef /.notdef /.notdef /.notdef /.notdef /.notdef /.notdef /.notdef /.notdef
/space /exclamdown /cent /sterling /currency /yen /brokenbar /section /dieresis /copyright
/ordfeminine /guillemotleft /logicalnot /hyphen /registered /macron /degree /plusminus /twosuperior /threesuperior
/acute /mu /paragraph /periodcentered /cedilla /onesuperior /ordmasculine /guillemotright /onequarter /onehalf
/threequarters /questiondown /Agrave /Aacute /Acircumflex /Atilde /Adieresis /Aring /AE /Ccedilla
/Egrave /Eacute /Ecircumflex /Edieresis /Igrave /Iacute /Icircumflex /Idieresis /Eth /Ntilde
/Ograve /Oacute /Ocircumflex /Otilde /Odieresis /multiply /Oslash /Ugrave /Uacute /Ucircumflex
/Udieresis /Yacute /Thorn /germandbls /agrave /aacute /acircumflex /atilde /adieresis /aring
/ae /ccedilla /egrave /eacute /ecircumflex /edieresis /igrave /iacute /icircumflex /idieresis
/eth /ntilde /ograve /oacute /ocircumflex /otilde /odieresis /divide /oslash /ugrave
/uacute /ucircumflex /udieresis /yacute /thorn /ydieresis] /isolatin1encoding exch def
/Times-Roman-latin1
    /Times-Roman findfont
    dup length dict begin
	{1 index /FID ne {def} {pop pop} ifelse} forall
	/Encoding isolatin1encoding def
    currentdict end
definefont pop
/Times-Italic-latin1
    /Times-Italic findfont
    dup length dict begin
	{1 index /FID ne {def} {pop pop} ifelse} forall
	/Encoding isolatin1encoding def
    currentdict end
definefont pop
/Times-Bold-latin1
    /Times-Bold findfont
    dup length dict begin
	{1 index /FID ne {def} {pop pop} ifelse} forall
	/Encoding isolatin1encoding def
    currentdict end
definefont pop
/Times-BoldItalic-latin1
    /Times-BoldItalic findfont
    dup length dict begin
	{1 index /FID ne {def} {pop pop} ifelse} forall
	/Encoding isolatin1encoding def
    currentdict end
definefont pop
/AvantGarde-Book-latin1
    /AvantGarde-Book findfont
    dup length dict begin
	{1 index /FID ne {def} {pop pop} ifelse} forall
	/Encoding isolatin1encoding def
    currentdict end
definefont pop
/AvantGarde-BookOblique-latin1
    /AvantGarde-BookOblique findfont
    dup length dict begin
	{1 index /FID ne {def} {pop pop} ifelse} forall
	/Encoding isolatin1encoding def
    currentdict end
definefont pop
/AvantGarde-Demi-latin1
    /AvantGarde-Demi findfont
    dup length dict begin
	{1 index /FID ne {def} {pop pop} ifelse} forall
	/Encoding isolatin1encoding def
    currentdict end
definefont pop
/AvantGarde-DemiOblique-latin1
    /AvantGarde-DemiOblique findfont
    dup length dict begin
	{1 index /FID ne {def} {pop pop} ifelse} forall
	/Encoding isolatin1encoding def
    currentdict end
definefont pop
/Bookman-Light-latin1
    /Bookman-Light findfont
    dup length dict begin
	{1 index /FID ne {def} {pop pop} ifelse} forall
	/Encoding isolatin1encoding def
    currentdict end
definefont pop
/Bookman-LightItalic-latin1
    /Bookman-LightItalic findfont
    dup length dict begin
	{1 index /FID ne {def} {pop pop} ifelse} forall
	/Encoding isolatin1encoding def
    currentdict end
definefont pop
/Bookman-Demi-latin1
    /Bookman-Demi findfont
    dup length dict begin
	{1 index /FID ne {def} {pop pop} ifelse} forall
	/Encoding isolatin1encoding def
    currentdict end
definefont pop
/Bookman-DemiItalic-latin1
    /Bookman-DemiItalic findfont
    dup length dict begin
	{1 index /FID ne {def} {pop pop} ifelse} forall
	/Encoding isolatin1encoding def
    currentdict end
definefont pop
/Courier-latin1
    /Courier findfont
    dup length dict begin
	{1 index /FID ne {def} {pop pop} ifelse} forall
	/Encoding isolatin1encoding def
    currentdict end
definefont pop
/Courier-Oblique-latin1
    /Courier-Oblique findfont
    dup length dict begin
	{1 index /FID ne {def} {pop pop} ifelse} forall
	/Encoding isolatin1encoding def
    currentdict end
definefont pop
/Courier-Bold-latin1
    /Courier-Bold findfont
    dup length dict begin
	{1 index /FID ne {def} {pop pop} ifelse} forall
	/Encoding isolatin1encoding def
    currentdict end
definefont pop
/Courier-BoldOblique-latin1
    /Courier-BoldOblique findfont
    dup length dict begin
	{1 index /FID ne {def} {pop pop} ifelse} forall
	/Encoding isolatin1encoding def
    currentdict end
definefont pop
/Helvetica-latin1
    /Helvetica findfont
    dup length dict begin
	{1 index /FID ne {def} {pop pop} ifelse} forall
	/Encoding isolatin1encoding def
    currentdict end
definefont pop
/Helvetica-Oblique-latin1
    /Helvetica-Oblique findfont
    dup length dict begin
	{1 index /FID ne {def} {pop pop} ifelse} forall
	/Encoding isolatin1encoding def
    currentdict end
definefont pop
/Helvetica-Bold-latin1
    /Helvetica-Bold findfont
    dup length dict begin
	{1 index /FID ne {def} {pop pop} ifelse} forall
	/Encoding isolatin1encoding def
    currentdict end
definefont pop
/Helvetica-BoldOblique-latin1
    /Helvetica-BoldOblique findfont
    dup length dict begin
	{1 index /FID ne {def} {pop pop} ifelse} forall
	/Encoding isolatin1encoding def
    currentdict end
definefont pop
/Helvetica-Narrow-latin1
    /Helvetica-Narrow findfont
    dup length dict begin
	{1 index /FID ne {def} {pop pop} ifelse} forall
	/Encoding isolatin1encoding def
    currentdict end
definefont pop
/Helvetica-Narrow-Oblique-latin1
    /Helvetica-Narrow-Oblique findfont
    dup length dict begin
	{1 index /FID ne {def} {pop pop} ifelse} forall
	/Encoding isolatin1encoding def
    currentdict end
definefont pop
/Helvetica-Narrow-Bold-latin1
    /Helvetica-Narrow-Bold findfont
    dup length dict begin
	{1 index /FID ne {def} {pop pop} ifelse} forall
	/Encoding isolatin1encoding def
    currentdict end
definefont pop
/Helvetica-Narrow-BoldOblique-latin1
    /Helvetica-Narrow-BoldOblique findfont
    dup length dict begin
	{1 index /FID ne {def} {pop pop} ifelse} forall
	/Encoding isolatin1encoding def
    currentdict end
definefont pop
/NewCenturySchoolbook-Roman-latin1
    /NewCenturySchoolbook-Roman findfont
    dup length dict begin
	{1 index /FID ne {def} {pop pop} ifelse} forall
	/Encoding isolatin1encoding def
    currentdict end
definefont pop
/NewCenturySchoolbook-Italic-latin1
    /NewCenturySchoolbook-Italic findfont
    dup length dict begin
	{1 index /FID ne {def} {pop pop} ifelse} forall
	/Encoding isolatin1encoding def
    currentdict end
definefont pop
/NewCenturySchoolbook-Bold-latin1
    /NewCenturySchoolbook-Bold findfont
    dup length dict begin
	{1 index /FID ne {def} {pop pop} ifelse} forall
	/Encoding isolatin1encoding def
    currentdict end
definefont pop
/NewCenturySchoolbook-BoldItalic-latin1
    /NewCenturySchoolbook-BoldItalic findfont
    dup length dict begin
	{1 index /FID ne {def} {pop pop} ifelse} forall
	/Encoding isolatin1encoding def
    currentdict end
definefont pop
/Palatino-Roman-latin1
    /Palatino-Roman findfont
    dup length dict begin
	{1 index /FID ne {def} {pop pop} ifelse} forall
	/Encoding isolatin1encoding def
    currentdict end
definefont pop
/Palatino-Italic-latin1
    /Palatino-Italic findfont
    dup length dict begin
	{1 index /FID ne {def} {pop pop} ifelse} forall
	/Encoding isolatin1encoding def
    currentdict end
definefont pop
/Palatino-Bold-latin1
    /Palatino-Bold findfont
    dup length dict begin
	{1 index /FID ne {def} {pop pop} ifelse} forall
	/Encoding isolatin1encoding def
    currentdict end
definefont pop
/Palatino-BoldItalic-latin1
    /Palatino-BoldItalic findfont
    dup length dict begin
	{1 index /FID ne {def} {pop pop} ifelse} forall
	/Encoding isolatin1encoding def
    currentdict end
definefont pop
/Symbol-latin1
    /Symbol findfont
definefont pop
/ZapfChancery-MediumItalic-latin1
    /ZapfChancery-MediumItalic findfont
    dup length dict begin
	{1 index /FID ne {def} {pop pop} ifelse} forall
	/Encoding isolatin1encoding def
    currentdict end
definefont pop
/ZapfDingbats-latin1
    /ZapfDingbats findfont
definefont pop
/Ryumin-Light-EUC-H-latin1
    /Ryumin-Light-EUC-H findfont
definefont pop
/GothicBBB-Medium-EUC-H-latin1
    /GothicBBB-Medium-EUC-H findfont
definefont pop
/cp {closepath} bind def
/c {curveto} bind def
/f {fill} bind def
/a {arc} bind def
/ef {eofill} bind def
/ex {exch} bind def
/gr {grestore} bind def
/gs {gsave} bind def
/sa {save} bind def
/rs {restore} bind def
/l {lineto} bind def
/m {moveto} bind def
/rm {rmoveto} bind def
/n {newpath} bind def
/s {stroke} bind def
/sh {show} bind def
/slc {setlinecap} bind def
/slj {setlinejoin} bind def
/slw {setlinewidth} bind def
/srgb {setrgbcolor} bind def
/rot {rotate} bind def
/sc {scale} bind def
/sd {setdash} bind def
/ff {findfont} bind def
/sf {setfont} bind def
/scf {scalefont} bind def
/sw {stringwidth pop} bind def
/tr {translate} bind def

/ellipsedict 8 dict def
ellipsedict /mtrx matrix put
/ellipse
{ ellipsedict begin
   /endangle exch def
   /startangle exch def
   /yrad exch def
   /xrad exch def
   /y exch def
   /x exch def   /savematrix mtrx currentmatrix def
   x y tr xrad yrad sc
   0 0 1 startangle endangle arc
   savematrix setmatrix
   end
} def

/mergeprocs {
dup length
3 -1 roll
dup
length
dup
5 1 roll
3 -1 roll
add
array cvx
dup
3 -1 roll
0 exch
putinterval
dup
4 2 roll
putinterval
} bind def
7.086500 -7.086500 scale
-5.950000 -32.385020 translate
%%EndProlog


1.000000 1.000000 1.000000 srgb
n 13.242400 20.050000 m 13.242400 22.050000 l 16.966400 22.050000 l 16.966400 20.050000 l f
0.100000 slw
[] 0 sd
[] 0 sd
0 slj
0.000000 0.000000 0.000000 srgb
n 13.242400 20.050000 m 13.242400 22.050000 l 16.966400 22.050000 l 16.966400 20.050000 l cp s
/Courier-latin1 ff 0.800000 scf sf
(key A) dup sw 2 div 15.104400 ex sub 21.284483 m gs 1 -1 sc sh gr
1.000000 1.000000 1.000000 srgb
n 37.000000 20.000000 m 37.000000 22.000000 l 40.724000 22.000000 l 40.724000 20.000000 l f
0.100000 slw
[] 0 sd
[] 0 sd
0 slj
0.000000 0.000000 0.000000 srgb
n 37.000000 20.000000 m 37.000000 22.000000 l 40.724000 22.000000 l 40.724000 20.000000 l cp s
/Courier-latin1 ff 0.800000 scf sf
(key D) dup sw 2 div 38.862000 ex sub 21.234483 m gs 1 -1 sc sh gr
1.000000 1.000000 1.000000 srgb
n 25.347729 19.999998 m 25.347729 21.999998 l 29.071730 21.999998 l 29.071730 19.999998 l f
0.100000 slw
[] 0 sd
[] 0 sd
0 slj
0.000000 0.000000 0.000000 srgb
n 25.347729 19.999998 m 25.347729 21.999998 l 29.071730 21.999998 l 29.071730 19.999998 l cp s
/Courier-latin1 ff 0.800000 scf sf
(key C) dup sw 2 div 27.209730 ex sub 21.234481 m gs 1 -1 sc sh gr
1.000000 1.000000 1.000000 srgb
n 13.242400 16.050000 m 13.242400 18.050000 l 16.966400 18.050000 l 16.966400 16.050000 l f
0.100000 slw
[] 0 sd
[] 0 sd
0 slj
0.000000 0.000000 0.000000 srgb
n 13.242400 16.050000 m 13.242400 18.050000 l 16.966400 18.050000 l 16.966400 16.050000 l cp s
/Courier-latin1 ff 0.800000 scf sf
(key B) dup sw 2 div 15.104400 ex sub 17.284483 m gs 1 -1 sc sh gr
1.000000 1.000000 1.000000 srgb
n 18.894670 21.000000 m 18.894670 23.000000 l 23.588270 23.000000 l 23.588270 21.000000 l f
0.100000 slw
[] 0 sd
[] 0 sd
0 slj
0.000000 0.000000 0.000000 srgb
n 18.894670 21.000000 m 18.894670 23.000000 l 23.588270 23.000000 l 23.588270 21.000000 l cp s
/Courier-latin1 ff 0.800000 scf sf
(value A) dup sw 2 div 21.241470 ex sub 22.234483 m gs 1 -1 sc sh gr
1.000000 1.000000 1.000000 srgb
n 18.894670 15.000000 m 18.894670 17.000000 l 23.588270 17.000000 l 23.588270 15.000000 l f
0.100000 slw
[] 0 sd
[] 0 sd
0 slj
0.000000 0.000000 0.000000 srgb
n 18.894670 15.000000 m 18.894670 17.000000 l 23.588270 17.000000 l 23.588270 15.000000 l cp s
/Courier-latin1 ff 0.800000 scf sf
(value B) dup sw 2 div 21.241470 ex sub 16.234483 m gs 1 -1 sc sh gr
1.000000 1.000000 1.000000 srgb
n 31.000000 21.000000 m 31.000000 23.000000 l 35.693600 23.000000 l 35.693600 21.000000 l f
0.100000 slw
[] 0 sd
[] 0 sd
0 slj
0.000000 0.000000 0.000000 srgb
n 31.000000 21.000000 m 31.000000 23.000000 l 35.693600 23.000000 l 35.693600 21.000000 l cp s
/Courier-latin1 ff 0.800000 scf sf
(value C) dup sw 2 div 33.346800 ex sub 22.234483 m gs 1 -1 sc sh gr
1.000000 1.000000 1.000000 srgb
n 42.652270 21.000000 m 42.652270 23.000000 l 47.345870 23.000000 l 47.345870 21.000000 l f
0.100000 slw
[] 0 sd
[] 0 sd
0 slj
0.000000 0.000000 0.000000 srgb
n 42.652270 21.000000 m 42.652270 23.000000 l 47.345870 23.000000 l 47.345870 21.000000 l cp s
/Courier-latin1 ff 0.800000 scf sf
(value D) dup sw 2 div 44.999070 ex sub 22.234483 m gs 1 -1 sc sh gr
0.100000 slw
[] 0 sd
[] 0 sd
0 slc
n 40.724000 21.000000 m 42.652270 22.000000 l s
0.100000 slw
[] 0 sd
0 slj
0 slc
n 41.757940 21.986791 m 42.652270 22.000000 l 42.126239 21.276611 l s
0.100000 slw
[] 0 sd
[] 0 sd
0 slc
n 29.071730 20.999998 m 31.000000 22.000000 l s
0.100000 slw
[] 0 sd
0 slj
0 slc
n 30.105670 21.986790 m 31.000000 22.000000 l 30.473970 21.276610 l s
0.100000 slw
[] 0 sd
[] 0 sd
0 slc
n 16.966400 17.050000 m 18.894670 16.000000 l s
0.100000 slw
[] 0 sd
0 slj
0 slc
n 18.383371 16.733875 m 18.894670 16.000000 l 18.000791 16.031286 l s
1.000000 1.000000 1.000000 srgb
n 30.667510 30.667510 1.667510 1.667510 0 360 ellipse f
0.100000 slw
[] 0 sd
[] 0 sd
0 slj
0.000000 0.000000 0.000000 srgb
n 30.667510 30.667510 1.667510 1.667510 0 360 ellipse cp s
/Courier-latin1 ff 0.800000 scf sf
(Hash) dup sw 2 div 30.667510 ex sub 30.901993 m gs 1 -1 sc sh gr
1.000000 1.000000 1.000000 srgb
n 7.667510 22.667510 1.667510 1.667510 0 360 ellipse f
0.100000 slw
[] 0 sd
[] 0 sd
0 slj
0.000000 0.000000 0.000000 srgb
n 7.667510 22.667510 1.667510 1.667510 0 360 ellipse cp s
/Courier-latin1 ff 0.800000 scf sf
(Head) dup sw 2 div 7.667510 ex sub 22.901993 m gs 1 -1 sc sh gr
1.000000 1.000000 1.000000 srgb
n 56.667510 16.667510 1.667510 1.667510 0 360 ellipse f
0.100000 slw
[] 0 sd
[] 0 sd
0 slj
0.000000 0.000000 0.000000 srgb
n 56.667510 16.667510 1.667510 1.667510 0 360 ellipse cp s
/Courier-latin1 ff 0.800000 scf sf
(Tail) dup sw 2 div 56.667510 ex sub 16.901993 m gs 1 -1 sc sh gr
0.100000 slw
[] 0 sd
[] 0 sd
0 slc
n 16.966400 21.050000 m 18.894670 22.000000 l s
0.100000 slw
[] 0 sd
0 slj
0 slc
n 18.000259 22.005261 m 18.894670 22.000000 l 18.353815 21.287627 l s
1.000000 1.000000 1.000000 srgb
n 12.757600 24.000000 m 12.757600 26.000000 l 17.451200 26.000000 l 17.451200 24.000000 l f
0.100000 slw
[] 0 sd
[] 0 sd
0 slj
0.000000 0.000000 0.000000 srgb
n 12.757600 24.000000 m 12.757600 26.000000 l 17.451200 26.000000 l 17.451200 24.000000 l cp s
/Courier-latin1 ff 0.800000 scf sf
(hash[0]) dup sw 2 div 15.104400 ex sub 25.234483 m gs 1 -1 sc sh gr
1.000000 1.000000 1.000000 srgb
n 24.862929 23.999998 m 24.862929 25.999998 l 29.556529 25.999998 l 29.556529 23.999998 l f
0.100000 slw
[] 0 sd
[] 0 sd
0 slj
0.000000 0.000000 0.000000 srgb
n 24.862929 23.999998 m 24.862929 25.999998 l 29.556529 25.999998 l 29.556529 23.999998 l cp s
/Courier-latin1 ff 0.800000 scf sf
(hash[1]) dup sw 2 div 27.209730 ex sub 25.234481 m gs 1 -1 sc sh gr
1.000000 1.000000 1.000000 srgb
n 36.515200 24.000000 m 36.515200 26.000000 l 41.208800 26.000000 l 41.208800 24.000000 l f
0.100000 slw
[] 0 sd
[] 0 sd
0 slj
0.000000 0.000000 0.000000 srgb
n 36.515200 24.000000 m 36.515200 26.000000 l 41.208800 26.000000 l 41.208800 24.000000 l cp s
/Courier-latin1 ff 0.800000 scf sf
(hash[2]) dup sw 2 div 38.862000 ex sub 25.234483 m gs 1 -1 sc sh gr
1.000000 1.000000 1.000000 srgb
n 48.757600 24.000000 m 48.757600 26.000000 l 53.451200 26.000000 l 53.451200 24.000000 l f
0.100000 slw
[] 0 sd
[] 0 sd
0 slj
0.000000 0.000000 0.000000 srgb
n 48.757600 24.000000 m 48.757600 26.000000 l 53.451200 26.000000 l 53.451200 24.000000 l cp s
/Courier-latin1 ff 0.800000 scf sf
(hash[3]) dup sw 2 div 51.104400 ex sub 25.234483 m gs 1 -1 sc sh gr
0.100000 slw
[] 0 sd
[] 0 sd
0 slc
0 slj
0 slc
0 slj
[] 0 sd
1.000000 1.000000 1.000000 srgb
n 13.631247 12.000000 m 16.577553 12.000000 l 16.984353 12.000000 17.314129 12.359763 17.314129 12.803553 c 17.314129 13.247343 16.984353 13.607106 16.577553 13.607106 c 13.631247 13.607106 l 13.224447 13.607106 12.894671 13.247343 12.894671 12.803553 c 12.894671 12.359763 13.224447 12.000000 13.631247 12.000000 c f
0.000000 0.000000 0.000000 srgb
n 13.631247 12.000000 m 16.577553 12.000000 l 16.984353 12.000000 17.314129 12.359763 17.314129 12.803553 c 17.314129 13.247343 16.984353 13.607106 16.577553 13.607106 c 13.631247 13.607106 l 13.224447 13.607106 12.894671 13.247343 12.894671 12.803553 c 12.894671 12.359763 13.224447 12.000000 13.631247 12.000000 c s
/Courier-latin1 ff 0.800000 scf sf
(null) dup sw 2 div 15.104400 ex sub 13.038036 m gs 1 -1 sc sh gr
0.100000 slw
[] 0 sd
[] 0 sd
0 slc
0 slj
0 slc
0 slj
[] 0 sd
1.000000 1.000000 1.000000 srgb
n 25.736577 16.000000 m 28.682883 16.000000 l 29.089683 16.000000 29.419459 16.359763 29.419459 16.803553 c 29.419459 17.247343 29.089683 17.607106 28.682883 17.607106 c 25.736577 17.607106 l 25.329776 17.607106 25.000000 17.247343 25.000000 16.803553 c 25.000000 16.359763 25.329776 16.000000 25.736577 16.000000 c f
0.000000 0.000000 0.000000 srgb
n 25.736577 16.000000 m 28.682883 16.000000 l 29.089683 16.000000 29.419459 16.359763 29.419459 16.803553 c 29.419459 17.247343 29.089683 17.607106 28.682883 17.607106 c 25.736577 17.607106 l 25.329776 17.607106 25.000000 17.247343 25.000000 16.803553 c 25.000000 16.359763 25.329776 16.000000 25.736577 16.000000 c s
/Courier-latin1 ff 0.800000 scf sf
(null) dup sw 2 div 27.209730 ex sub 17.038036 m gs 1 -1 sc sh gr
0.100000 slw
[] 0 sd
[] 0 sd
0 slc
0 slj
0 slc
0 slj
[] 0 sd
1.000000 1.000000 1.000000 srgb
n 37.388847 16.000002 m 40.335153 16.000002 l 40.741953 16.000002 41.071730 16.359765 41.071730 16.803555 c 41.071730 17.247345 40.741953 17.607108 40.335153 17.607108 c 37.388847 17.607108 l 36.982047 17.607108 36.652271 17.247345 36.652271 16.803555 c 36.652271 16.359765 36.982047 16.000002 37.388847 16.000002 c f
0.000000 0.000000 0.000000 srgb
n 37.388847 16.000002 m 40.335153 16.000002 l 40.741953 16.000002 41.071730 16.359765 41.071730 16.803555 c 41.071730 17.247345 40.741953 17.607108 40.335153 17.607108 c 37.388847 17.607108 l 36.982047 17.607108 36.652271 17.247345 36.652271 16.803555 c 36.652271 16.359765 36.982047 16.000002 37.388847 16.000002 c s
/Courier-latin1 ff 0.800000 scf sf
(null) dup sw 2 div 38.862000 ex sub 17.038038 m gs 1 -1 sc sh gr
0.100000 slw
[] 0 sd
[] 0 sd
0 slc
0 slj
0 slc
0 slj
[] 0 sd
1.000000 1.000000 1.000000 srgb
n 49.631247 20.000002 m 52.577553 20.000002 l 52.984353 20.000002 53.314130 20.359765 53.314130 20.803555 c 53.314130 21.247345 52.984353 21.607108 52.577553 21.607108 c 49.631247 21.607108 l 49.224447 21.607108 48.894671 21.247345 48.894671 20.803555 c 48.894671 20.359765 49.224447 20.000002 49.631247 20.000002 c f
0.000000 0.000000 0.000000 srgb
n 49.631247 20.000002 m 52.577553 20.000002 l 52.984353 20.000002 53.314130 20.359765 53.314130 20.803555 c 53.314130 21.247345 52.984353 21.607108 52.577553 21.607108 c 49.631247 21.607108 l 49.224447 21.607108 48.894671 21.247345 48.894671 20.803555 c 48.894671 20.359765 49.224447 20.000002 49.631247 20.000002 c s
/Courier-latin1 ff 0.800000 scf sf
(null) dup sw 2 div 51.104400 ex sub 21.038038 m gs 1 -1 sc sh gr
0.100000 slw
[] 0 sd
[] 0 sd
0 slc
n 15.104400 16.050000 m 15.104400 13.607106 l s
0.100000 slw
[] 0 sd
0 slj
0 slc
n 15.504400 14.407106 m 15.104400 13.607106 l 14.704400 14.407106 l s
0.100000 slw
[] 0 sd
[] 0 sd
0 slc
n 15.104400 20.050000 m 15.104400 18.050000 l s
0.100000 slw
[] 0 sd
0 slj
0 slc
n 15.504400 18.850000 m 15.104400 18.050000 l 14.704400 18.850000 l s
0.100000 slw
[] 0 sd
[] 0 sd
0 slc
n 15.104400 24.000000 m 15.104400 22.050000 l s
0.100000 slw
[] 0 sd
0 slj
0 slc
n 15.504400 22.850000 m 15.104400 22.050000 l 14.704400 22.850000 l s
0.100000 slw
[] 0 sd
[] 0 sd
0 slc
n 27.209730 23.999998 m 27.209730 21.999998 l s
0.100000 slw
[] 0 sd
0 slj
0 slc
n 27.609730 22.799998 m 27.209730 21.999998 l 26.809730 22.799998 l s
0.100000 slw
[] 0 sd
[] 0 sd
0 slc
n 27.209730 19.999998 m 27.209730 17.607106 l s
0.100000 slw
[] 0 sd
0 slj
0 slc
n 27.609730 18.407106 m 27.209730 17.607106 l 26.809730 18.407106 l s
0.100000 slw
[] 0 sd
[] 0 sd
0 slc
n 38.862000 24.000000 m 38.862000 22.000000 l s
0.100000 slw
[] 0 sd
0 slj
0 slc
n 39.262000 22.800000 m 38.862000 22.000000 l 38.462000 22.800000 l s
0.100000 slw
[] 0 sd
[] 0 sd
0 slc
n 38.862000 20.000000 m 38.862000 17.607108 l s
0.100000 slw
[] 0 sd
0 slj
0 slc
n 39.262000 18.407108 m 38.862000 17.607108 l 38.462000 18.407108 l s
0.100000 slw
[] 0 sd
[] 0 sd
0 slc
n 51.104400 24.000000 m 51.104400 21.607108 l s
0.100000 slw
[] 0 sd
0 slj
0 slc
n 51.504400 22.407108 m 51.104400 21.607108 l 50.704400 22.407108 l s
0.100000 slw
[0.200000] 0 sd
[0.200000] 0 sd
0 slc
n 13.242400 20.050000 m 13.242400 18.050000 l s
0.100000 slw
[] 0 sd
0 slj
0 slc
n 12.842400 19.250000 m 13.242400 20.050000 l 13.642400 19.250000 l s
0.100000 slw
[] 0 sd
0 slj
0 slc
n 13.642400 18.850000 m 13.242400 18.050000 l 12.842400 18.850000 l s
0.100000 slw
[0.200000] 0 sd
[0.200000] 0 sd
0 slc
n 16.966400 18.050000 m 25.347729 19.999998 l s
0.100000 slw
[] 0 sd
0 slj
0 slc
n 17.836232 17.841691 m 16.966400 18.050000 l 17.654946 18.620880 l s
0.100000 slw
[] 0 sd
0 slj
0 slc
n 24.477898 20.208307 m 25.347729 19.999998 l 24.659183 19.429118 l s
0.100000 slw
[0.200000] 0 sd
[0.200000] 0 sd
0 slc
n 29.071730 19.999998 m 37.000000 20.000000 l s
0.100000 slw
[] 0 sd
0 slj
0 slc
n 29.871730 19.599998 m 29.071730 19.999998 l 29.871729 20.399998 l s
0.100000 slw
[] 0 sd
0 slj
0 slc
n 36.200000 20.400000 m 37.000000 20.000000 l 36.200000 19.600000 l s
0.100000 slw
[0.200000] 0 sd
[0.200000] 0 sd
0 slc
n 9.335020 22.667510 m 13.242400 22.050000 l s
0.100000 slw
[] 0 sd
0 slj
0 slc
n 10.062773 22.147534 m 9.335020 22.667510 l 10.187653 22.937727 l s
0.100000 slw
[] 0 sd
0 slj
0 slc
n 12.514647 22.569976 m 13.242400 22.050000 l 12.389767 21.779783 l s
0.100000 slw
[0.200000] 0 sd
[0.200000] 0 sd
0 slc
n 40.724000 20.000000 m 55.000000 16.667510 l s
0.100000 slw
[] 0 sd
0 slj
0 slc
n 41.412127 19.428615 m 40.724000 20.000000 l 41.593984 20.207671 l s
0.100000 slw
[] 0 sd
0 slj
0 slc
n 54.311873 17.238895 m 55.000000 16.667510 l 54.130016 16.459839 l s
0.100000 slw
[] 0 sd
[] 0 sd
0 slc
n 30.667510 29.000000 m 15.104400 26.000000 l s
0.100000 slw
[] 0 sd
0 slj
0 slc
n 15.965650 25.758654 m 15.104400 26.000000 l 15.814227 26.544193 l s
0.100000 slw
[] 0 sd
[] 0 sd
0 slc
n 30.667510 29.000000 m 27.209730 25.999998 l s
0.100000 slw
[] 0 sd
0 slj
0 slc
n 28.076134 26.222133 m 27.209730 25.999998 l 27.551864 26.826402 l s
0.100000 slw
[] 0 sd
[] 0 sd
0 slc
n 30.667510 29.000000 m 38.862000 26.000000 l s
0.100000 slw
[] 0 sd
0 slj
0 slc
n 38.248275 26.650648 m 38.862000 26.000000 l 37.973247 25.899409 l s
0.100000 slw
[] 0 sd
[] 0 sd
0 slc
n 30.667510 29.000000 m 51.104400 26.000000 l s
0.100000 slw
[] 0 sd
0 slj
0 slc
n 50.370977 26.511948 m 51.104400 26.000000 l 50.254788 25.720431 l s
showpage
