%!PS-Adobe-2.0 EPSF-2.0
%%Title: /home/alex/cord/org.cord/docs/linksList-uml.dia
%%Creator: Dia v0.88.1
%%CreationDate: Mon Sep  2 23:08:40 2002
%%For: a user
%%Magnification: 1.0000
%%Orientation: Portrait
%%BoundingBox: 0 0 137 190
%%Pages: 1
%%BeginSetup
%%EndSetup
%%EndComments
%%BeginProlog
[ /.notdef /.notdef /.notdef /.notdef /.notdef /.notdef /.notdef /.notdef /.notdef /.notdef
/.notdef /.notdef /.notdef /.notdef /.notdef /.notdef /.notdef /.notdef /.notdef /.notdef
/.notdef /.notdef /.notdef /.notdef /.notdef /.notdef /.notdef /.notdef /.notdef /.notdef
/.notdef /.notdef /space /exclam /quotedbl /numbersign /dollar /percent /ampersand /quoteright
/parenleft /parenright /asterisk /plus /comma /hyphen /period /slash /zero /one
/two /three /four /five /six /seven /eight /nine /colon /semicolon
/less /equal /greater /question /at /A /B /C /D /E
/F /G /H /I /J /K /L /M /N /O
/P /Q /R /S /T /U /V /W /X /Y
/Z /bracketleft /backslash /bracketright /asciicircum /underscore /quoteleft /a /b /c
/d /e /f /g /h /i /j /k /l /m
/n /o /p /q /r /s /t /u /v /w
/x /y /z /braceleft /bar /braceright /asciitilde /.notdef /.notdef /.notdef
/.notdef /.notdef /.notdef /.notdef /.notdef /.notdef /.notdef /.notdef /.notdef /.notdef
/.notdef /.notdef /.notdef /.notdef /.notdef /.notdef /.notdef /.notdef /.notdef /.notdef
/.notdef /.notdef /.notdef /.notdef /.notdef /.notdef /.notdef /.notdef /.notdef /.notdef
/space /exclamdown /cent /sterling /currency /yen /brokenbar /section /dieresis /copyright
/ordfeminine /guillemotleft /logicalnot /hyphen /registered /macron /degree /plusminus /twosuperior /threesuperior
/acute /mu /paragraph /periodcentered /cedilla /onesuperior /ordmasculine /guillemotright /onequarter /onehalf
/threequarters /questiondown /Agrave /Aacute /Acircumflex /Atilde /Adieresis /Aring /AE /Ccedilla
/Egrave /Eacute /Ecircumflex /Edieresis /Igrave /Iacute /Icircumflex /Idieresis /Eth /Ntilde
/Ograve /Oacute /Ocircumflex /Otilde /Odieresis /multiply /Oslash /Ugrave /Uacute /Ucircumflex
/Udieresis /Yacute /Thorn /germandbls /agrave /aacute /acircumflex /atilde /adieresis /aring
/ae /ccedilla /egrave /eacute /ecircumflex /edieresis /igrave /iacute /icircumflex /idieresis
/eth /ntilde /ograve /oacute /ocircumflex /otilde /odieresis /divide /oslash /ugrave
/uacute /ucircumflex /udieresis /yacute /thorn /ydieresis] /isolatin1encoding exch def
/Times-Roman-latin1
    /Times-Roman findfont
    dup length dict begin
	{1 index /FID ne {def} {pop pop} ifelse} forall
	/Encoding isolatin1encoding def
    currentdict end
definefont pop
/Times-Italic-latin1
    /Times-Italic findfont
    dup length dict begin
	{1 index /FID ne {def} {pop pop} ifelse} forall
	/Encoding isolatin1encoding def
    currentdict end
definefont pop
/Times-Bold-latin1
    /Times-Bold findfont
    dup length dict begin
	{1 index /FID ne {def} {pop pop} ifelse} forall
	/Encoding isolatin1encoding def
    currentdict end
definefont pop
/Times-BoldItalic-latin1
    /Times-BoldItalic findfont
    dup length dict begin
	{1 index /FID ne {def} {pop pop} ifelse} forall
	/Encoding isolatin1encoding def
    currentdict end
definefont pop
/AvantGarde-Book-latin1
    /AvantGarde-Book findfont
    dup length dict begin
	{1 index /FID ne {def} {pop pop} ifelse} forall
	/Encoding isolatin1encoding def
    currentdict end
definefont pop
/AvantGarde-BookOblique-latin1
    /AvantGarde-BookOblique findfont
    dup length dict begin
	{1 index /FID ne {def} {pop pop} ifelse} forall
	/Encoding isolatin1encoding def
    currentdict end
definefont pop
/AvantGarde-Demi-latin1
    /AvantGarde-Demi findfont
    dup length dict begin
	{1 index /FID ne {def} {pop pop} ifelse} forall
	/Encoding isolatin1encoding def
    currentdict end
definefont pop
/AvantGarde-DemiOblique-latin1
    /AvantGarde-DemiOblique findfont
    dup length dict begin
	{1 index /FID ne {def} {pop pop} ifelse} forall
	/Encoding isolatin1encoding def
    currentdict end
definefont pop
/Bookman-Light-latin1
    /Bookman-Light findfont
    dup length dict begin
	{1 index /FID ne {def} {pop pop} ifelse} forall
	/Encoding isolatin1encoding def
    currentdict end
definefont pop
/Bookman-LightItalic-latin1
    /Bookman-LightItalic findfont
    dup length dict begin
	{1 index /FID ne {def} {pop pop} ifelse} forall
	/Encoding isolatin1encoding def
    currentdict end
definefont pop
/Bookman-Demi-latin1
    /Bookman-Demi findfont
    dup length dict begin
	{1 index /FID ne {def} {pop pop} ifelse} forall
	/Encoding isolatin1encoding def
    currentdict end
definefont pop
/Bookman-DemiItalic-latin1
    /Bookman-DemiItalic findfont
    dup length dict begin
	{1 index /FID ne {def} {pop pop} ifelse} forall
	/Encoding isolatin1encoding def
    currentdict end
definefont pop
/Courier-latin1
    /Courier findfont
    dup length dict begin
	{1 index /FID ne {def} {pop pop} ifelse} forall
	/Encoding isolatin1encoding def
    currentdict end
definefont pop
/Courier-Oblique-latin1
    /Courier-Oblique findfont
    dup length dict begin
	{1 index /FID ne {def} {pop pop} ifelse} forall
	/Encoding isolatin1encoding def
    currentdict end
definefont pop
/Courier-Bold-latin1
    /Courier-Bold findfont
    dup length dict begin
	{1 index /FID ne {def} {pop pop} ifelse} forall
	/Encoding isolatin1encoding def
    currentdict end
definefont pop
/Courier-BoldOblique-latin1
    /Courier-BoldOblique findfont
    dup length dict begin
	{1 index /FID ne {def} {pop pop} ifelse} forall
	/Encoding isolatin1encoding def
    currentdict end
definefont pop
/Helvetica-latin1
    /Helvetica findfont
    dup length dict begin
	{1 index /FID ne {def} {pop pop} ifelse} forall
	/Encoding isolatin1encoding def
    currentdict end
definefont pop
/Helvetica-Oblique-latin1
    /Helvetica-Oblique findfont
    dup length dict begin
	{1 index /FID ne {def} {pop pop} ifelse} forall
	/Encoding isolatin1encoding def
    currentdict end
definefont pop
/Helvetica-Bold-latin1
    /Helvetica-Bold findfont
    dup length dict begin
	{1 index /FID ne {def} {pop pop} ifelse} forall
	/Encoding isolatin1encoding def
    currentdict end
definefont pop
/Helvetica-BoldOblique-latin1
    /Helvetica-BoldOblique findfont
    dup length dict begin
	{1 index /FID ne {def} {pop pop} ifelse} forall
	/Encoding isolatin1encoding def
    currentdict end
definefont pop
/Helvetica-Narrow-latin1
    /Helvetica-Narrow findfont
    dup length dict begin
	{1 index /FID ne {def} {pop pop} ifelse} forall
	/Encoding isolatin1encoding def
    currentdict end
definefont pop
/Helvetica-Narrow-Oblique-latin1
    /Helvetica-Narrow-Oblique findfont
    dup length dict begin
	{1 index /FID ne {def} {pop pop} ifelse} forall
	/Encoding isolatin1encoding def
    currentdict end
definefont pop
/Helvetica-Narrow-Bold-latin1
    /Helvetica-Narrow-Bold findfont
    dup length dict begin
	{1 index /FID ne {def} {pop pop} ifelse} forall
	/Encoding isolatin1encoding def
    currentdict end
definefont pop
/Helvetica-Narrow-BoldOblique-latin1
    /Helvetica-Narrow-BoldOblique findfont
    dup length dict begin
	{1 index /FID ne {def} {pop pop} ifelse} forall
	/Encoding isolatin1encoding def
    currentdict end
definefont pop
/NewCenturySchoolbook-Roman-latin1
    /NewCenturySchoolbook-Roman findfont
    dup length dict begin
	{1 index /FID ne {def} {pop pop} ifelse} forall
	/Encoding isolatin1encoding def
    currentdict end
definefont pop
/NewCenturySchoolbook-Italic-latin1
    /NewCenturySchoolbook-Italic findfont
    dup length dict begin
	{1 index /FID ne {def} {pop pop} ifelse} forall
	/Encoding isolatin1encoding def
    currentdict end
definefont pop
/NewCenturySchoolbook-Bold-latin1
    /NewCenturySchoolbook-Bold findfont
    dup length dict begin
	{1 index /FID ne {def} {pop pop} ifelse} forall
	/Encoding isolatin1encoding def
    currentdict end
definefont pop
/NewCenturySchoolbook-BoldItalic-latin1
    /NewCenturySchoolbook-BoldItalic findfont
    dup length dict begin
	{1 index /FID ne {def} {pop pop} ifelse} forall
	/Encoding isolatin1encoding def
    currentdict end
definefont pop
/Palatino-Roman-latin1
    /Palatino-Roman findfont
    dup length dict begin
	{1 index /FID ne {def} {pop pop} ifelse} forall
	/Encoding isolatin1encoding def
    currentdict end
definefont pop
/Palatino-Italic-latin1
    /Palatino-Italic findfont
    dup length dict begin
	{1 index /FID ne {def} {pop pop} ifelse} forall
	/Encoding isolatin1encoding def
    currentdict end
definefont pop
/Palatino-Bold-latin1
    /Palatino-Bold findfont
    dup length dict begin
	{1 index /FID ne {def} {pop pop} ifelse} forall
	/Encoding isolatin1encoding def
    currentdict end
definefont pop
/Palatino-BoldItalic-latin1
    /Palatino-BoldItalic findfont
    dup length dict begin
	{1 index /FID ne {def} {pop pop} ifelse} forall
	/Encoding isolatin1encoding def
    currentdict end
definefont pop
/Symbol-latin1
    /Symbol findfont
definefont pop
/ZapfChancery-MediumItalic-latin1
    /ZapfChancery-MediumItalic findfont
    dup length dict begin
	{1 index /FID ne {def} {pop pop} ifelse} forall
	/Encoding isolatin1encoding def
    currentdict end
definefont pop
/ZapfDingbats-latin1
    /ZapfDingbats findfont
definefont pop
/Ryumin-Light-EUC-H-latin1
    /Ryumin-Light-EUC-H findfont
definefont pop
/GothicBBB-Medium-EUC-H-latin1
    /GothicBBB-Medium-EUC-H findfont
definefont pop
/cp {closepath} bind def
/c {curveto} bind def
/f {fill} bind def
/a {arc} bind def
/ef {eofill} bind def
/ex {exch} bind def
/gr {grestore} bind def
/gs {gsave} bind def
/sa {save} bind def
/rs {restore} bind def
/l {lineto} bind def
/m {moveto} bind def
/rm {rmoveto} bind def
/n {newpath} bind def
/s {stroke} bind def
/sh {show} bind def
/slc {setlinecap} bind def
/slj {setlinejoin} bind def
/slw {setlinewidth} bind def
/srgb {setrgbcolor} bind def
/rot {rotate} bind def
/sc {scale} bind def
/sd {setdash} bind def
/ff {findfont} bind def
/sf {setfont} bind def
/scf {scalefont} bind def
/sw {stringwidth pop} bind def
/tr {translate} bind def

/ellipsedict 8 dict def
ellipsedict /mtrx matrix put
/ellipse
{ ellipsedict begin
   /endangle exch def
   /startangle exch def
   /yrad exch def
   /xrad exch def
   /y exch def
   /x exch def   /savematrix mtrx currentmatrix def
   x y tr xrad yrad sc
   0 0 1 startangle endangle arc
   savematrix setmatrix
   end
} def

/mergeprocs {
dup length
3 -1 roll
dup
length
dup
5 1 roll
3 -1 roll
add
array cvx
dup
3 -1 roll
0 exch
putinterval
dup
4 2 roll
putinterval
} bind def
7.086500 -7.086500 scale
-6.950000 -21.700000 translate
%%EndProlog


0.100000 slw
[] 0 sd
1.000000 1.000000 1.000000 srgb
n 11.242400 5.000000 m 11.242400 6.400000 l 24.162400 6.400000 l 24.162400 5.000000 l f
0.000000 0.000000 0.000000 srgb
n 11.242400 5.000000 m 11.242400 6.400000 l 24.162400 6.400000 l 24.162400 5.000000 l cp s
/Helvetica-Bold-latin1 ff 1.000000 scf sf
(LinksListInstance) dup sw 2 div 17.702400 ex sub 6.000000 m gs 1 -1 sc sh gr
1.000000 1.000000 1.000000 srgb
n 11.242400 6.400000 m 11.242400 9.800000 l 24.162400 9.800000 l 24.162400 6.400000 l f
0.000000 0.000000 0.000000 srgb
n 11.242400 6.400000 m 11.242400 9.800000 l 24.162400 9.800000 l 24.162400 6.400000 l cp s
/Courier-latin1 ff 0.800000 scf sf
(+nodeRegion_id: INT) 11.392400 7.134483 m gs 1 -1 sc sh gr
/Courier-latin1 ff 0.800000 scf sf
(+style_id: INT) 11.392400 7.934483 m gs 1 -1 sc sh gr
/Courier-latin1 ff 0.800000 scf sf
(+isDefined: BOOLEAN) 11.392400 8.734483 m gs 1 -1 sc sh gr
/Courier-latin1 ff 0.800000 scf sf
(+slug: CHAR\(255\)) 11.392400 9.534483 m gs 1 -1 sc sh gr
1.000000 1.000000 1.000000 srgb
n 11.242400 9.800000 m 11.242400 12.400000 l 24.162400 12.400000 l 24.162400 9.800000 l f
0.000000 0.000000 0.000000 srgb
n 11.242400 9.800000 m 11.242400 12.400000 l 24.162400 12.400000 l 24.162400 9.800000 l cp s
/Courier-latin1 ff 0.800000 scf sf
(+links\(\): LinksListLink) 11.392400 10.534483 m gs 1 -1 sc sh gr
/Courier-latin1 ff 0.800000 scf sf
(+nodeRegion\(\): NodeRegion) 11.392400 11.334483 m gs 1 -1 sc sh gr
/Courier-latin1 ff 0.800000 scf sf
(+style\(\): LinksListStyle) 11.392400 12.134483 m gs 1 -1 sc sh gr
0.100000 slw
[] 0 sd
1.000000 1.000000 1.000000 srgb
n 9.788000 14.000000 m 9.788000 15.400000 l 26.101600 15.400000 l 26.101600 14.000000 l f
0.000000 0.000000 0.000000 srgb
n 9.788000 14.000000 m 9.788000 15.400000 l 26.101600 15.400000 l 26.101600 14.000000 l cp s
/Helvetica-Bold-latin1 ff 1.000000 scf sf
(LinksListStyle) dup sw 2 div 17.944800 ex sub 15.000000 m gs 1 -1 sc sh gr
1.000000 1.000000 1.000000 srgb
n 9.788000 15.400000 m 9.788000 20.400000 l 26.101600 20.400000 l 26.101600 15.400000 l f
0.000000 0.000000 0.000000 srgb
n 9.788000 15.400000 m 9.788000 20.400000 l 26.101600 20.400000 l 26.101600 15.400000 l cp s
/Courier-latin1 ff 0.800000 scf sf
(+name: CHAR\(255\)) 9.938000 16.134483 m gs 1 -1 sc sh gr
/Courier-latin1 ff 0.800000 scf sf
(+title: CHAR\(255\)) 9.938000 16.934483 m gs 1 -1 sc sh gr
/Courier-latin1 ff 0.800000 scf sf
(+isOptional: BOOLEAN) 9.938000 17.734483 m gs 1 -1 sc sh gr
/Courier-latin1 ff 0.800000 scf sf
(+isDefined: BOOLEAN) 9.938000 18.534483 m gs 1 -1 sc sh gr
/Courier-latin1 ff 0.800000 scf sf
(+cssStyle: CHAR\(255\)) 9.938000 19.334483 m gs 1 -1 sc sh gr
/Courier-latin1 ff 0.800000 scf sf
(+remoteLinksInNewWindow: BOOLEAN) 9.938000 20.134483 m gs 1 -1 sc sh gr
1.000000 1.000000 1.000000 srgb
n 9.788000 20.400000 m 9.788000 21.400000 l 26.101600 21.400000 l 26.101600 20.400000 l f
0.000000 0.000000 0.000000 srgb
n 9.788000 20.400000 m 9.788000 21.400000 l 26.101600 21.400000 l 26.101600 20.400000 l cp s
/Courier-latin1 ff 0.800000 scf sf
(+instances\(\): LinksListInstance) 9.938000 21.134483 m gs 1 -1 sc sh gr
0.100000 slw
[] 0 sd
1.000000 1.000000 1.000000 srgb
n 10.030400 -5.000000 m 10.030400 -3.600000 l 25.374400 -3.600000 l 25.374400 -5.000000 l f
0.000000 0.000000 0.000000 srgb
n 10.030400 -5.000000 m 10.030400 -3.600000 l 25.374400 -3.600000 l 25.374400 -5.000000 l cp s
/Helvetica-Bold-latin1 ff 1.000000 scf sf
(LinksListLink) dup sw 2 div 17.702400 ex sub -4.000000 m gs 1 -1 sc sh gr
1.000000 1.000000 1.000000 srgb
n 10.030400 -3.600000 m 10.030400 3.000000 l 25.374400 3.000000 l 25.374400 -3.600000 l f
0.000000 0.000000 0.000000 srgb
n 10.030400 -3.600000 m 10.030400 3.000000 l 25.374400 3.000000 l 25.374400 -3.600000 l cp s
/Courier-latin1 ff 0.800000 scf sf
(+instance_id: INT) 10.180400 -2.865517 m gs 1 -1 sc sh gr
/Courier-latin1 ff 0.800000 scf sf
(+target: CHAR\(255\)) 10.180400 -2.065517 m gs 1 -1 sc sh gr
/Courier-latin1 ff 0.800000 scf sf
(+body: CHAR\(255\)) 10.180400 -1.265517 m gs 1 -1 sc sh gr
/Courier-latin1 ff 0.800000 scf sf
(+slug: CHAR\(255\)) 10.180400 -0.465517 m gs 1 -1 sc sh gr
/Courier-latin1 ff 0.800000 scf sf
(+order: INT) 10.180400 0.334483 m gs 1 -1 sc sh gr
/Courier-latin1 ff 0.800000 scf sf
(+isLocal: BOOLEAN) 10.180400 1.134483 m gs 1 -1 sc sh gr
/Courier-latin1 ff 0.800000 scf sf
(+isValid: BOOLEAN) 10.180400 1.934483 m gs 1 -1 sc sh gr
/Courier-latin1 ff 0.800000 scf sf
(+compiledLink: CHAR\(255\)) 10.180400 2.734483 m gs 1 -1 sc sh gr
1.000000 1.000000 1.000000 srgb
n 10.030400 3.000000 m 10.030400 4.000000 l 25.374400 4.000000 l 25.374400 3.000000 l f
0.000000 0.000000 0.000000 srgb
n 10.030400 3.000000 m 10.030400 4.000000 l 25.374400 4.000000 l 25.374400 3.000000 l cp s
/Courier-latin1 ff 0.800000 scf sf
(+instance\(\): LinksListInstance) 10.180400 3.734483 m gs 1 -1 sc sh gr
0.100000 slw
[] 0 sd
0 slj
0 slc
n 10.030400 3.500000 m 7.000000 3.500000 l 7.000000 10.300000 l 11.242400 10.300000 l s
[] 0 sd
0 slj
0 slc
1.000000 1.000000 1.000000 srgb
n 11.242400 10.300000 m 10.542400 10.540000 l 9.842400 10.300000 l 10.542400 10.060000 l f
0.100000 slw
[] 0 sd
0 slj
0 slc
0.000000 0.000000 0.000000 srgb
n 11.242400 10.300000 m 10.542400 10.540000 l 9.842400 10.300000 l 10.542400 10.060000 l cp s
/Courier-latin1 ff 0.800000 scf sf
0.100000 slw
[] 0 sd
0 slj
0 slc
n 9.788000 20.900000 m 7.000000 20.900000 l 7.000000 11.900000 l 11.242400 11.900000 l s
[] 0 sd
0 slj
0 slc
1.000000 1.000000 1.000000 srgb
n 11.242400 11.900000 m 10.542400 12.140000 l 9.842400 11.900000 l 10.542400 11.660000 l f
0.100000 slw
[] 0 sd
0 slj
0 slc
0.000000 0.000000 0.000000 srgb
n 11.242400 11.900000 m 10.542400 12.140000 l 9.842400 11.900000 l 10.542400 11.660000 l cp s
/Courier-latin1 ff 0.800000 scf sf
showpage
