%!PS-Adobe-2.0 EPSF-2.0
%%Title: linkOverview.eps
%%Creator: fig2dev Version 3.2 Patchlevel 3c
%%CreationDate: Sat Oct  6 13:49:14 2001
%%For: alex@interzone (Alex Twisleton-Wykeham-Fiennes)
%%BoundingBox: 0 0 215 139
%%Magnification: 1.0000
%%EndComments
/$F2psDict 200 dict def
$F2psDict begin
$F2psDict /mtrx matrix put
/col-1 {0 setgray} bind def
/col0 {0.000 0.000 0.000 srgb} bind def
/col1 {0.000 0.000 1.000 srgb} bind def
/col2 {0.000 1.000 0.000 srgb} bind def
/col3 {0.000 1.000 1.000 srgb} bind def
/col4 {1.000 0.000 0.000 srgb} bind def
/col5 {1.000 0.000 1.000 srgb} bind def
/col6 {1.000 1.000 0.000 srgb} bind def
/col7 {1.000 1.000 1.000 srgb} bind def
/col8 {0.000 0.000 0.560 srgb} bind def
/col9 {0.000 0.000 0.690 srgb} bind def
/col10 {0.000 0.000 0.820 srgb} bind def
/col11 {0.530 0.810 1.000 srgb} bind def
/col12 {0.000 0.560 0.000 srgb} bind def
/col13 {0.000 0.690 0.000 srgb} bind def
/col14 {0.000 0.820 0.000 srgb} bind def
/col15 {0.000 0.560 0.560 srgb} bind def
/col16 {0.000 0.690 0.690 srgb} bind def
/col17 {0.000 0.820 0.820 srgb} bind def
/col18 {0.560 0.000 0.000 srgb} bind def
/col19 {0.690 0.000 0.000 srgb} bind def
/col20 {0.820 0.000 0.000 srgb} bind def
/col21 {0.560 0.000 0.560 srgb} bind def
/col22 {0.690 0.000 0.690 srgb} bind def
/col23 {0.820 0.000 0.820 srgb} bind def
/col24 {0.500 0.190 0.000 srgb} bind def
/col25 {0.630 0.250 0.000 srgb} bind def
/col26 {0.750 0.380 0.000 srgb} bind def
/col27 {1.000 0.500 0.500 srgb} bind def
/col28 {1.000 0.630 0.630 srgb} bind def
/col29 {1.000 0.750 0.750 srgb} bind def
/col30 {1.000 0.880 0.880 srgb} bind def
/col31 {1.000 0.840 0.000 srgb} bind def

end
save
newpath 0 139 moveto 0 0 lineto 215 0 lineto 215 139 lineto closepath clip newpath
-146.0 305.0 translate
1 -1 scale

/cp {closepath} bind def
/ef {eofill} bind def
/gr {grestore} bind def
/gs {gsave} bind def
/sa {save} bind def
/rs {restore} bind def
/l {lineto} bind def
/m {moveto} bind def
/rm {rmoveto} bind def
/n {newpath} bind def
/s {stroke} bind def
/sh {show} bind def
/slc {setlinecap} bind def
/slj {setlinejoin} bind def
/slw {setlinewidth} bind def
/srgb {setrgbcolor} bind def
/rot {rotate} bind def
/sc {scale} bind def
/sd {setdash} bind def
/ff {findfont} bind def
/sf {setfont} bind def
/scf {scalefont} bind def
/sw {stringwidth} bind def
/tr {translate} bind def
/tnt {dup dup currentrgbcolor
  4 -2 roll dup 1 exch sub 3 -1 roll mul add
  4 -2 roll dup 1 exch sub 3 -1 roll mul add
  4 -2 roll dup 1 exch sub 3 -1 roll mul add srgb}
  bind def
/shd {dup dup currentrgbcolor 4 -2 roll mul 4 -2 roll mul
  4 -2 roll mul srgb} bind def
 /DrawEllipse {
	/endangle exch def
	/startangle exch def
	/yrad exch def
	/xrad exch def
	/y exch def
	/x exch def
	/savematrix mtrx currentmatrix def
	x y tr xrad yrad sc 0 0 1 startangle endangle arc
	closepath
	savematrix setmatrix
	} def

/$F2psBegin {$F2psDict begin /$F2psEnteredState save def} def
/$F2psEnd {$F2psEnteredState restore end} def

$F2psBegin
%%Page: 1 1
10 setmiterlimit
 0.06299 0.06299 sc
%
% Fig objects follow
%
7.500 slw
% Ellipse
n 3600 2970 90 90 0 360 DrawEllipse gs col0 s gr

% Ellipse
n 3600 3240 90 90 0 360 DrawEllipse gs col0 s gr

% Ellipse
n 3600 3510 90 90 0 360 DrawEllipse gs col0 s gr

% Ellipse
n 4500 3240 90 90 0 360 DrawEllipse gs col0 s gr

% Polyline
n 3420 2790 m 3780 2790 l 3780 3690 l 3420 3690 l
 cp gs col0 s gr 
% Polyline
gs  clippath
4327 3182 m 4341 3124 l 4194 3087 l 4304 3146 l 4180 3146 l cp
eoclip
n 3600 2970 m
 4320 3150 l gs col0 s gr gr

% arrowhead
n 4180 3146 m 4304 3146 l 4194 3087 l  col0 s
% Polyline
gs  clippath
4335 3270 m 4335 3210 l 4183 3210 l 4303 3240 l 4183 3270 l cp
eoclip
n 3600 3240 m
 4320 3240 l gs col0 s gr gr

% arrowhead
n 4183 3270 m 4303 3240 l 4183 3210 l  col0 s
% Polyline
gs  clippath
4341 3355 m 4327 3297 l 4180 3334 l 4304 3334 l 4194 3392 l cp
eoclip
n 3600 3510 m
 4320 3330 l gs col0 s gr gr

% arrowhead
n 4194 3392 m 4304 3334 l 4180 3334 l  col0 s
% Polyline
n 4320 3060 m 4680 3060 l 4680 3420 l 4320 3420 l
 cp gs col0 s gr 
% Polyline
n 2340 2655 m 5715 2655 l 5715 4815 l 2340 4815 l
 cp gs col0 s gr 
/Times-Roman ff 180.00 scf sf
3510 3780 m
gs 1 -1 sc  270.0 rot (Source Table) col0 sh gr
/Times-Roman ff 180.00 scf sf
4410 3510 m
gs 1 -1 sc  270.0 rot (Target Table) col0 sh gr
/Times-Roman ff 180.00 scf sf
3330 3330 m
gs 1 -1 sc (Source Field) dup sw pop neg 0 rm  col0 sh gr
/Times-Roman ff 180.00 scf sf
4770 3330 m
gs 1 -1 sc (Target Field) col0 sh gr
$F2psEnd
rs
