#FIG 3.2
Landscape
Center
Metric
A4      
100.00
Single
-2
1200 2
1 3 0 1 0 7 50 0 -1 0.000 1 0.0000 3600 2970 90 90 3600 2970 3600 2880
1 3 0 1 0 7 50 0 -1 0.000 1 0.0000 3600 3240 90 90 3600 3240 3600 3150
1 3 0 1 0 7 50 0 -1 0.000 1 0.0000 3600 3510 90 90 3600 3510 3600 3420
1 3 0 1 0 7 50 0 -1 0.000 1 0.0000 4500 3240 90 90 4500 3240 4500 3150
2 2 0 1 0 7 50 0 -1 0.000 0 0 -1 0 0 5
	 3420 2790 3780 2790 3780 3690 3420 3690 3420 2790
2 1 0 1 0 7 50 0 -1 4.000 0 0 -1 1 0 2
	0 0 1.00 60.00 120.00
	 3600 2970 4320 3150
2 1 0 1 0 7 50 0 -1 4.000 0 0 -1 1 0 2
	0 0 1.00 60.00 120.00
	 3600 3240 4320 3240
2 1 0 1 0 7 50 0 -1 4.000 0 0 -1 1 0 2
	0 0 1.00 60.00 120.00
	 3600 3510 4320 3330
2 2 0 1 0 7 50 0 -1 4.000 0 0 -1 0 0 5
	 4320 3060 4680 3060 4680 3420 4320 3420 4320 3060
2 2 0 1 0 7 50 0 -1 0.000 0 0 -1 0 0 5
	 2340 2655 5715 2655 5715 4815 2340 4815 2340 2655
4 0 0 50 0 0 12 4.7124 4 105 780 3510 3780 Source Table\001
4 0 0 50 0 0 12 4.7124 4 135 780 4410 3510 Target Table\001
4 2 0 50 0 0 12 0.0000 4 105 765 3330 3330 Source Field\001
4 0 0 50 0 0 12 0.0000 4 135 765 4770 3330 Target Field\001
