%!PS-Adobe-2.0 EPSF-2.0
%%Title: /home/alex/cord/org.cord/docs/NestedIteratorFlattener-graph.dia
%%Creator: Dia v0.88.1
%%CreationDate: Sun Jul 28 13:48:19 2002
%%For: a user
%%Magnification: 1.0000
%%Orientation: Portrait
%%BoundingBox: 0 0 151 130
%%Pages: 1
%%BeginSetup
%%EndSetup
%%EndComments
%%BeginProlog
[ /.notdef /.notdef /.notdef /.notdef /.notdef /.notdef /.notdef /.notdef /.notdef /.notdef
/.notdef /.notdef /.notdef /.notdef /.notdef /.notdef /.notdef /.notdef /.notdef /.notdef
/.notdef /.notdef /.notdef /.notdef /.notdef /.notdef /.notdef /.notdef /.notdef /.notdef
/.notdef /.notdef /space /exclam /quotedbl /numbersign /dollar /percent /ampersand /quoteright
/parenleft /parenright /asterisk /plus /comma /hyphen /period /slash /zero /one
/two /three /four /five /six /seven /eight /nine /colon /semicolon
/less /equal /greater /question /at /A /B /C /D /E
/F /G /H /I /J /K /L /M /N /O
/P /Q /R /S /T /U /V /W /X /Y
/Z /bracketleft /backslash /bracketright /asciicircum /underscore /quoteleft /a /b /c
/d /e /f /g /h /i /j /k /l /m
/n /o /p /q /r /s /t /u /v /w
/x /y /z /braceleft /bar /braceright /asciitilde /.notdef /.notdef /.notdef
/.notdef /.notdef /.notdef /.notdef /.notdef /.notdef /.notdef /.notdef /.notdef /.notdef
/.notdef /.notdef /.notdef /.notdef /.notdef /.notdef /.notdef /.notdef /.notdef /.notdef
/.notdef /.notdef /.notdef /.notdef /.notdef /.notdef /.notdef /.notdef /.notdef /.notdef
/space /exclamdown /cent /sterling /currency /yen /brokenbar /section /dieresis /copyright
/ordfeminine /guillemotleft /logicalnot /hyphen /registered /macron /degree /plusminus /twosuperior /threesuperior
/acute /mu /paragraph /periodcentered /cedilla /onesuperior /ordmasculine /guillemotright /onequarter /onehalf
/threequarters /questiondown /Agrave /Aacute /Acircumflex /Atilde /Adieresis /Aring /AE /Ccedilla
/Egrave /Eacute /Ecircumflex /Edieresis /Igrave /Iacute /Icircumflex /Idieresis /Eth /Ntilde
/Ograve /Oacute /Ocircumflex /Otilde /Odieresis /multiply /Oslash /Ugrave /Uacute /Ucircumflex
/Udieresis /Yacute /Thorn /germandbls /agrave /aacute /acircumflex /atilde /adieresis /aring
/ae /ccedilla /egrave /eacute /ecircumflex /edieresis /igrave /iacute /icircumflex /idieresis
/eth /ntilde /ograve /oacute /ocircumflex /otilde /odieresis /divide /oslash /ugrave
/uacute /ucircumflex /udieresis /yacute /thorn /ydieresis] /isolatin1encoding exch def
/Times-Roman-latin1
    /Times-Roman findfont
    dup length dict begin
	{1 index /FID ne {def} {pop pop} ifelse} forall
	/Encoding isolatin1encoding def
    currentdict end
definefont pop
/Times-Italic-latin1
    /Times-Italic findfont
    dup length dict begin
	{1 index /FID ne {def} {pop pop} ifelse} forall
	/Encoding isolatin1encoding def
    currentdict end
definefont pop
/Times-Bold-latin1
    /Times-Bold findfont
    dup length dict begin
	{1 index /FID ne {def} {pop pop} ifelse} forall
	/Encoding isolatin1encoding def
    currentdict end
definefont pop
/Times-BoldItalic-latin1
    /Times-BoldItalic findfont
    dup length dict begin
	{1 index /FID ne {def} {pop pop} ifelse} forall
	/Encoding isolatin1encoding def
    currentdict end
definefont pop
/AvantGarde-Book-latin1
    /AvantGarde-Book findfont
    dup length dict begin
	{1 index /FID ne {def} {pop pop} ifelse} forall
	/Encoding isolatin1encoding def
    currentdict end
definefont pop
/AvantGarde-BookOblique-latin1
    /AvantGarde-BookOblique findfont
    dup length dict begin
	{1 index /FID ne {def} {pop pop} ifelse} forall
	/Encoding isolatin1encoding def
    currentdict end
definefont pop
/AvantGarde-Demi-latin1
    /AvantGarde-Demi findfont
    dup length dict begin
	{1 index /FID ne {def} {pop pop} ifelse} forall
	/Encoding isolatin1encoding def
    currentdict end
definefont pop
/AvantGarde-DemiOblique-latin1
    /AvantGarde-DemiOblique findfont
    dup length dict begin
	{1 index /FID ne {def} {pop pop} ifelse} forall
	/Encoding isolatin1encoding def
    currentdict end
definefont pop
/Bookman-Light-latin1
    /Bookman-Light findfont
    dup length dict begin
	{1 index /FID ne {def} {pop pop} ifelse} forall
	/Encoding isolatin1encoding def
    currentdict end
definefont pop
/Bookman-LightItalic-latin1
    /Bookman-LightItalic findfont
    dup length dict begin
	{1 index /FID ne {def} {pop pop} ifelse} forall
	/Encoding isolatin1encoding def
    currentdict end
definefont pop
/Bookman-Demi-latin1
    /Bookman-Demi findfont
    dup length dict begin
	{1 index /FID ne {def} {pop pop} ifelse} forall
	/Encoding isolatin1encoding def
    currentdict end
definefont pop
/Bookman-DemiItalic-latin1
    /Bookman-DemiItalic findfont
    dup length dict begin
	{1 index /FID ne {def} {pop pop} ifelse} forall
	/Encoding isolatin1encoding def
    currentdict end
definefont pop
/Courier-latin1
    /Courier findfont
    dup length dict begin
	{1 index /FID ne {def} {pop pop} ifelse} forall
	/Encoding isolatin1encoding def
    currentdict end
definefont pop
/Courier-Oblique-latin1
    /Courier-Oblique findfont
    dup length dict begin
	{1 index /FID ne {def} {pop pop} ifelse} forall
	/Encoding isolatin1encoding def
    currentdict end
definefont pop
/Courier-Bold-latin1
    /Courier-Bold findfont
    dup length dict begin
	{1 index /FID ne {def} {pop pop} ifelse} forall
	/Encoding isolatin1encoding def
    currentdict end
definefont pop
/Courier-BoldOblique-latin1
    /Courier-BoldOblique findfont
    dup length dict begin
	{1 index /FID ne {def} {pop pop} ifelse} forall
	/Encoding isolatin1encoding def
    currentdict end
definefont pop
/Helvetica-latin1
    /Helvetica findfont
    dup length dict begin
	{1 index /FID ne {def} {pop pop} ifelse} forall
	/Encoding isolatin1encoding def
    currentdict end
definefont pop
/Helvetica-Oblique-latin1
    /Helvetica-Oblique findfont
    dup length dict begin
	{1 index /FID ne {def} {pop pop} ifelse} forall
	/Encoding isolatin1encoding def
    currentdict end
definefont pop
/Helvetica-Bold-latin1
    /Helvetica-Bold findfont
    dup length dict begin
	{1 index /FID ne {def} {pop pop} ifelse} forall
	/Encoding isolatin1encoding def
    currentdict end
definefont pop
/Helvetica-BoldOblique-latin1
    /Helvetica-BoldOblique findfont
    dup length dict begin
	{1 index /FID ne {def} {pop pop} ifelse} forall
	/Encoding isolatin1encoding def
    currentdict end
definefont pop
/Helvetica-Narrow-latin1
    /Helvetica-Narrow findfont
    dup length dict begin
	{1 index /FID ne {def} {pop pop} ifelse} forall
	/Encoding isolatin1encoding def
    currentdict end
definefont pop
/Helvetica-Narrow-Oblique-latin1
    /Helvetica-Narrow-Oblique findfont
    dup length dict begin
	{1 index /FID ne {def} {pop pop} ifelse} forall
	/Encoding isolatin1encoding def
    currentdict end
definefont pop
/Helvetica-Narrow-Bold-latin1
    /Helvetica-Narrow-Bold findfont
    dup length dict begin
	{1 index /FID ne {def} {pop pop} ifelse} forall
	/Encoding isolatin1encoding def
    currentdict end
definefont pop
/Helvetica-Narrow-BoldOblique-latin1
    /Helvetica-Narrow-BoldOblique findfont
    dup length dict begin
	{1 index /FID ne {def} {pop pop} ifelse} forall
	/Encoding isolatin1encoding def
    currentdict end
definefont pop
/NewCenturySchoolbook-Roman-latin1
    /NewCenturySchoolbook-Roman findfont
    dup length dict begin
	{1 index /FID ne {def} {pop pop} ifelse} forall
	/Encoding isolatin1encoding def
    currentdict end
definefont pop
/NewCenturySchoolbook-Italic-latin1
    /NewCenturySchoolbook-Italic findfont
    dup length dict begin
	{1 index /FID ne {def} {pop pop} ifelse} forall
	/Encoding isolatin1encoding def
    currentdict end
definefont pop
/NewCenturySchoolbook-Bold-latin1
    /NewCenturySchoolbook-Bold findfont
    dup length dict begin
	{1 index /FID ne {def} {pop pop} ifelse} forall
	/Encoding isolatin1encoding def
    currentdict end
definefont pop
/NewCenturySchoolbook-BoldItalic-latin1
    /NewCenturySchoolbook-BoldItalic findfont
    dup length dict begin
	{1 index /FID ne {def} {pop pop} ifelse} forall
	/Encoding isolatin1encoding def
    currentdict end
definefont pop
/Palatino-Roman-latin1
    /Palatino-Roman findfont
    dup length dict begin
	{1 index /FID ne {def} {pop pop} ifelse} forall
	/Encoding isolatin1encoding def
    currentdict end
definefont pop
/Palatino-Italic-latin1
    /Palatino-Italic findfont
    dup length dict begin
	{1 index /FID ne {def} {pop pop} ifelse} forall
	/Encoding isolatin1encoding def
    currentdict end
definefont pop
/Palatino-Bold-latin1
    /Palatino-Bold findfont
    dup length dict begin
	{1 index /FID ne {def} {pop pop} ifelse} forall
	/Encoding isolatin1encoding def
    currentdict end
definefont pop
/Palatino-BoldItalic-latin1
    /Palatino-BoldItalic findfont
    dup length dict begin
	{1 index /FID ne {def} {pop pop} ifelse} forall
	/Encoding isolatin1encoding def
    currentdict end
definefont pop
/Symbol-latin1
    /Symbol findfont
definefont pop
/ZapfChancery-MediumItalic-latin1
    /ZapfChancery-MediumItalic findfont
    dup length dict begin
	{1 index /FID ne {def} {pop pop} ifelse} forall
	/Encoding isolatin1encoding def
    currentdict end
definefont pop
/ZapfDingbats-latin1
    /ZapfDingbats findfont
definefont pop
/Ryumin-Light-EUC-H-latin1
    /Ryumin-Light-EUC-H findfont
definefont pop
/GothicBBB-Medium-EUC-H-latin1
    /GothicBBB-Medium-EUC-H findfont
definefont pop
/cp {closepath} bind def
/c {curveto} bind def
/f {fill} bind def
/a {arc} bind def
/ef {eofill} bind def
/ex {exch} bind def
/gr {grestore} bind def
/gs {gsave} bind def
/sa {save} bind def
/rs {restore} bind def
/l {lineto} bind def
/m {moveto} bind def
/rm {rmoveto} bind def
/n {newpath} bind def
/s {stroke} bind def
/sh {show} bind def
/slc {setlinecap} bind def
/slj {setlinejoin} bind def
/slw {setlinewidth} bind def
/srgb {setrgbcolor} bind def
/rot {rotate} bind def
/sc {scale} bind def
/sd {setdash} bind def
/ff {findfont} bind def
/sf {setfont} bind def
/scf {scalefont} bind def
/sw {stringwidth pop} bind def
/tr {translate} bind def

/ellipsedict 8 dict def
ellipsedict /mtrx matrix put
/ellipse
{ ellipsedict begin
   /endangle exch def
   /startangle exch def
   /yrad exch def
   /xrad exch def
   /y exch def
   /x exch def   /savematrix mtrx currentmatrix def
   x y tr xrad yrad sc
   0 0 1 startangle endangle arc
   savematrix setmatrix
   end
} def

/mergeprocs {
dup length
3 -1 roll
dup
length
dup
5 1 roll
3 -1 roll
add
array cvx
dup
3 -1 roll
0 exch
putinterval
dup
4 2 roll
putinterval
} bind def
7.086500 -7.086500 scale
-2.950000 -24.209505 translate
%%EndProlog


1.000000 1.000000 1.000000 srgb
n 11.441200 6.000000 m 11.441200 8.000000 l 18.558800 8.000000 l 18.558800 6.000000 l f
0.100000 slw
[] 0 sd
[] 0 sd
0 slj
0.000000 0.000000 0.000000 srgb
n 11.441200 6.000000 m 11.441200 8.000000 l 18.558800 8.000000 l 18.558800 6.000000 l cp s
/Courier-latin1 ff 0.800000 scf sf
(Collection 1) dup sw 2 div 15.000000 ex sub 7.234483 m gs 1 -1 sc sh gr
1.000000 1.000000 1.000000 srgb
n 6.000000 10.000000 m 6.000000 12.000000 l 13.117600 12.000000 l 13.117600 10.000000 l f
0.100000 slw
[] 0 sd
[] 0 sd
0 slj
0.000000 0.000000 0.000000 srgb
n 6.000000 10.000000 m 6.000000 12.000000 l 13.117600 12.000000 l 13.117600 10.000000 l cp s
/Courier-latin1 ff 0.800000 scf sf
(Collection 2) dup sw 2 div 9.558800 ex sub 11.234483 m gs 1 -1 sc sh gr
1.000000 1.000000 1.000000 srgb
n 3.000000 14.000000 m 3.000000 16.000000 l 10.117600 16.000000 l 10.117600 14.000000 l f
0.100000 slw
[] 0 sd
[] 0 sd
0 slj
0.000000 0.000000 0.000000 srgb
n 3.000000 14.000000 m 3.000000 16.000000 l 10.117600 16.000000 l 10.117600 14.000000 l cp s
/Courier-latin1 ff 0.800000 scf sf
(Collection 4) dup sw 2 div 6.558800 ex sub 15.234483 m gs 1 -1 sc sh gr
1.000000 1.000000 1.000000 srgb
n 17.000000 10.000000 m 17.000000 12.000000 l 24.117600 12.000000 l 24.117600 10.000000 l f
0.100000 slw
[] 0 sd
[] 0 sd
0 slj
0.000000 0.000000 0.000000 srgb
n 17.000000 10.000000 m 17.000000 12.000000 l 24.117600 12.000000 l 24.117600 10.000000 l cp s
/Courier-latin1 ff 0.800000 scf sf
(Collection 3) dup sw 2 div 20.558800 ex sub 11.234483 m gs 1 -1 sc sh gr
1.000000 1.000000 1.000000 srgb
n 15.079753 11.079753 1.079753 1.079753 0 360 ellipse f
0.100000 slw
[] 0 sd
[] 0 sd
0 slj
0.000000 0.000000 0.000000 srgb
n 15.079753 11.079753 1.079753 1.079753 0 360 ellipse cp s
/Courier-latin1 ff 0.800000 scf sf
(1) dup sw 2 div 15.079753 ex sub 11.314235 m gs 1 -1 sc sh gr
1.000000 1.000000 1.000000 srgb
n 12.079753 15.079753 1.079753 1.079753 0 360 ellipse f
0.100000 slw
[] 0 sd
[] 0 sd
0 slj
0.000000 0.000000 0.000000 srgb
n 12.079753 15.079753 1.079753 1.079753 0 360 ellipse cp s
/Courier-latin1 ff 0.800000 scf sf
(2) dup sw 2 div 12.079753 ex sub 15.314235 m gs 1 -1 sc sh gr
1.000000 1.000000 1.000000 srgb
n 18.079753 15.079753 1.079753 1.079753 0 360 ellipse f
0.100000 slw
[] 0 sd
[] 0 sd
0 slj
0.000000 0.000000 0.000000 srgb
n 18.079753 15.079753 1.079753 1.079753 0 360 ellipse cp s
/Courier-latin1 ff 0.800000 scf sf
(3) dup sw 2 div 18.079753 ex sub 15.314235 m gs 1 -1 sc sh gr
1.000000 1.000000 1.000000 srgb
n 23.079753 15.079753 1.079753 1.079753 0 360 ellipse f
0.100000 slw
[] 0 sd
[] 0 sd
0 slj
0.000000 0.000000 0.000000 srgb
n 23.079753 15.079753 1.079753 1.079753 0 360 ellipse cp s
/Courier-latin1 ff 0.800000 scf sf
(4) dup sw 2 div 23.079753 ex sub 15.314235 m gs 1 -1 sc sh gr
1.000000 1.000000 1.000000 srgb
n 4.079753 19.079753 1.079753 1.079753 0 360 ellipse f
0.100000 slw
[] 0 sd
[] 0 sd
0 slj
0.000000 0.000000 0.000000 srgb
n 4.079753 19.079753 1.079753 1.079753 0 360 ellipse cp s
/Courier-latin1 ff 0.800000 scf sf
(5) dup sw 2 div 4.079753 ex sub 19.314235 m gs 1 -1 sc sh gr
1.000000 1.000000 1.000000 srgb
n 9.079753 19.079753 1.079753 1.079753 0 360 ellipse f
0.100000 slw
[] 0 sd
[] 0 sd
0 slj
0.000000 0.000000 0.000000 srgb
n 9.079753 19.079753 1.079753 1.079753 0 360 ellipse cp s
/Courier-latin1 ff 0.800000 scf sf
(6) dup sw 2 div 9.079753 ex sub 19.314235 m gs 1 -1 sc sh gr
1.000000 1.000000 1.000000 srgb
n 7.079753 23.079753 1.079753 1.079753 0 360 ellipse f
0.100000 slw
[] 0 sd
[] 0 sd
0 slj
0.000000 0.000000 0.000000 srgb
n 7.079753 23.079753 1.079753 1.079753 0 360 ellipse cp s
/Courier-latin1 ff 0.800000 scf sf
(5) dup sw 2 div 7.079753 ex sub 23.314235 m gs 1 -1 sc sh gr
1.000000 1.000000 1.000000 srgb
n 10.079753 23.079753 1.079753 1.079753 0 360 ellipse f
0.100000 slw
[] 0 sd
[] 0 sd
0 slj
0.000000 0.000000 0.000000 srgb
n 10.079753 23.079753 1.079753 1.079753 0 360 ellipse cp s
/Courier-latin1 ff 0.800000 scf sf
(6) dup sw 2 div 10.079753 ex sub 23.314235 m gs 1 -1 sc sh gr
1.000000 1.000000 1.000000 srgb
n 13.079753 23.079753 1.079753 1.079753 0 360 ellipse f
0.100000 slw
[] 0 sd
[] 0 sd
0 slj
0.000000 0.000000 0.000000 srgb
n 13.079753 23.079753 1.079753 1.079753 0 360 ellipse cp s
/Courier-latin1 ff 0.800000 scf sf
(2) dup sw 2 div 13.079753 ex sub 23.314235 m gs 1 -1 sc sh gr
1.000000 1.000000 1.000000 srgb
n 16.079753 23.079753 1.079753 1.079753 0 360 ellipse f
0.100000 slw
[] 0 sd
[] 0 sd
0 slj
0.000000 0.000000 0.000000 srgb
n 16.079753 23.079753 1.079753 1.079753 0 360 ellipse cp s
/Courier-latin1 ff 0.800000 scf sf
(1) dup sw 2 div 16.079753 ex sub 23.314235 m gs 1 -1 sc sh gr
1.000000 1.000000 1.000000 srgb
n 19.079753 23.079753 1.079753 1.079753 0 360 ellipse f
0.100000 slw
[] 0 sd
[] 0 sd
0 slj
0.000000 0.000000 0.000000 srgb
n 19.079753 23.079753 1.079753 1.079753 0 360 ellipse cp s
/Courier-latin1 ff 0.800000 scf sf
(3) dup sw 2 div 19.079753 ex sub 23.314235 m gs 1 -1 sc sh gr
1.000000 1.000000 1.000000 srgb
n 22.079753 23.079753 1.079753 1.079753 0 360 ellipse f
0.100000 slw
[] 0 sd
[] 0 sd
0 slj
0.000000 0.000000 0.000000 srgb
n 22.079753 23.079753 1.079753 1.079753 0 360 ellipse cp s
/Courier-latin1 ff 0.800000 scf sf
(4) dup sw 2 div 22.079753 ex sub 23.314235 m gs 1 -1 sc sh gr
0.100000 slw
[] 0 sd
[] 0 sd
0 slc
n 6.558800 16.000000 m 4.079753 18.000000 l s
0.100000 slw
[] 0 sd
[] 0 sd
0 slc
n 6.558800 16.000000 m 9.079753 18.000000 l s
0.100000 slw
[] 0 sd
[] 0 sd
0 slc
n 9.558800 12.000000 m 6.558800 14.000000 l s
0.100000 slw
[] 0 sd
[] 0 sd
0 slc
n 9.558800 12.000000 m 12.079753 14.000000 l s
0.100000 slw
[] 0 sd
[] 0 sd
0 slc
n 15.000000 8.000000 m 9.558800 10.000000 l s
0.100000 slw
[] 0 sd
[] 0 sd
0 slc
n 15.000000 8.000000 m 15.079753 10.000000 l s
0.100000 slw
[] 0 sd
[] 0 sd
0 slc
n 15.000000 8.000000 m 20.558800 10.000000 l s
0.100000 slw
[] 0 sd
[] 0 sd
0 slc
n 20.558800 12.000000 m 18.079753 14.000000 l s
0.100000 slw
[] 0 sd
[] 0 sd
0 slc
n 20.558800 12.000000 m 23.079753 14.000000 l s
0.100000 slw
[] 0 sd
[] 0 sd
0 slc
n 8.159505 23.079753 m 9.000000 23.079753 l s
0.100000 slw
[] 0 sd
[] 0 sd
0 slc
n 11.159505 23.079753 m 12.000000 23.079753 l s
0.100000 slw
[] 0 sd
[] 0 sd
0 slc
n 14.159505 23.079753 m 15.000000 23.079753 l s
0.100000 slw
[] 0 sd
[] 0 sd
0 slc
n 17.159505 23.079753 m 18.000000 23.079753 l s
0.100000 slw
[] 0 sd
[] 0 sd
0 slc
n 20.159505 23.079753 m 21.000000 23.079753 l s
0.100000 slw
[] 0 sd
[] 0 sd
0 slc
n 15.000000 17.000000 m 15.000000 21.000000 l s
0.100000 slw
[] 0 sd
0 slj
0 slc
n 14.600000 20.200000 m 15.000000 21.000000 l 15.400000 20.200000 l s
showpage
