%!PS-Adobe-2.0 EPSF-2.0
%%Title: /home/alex/cord/org.cord/module/modules/GenericTextNode/doc/gtn-DesignAndImplementation/requestFlow.dia
%%Creator: Dia v0.88.1
%%CreationDate: Wed Mar 13 10:43:40 2002
%%For: a user
%%Magnification: 1.0000
%%Orientation: Portrait
%%BoundingBox: 0 0 412 676
%%Pages: 1
%%BeginSetup
%%EndSetup
%%EndComments
%%BeginProlog
[ /.notdef /.notdef /.notdef /.notdef /.notdef /.notdef /.notdef /.notdef /.notdef /.notdef
/.notdef /.notdef /.notdef /.notdef /.notdef /.notdef /.notdef /.notdef /.notdef /.notdef
/.notdef /.notdef /.notdef /.notdef /.notdef /.notdef /.notdef /.notdef /.notdef /.notdef
/.notdef /.notdef /space /exclam /quotedbl /numbersign /dollar /percent /ampersand /quoteright
/parenleft /parenright /asterisk /plus /comma /hyphen /period /slash /zero /one
/two /three /four /five /six /seven /eight /nine /colon /semicolon
/less /equal /greater /question /at /A /B /C /D /E
/F /G /H /I /J /K /L /M /N /O
/P /Q /R /S /T /U /V /W /X /Y
/Z /bracketleft /backslash /bracketright /asciicircum /underscore /quoteleft /a /b /c
/d /e /f /g /h /i /j /k /l /m
/n /o /p /q /r /s /t /u /v /w
/x /y /z /braceleft /bar /braceright /asciitilde /.notdef /.notdef /.notdef
/.notdef /.notdef /.notdef /.notdef /.notdef /.notdef /.notdef /.notdef /.notdef /.notdef
/.notdef /.notdef /.notdef /.notdef /.notdef /.notdef /.notdef /.notdef /.notdef /.notdef
/.notdef /.notdef /.notdef /.notdef /.notdef /.notdef /.notdef /.notdef /.notdef /.notdef
/space /exclamdown /cent /sterling /currency /yen /brokenbar /section /dieresis /copyright
/ordfeminine /guillemotleft /logicalnot /hyphen /registered /macron /degree /plusminus /twosuperior /threesuperior
/acute /mu /paragraph /periodcentered /cedilla /onesuperior /ordmasculine /guillemotright /onequarter /onehalf
/threequarters /questiondown /Agrave /Aacute /Acircumflex /Atilde /Adieresis /Aring /AE /Ccedilla
/Egrave /Eacute /Ecircumflex /Edieresis /Igrave /Iacute /Icircumflex /Idieresis /Eth /Ntilde
/Ograve /Oacute /Ocircumflex /Otilde /Odieresis /multiply /Oslash /Ugrave /Uacute /Ucircumflex
/Udieresis /Yacute /Thorn /germandbls /agrave /aacute /acircumflex /atilde /adieresis /aring
/ae /ccedilla /egrave /eacute /ecircumflex /edieresis /igrave /iacute /icircumflex /idieresis
/eth /ntilde /ograve /oacute /ocircumflex /otilde /odieresis /divide /oslash /ugrave
/uacute /ucircumflex /udieresis /yacute /thorn /ydieresis] /isolatin1encoding exch def
/Times-Roman-latin1
    /Times-Roman findfont
    dup length dict begin
	{1 index /FID ne {def} {pop pop} ifelse} forall
	/Encoding isolatin1encoding def
    currentdict end
definefont pop
/Times-Italic-latin1
    /Times-Italic findfont
    dup length dict begin
	{1 index /FID ne {def} {pop pop} ifelse} forall
	/Encoding isolatin1encoding def
    currentdict end
definefont pop
/Times-Bold-latin1
    /Times-Bold findfont
    dup length dict begin
	{1 index /FID ne {def} {pop pop} ifelse} forall
	/Encoding isolatin1encoding def
    currentdict end
definefont pop
/Times-BoldItalic-latin1
    /Times-BoldItalic findfont
    dup length dict begin
	{1 index /FID ne {def} {pop pop} ifelse} forall
	/Encoding isolatin1encoding def
    currentdict end
definefont pop
/AvantGarde-Book-latin1
    /AvantGarde-Book findfont
    dup length dict begin
	{1 index /FID ne {def} {pop pop} ifelse} forall
	/Encoding isolatin1encoding def
    currentdict end
definefont pop
/AvantGarde-BookOblique-latin1
    /AvantGarde-BookOblique findfont
    dup length dict begin
	{1 index /FID ne {def} {pop pop} ifelse} forall
	/Encoding isolatin1encoding def
    currentdict end
definefont pop
/AvantGarde-Demi-latin1
    /AvantGarde-Demi findfont
    dup length dict begin
	{1 index /FID ne {def} {pop pop} ifelse} forall
	/Encoding isolatin1encoding def
    currentdict end
definefont pop
/AvantGarde-DemiOblique-latin1
    /AvantGarde-DemiOblique findfont
    dup length dict begin
	{1 index /FID ne {def} {pop pop} ifelse} forall
	/Encoding isolatin1encoding def
    currentdict end
definefont pop
/Bookman-Light-latin1
    /Bookman-Light findfont
    dup length dict begin
	{1 index /FID ne {def} {pop pop} ifelse} forall
	/Encoding isolatin1encoding def
    currentdict end
definefont pop
/Bookman-LightItalic-latin1
    /Bookman-LightItalic findfont
    dup length dict begin
	{1 index /FID ne {def} {pop pop} ifelse} forall
	/Encoding isolatin1encoding def
    currentdict end
definefont pop
/Bookman-Demi-latin1
    /Bookman-Demi findfont
    dup length dict begin
	{1 index /FID ne {def} {pop pop} ifelse} forall
	/Encoding isolatin1encoding def
    currentdict end
definefont pop
/Bookman-DemiItalic-latin1
    /Bookman-DemiItalic findfont
    dup length dict begin
	{1 index /FID ne {def} {pop pop} ifelse} forall
	/Encoding isolatin1encoding def
    currentdict end
definefont pop
/Courier-latin1
    /Courier findfont
    dup length dict begin
	{1 index /FID ne {def} {pop pop} ifelse} forall
	/Encoding isolatin1encoding def
    currentdict end
definefont pop
/Courier-Oblique-latin1
    /Courier-Oblique findfont
    dup length dict begin
	{1 index /FID ne {def} {pop pop} ifelse} forall
	/Encoding isolatin1encoding def
    currentdict end
definefont pop
/Courier-Bold-latin1
    /Courier-Bold findfont
    dup length dict begin
	{1 index /FID ne {def} {pop pop} ifelse} forall
	/Encoding isolatin1encoding def
    currentdict end
definefont pop
/Courier-BoldOblique-latin1
    /Courier-BoldOblique findfont
    dup length dict begin
	{1 index /FID ne {def} {pop pop} ifelse} forall
	/Encoding isolatin1encoding def
    currentdict end
definefont pop
/Helvetica-latin1
    /Helvetica findfont
    dup length dict begin
	{1 index /FID ne {def} {pop pop} ifelse} forall
	/Encoding isolatin1encoding def
    currentdict end
definefont pop
/Helvetica-Oblique-latin1
    /Helvetica-Oblique findfont
    dup length dict begin
	{1 index /FID ne {def} {pop pop} ifelse} forall
	/Encoding isolatin1encoding def
    currentdict end
definefont pop
/Helvetica-Bold-latin1
    /Helvetica-Bold findfont
    dup length dict begin
	{1 index /FID ne {def} {pop pop} ifelse} forall
	/Encoding isolatin1encoding def
    currentdict end
definefont pop
/Helvetica-BoldOblique-latin1
    /Helvetica-BoldOblique findfont
    dup length dict begin
	{1 index /FID ne {def} {pop pop} ifelse} forall
	/Encoding isolatin1encoding def
    currentdict end
definefont pop
/Helvetica-Narrow-latin1
    /Helvetica-Narrow findfont
    dup length dict begin
	{1 index /FID ne {def} {pop pop} ifelse} forall
	/Encoding isolatin1encoding def
    currentdict end
definefont pop
/Helvetica-Narrow-Oblique-latin1
    /Helvetica-Narrow-Oblique findfont
    dup length dict begin
	{1 index /FID ne {def} {pop pop} ifelse} forall
	/Encoding isolatin1encoding def
    currentdict end
definefont pop
/Helvetica-Narrow-Bold-latin1
    /Helvetica-Narrow-Bold findfont
    dup length dict begin
	{1 index /FID ne {def} {pop pop} ifelse} forall
	/Encoding isolatin1encoding def
    currentdict end
definefont pop
/Helvetica-Narrow-BoldOblique-latin1
    /Helvetica-Narrow-BoldOblique findfont
    dup length dict begin
	{1 index /FID ne {def} {pop pop} ifelse} forall
	/Encoding isolatin1encoding def
    currentdict end
definefont pop
/NewCenturySchoolbook-Roman-latin1
    /NewCenturySchoolbook-Roman findfont
    dup length dict begin
	{1 index /FID ne {def} {pop pop} ifelse} forall
	/Encoding isolatin1encoding def
    currentdict end
definefont pop
/NewCenturySchoolbook-Italic-latin1
    /NewCenturySchoolbook-Italic findfont
    dup length dict begin
	{1 index /FID ne {def} {pop pop} ifelse} forall
	/Encoding isolatin1encoding def
    currentdict end
definefont pop
/NewCenturySchoolbook-Bold-latin1
    /NewCenturySchoolbook-Bold findfont
    dup length dict begin
	{1 index /FID ne {def} {pop pop} ifelse} forall
	/Encoding isolatin1encoding def
    currentdict end
definefont pop
/NewCenturySchoolbook-BoldItalic-latin1
    /NewCenturySchoolbook-BoldItalic findfont
    dup length dict begin
	{1 index /FID ne {def} {pop pop} ifelse} forall
	/Encoding isolatin1encoding def
    currentdict end
definefont pop
/Palatino-Roman-latin1
    /Palatino-Roman findfont
    dup length dict begin
	{1 index /FID ne {def} {pop pop} ifelse} forall
	/Encoding isolatin1encoding def
    currentdict end
definefont pop
/Palatino-Italic-latin1
    /Palatino-Italic findfont
    dup length dict begin
	{1 index /FID ne {def} {pop pop} ifelse} forall
	/Encoding isolatin1encoding def
    currentdict end
definefont pop
/Palatino-Bold-latin1
    /Palatino-Bold findfont
    dup length dict begin
	{1 index /FID ne {def} {pop pop} ifelse} forall
	/Encoding isolatin1encoding def
    currentdict end
definefont pop
/Palatino-BoldItalic-latin1
    /Palatino-BoldItalic findfont
    dup length dict begin
	{1 index /FID ne {def} {pop pop} ifelse} forall
	/Encoding isolatin1encoding def
    currentdict end
definefont pop
/Symbol-latin1
    /Symbol findfont
definefont pop
/ZapfChancery-MediumItalic-latin1
    /ZapfChancery-MediumItalic findfont
    dup length dict begin
	{1 index /FID ne {def} {pop pop} ifelse} forall
	/Encoding isolatin1encoding def
    currentdict end
definefont pop
/ZapfDingbats-latin1
    /ZapfDingbats findfont
    dup length dict begin
	{1 index /FID ne {def} {pop pop} ifelse} forall
	/Encoding isolatin1encoding def
    currentdict end
definefont pop
/cp {closepath} bind def
/c {curveto} bind def
/f {fill} bind def
/a {arc} bind def
/ef {eofill} bind def
/ex {exch} bind def
/gr {grestore} bind def
/gs {gsave} bind def
/sa {save} bind def
/rs {restore} bind def
/l {lineto} bind def
/m {moveto} bind def
/rm {rmoveto} bind def
/n {newpath} bind def
/s {stroke} bind def
/sh {show} bind def
/slc {setlinecap} bind def
/slj {setlinejoin} bind def
/slw {setlinewidth} bind def
/srgb {setrgbcolor} bind def
/rot {rotate} bind def
/sc {scale} bind def
/sd {setdash} bind def
/ff {findfont} bind def
/sf {setfont} bind def
/scf {scalefont} bind def
/sw {stringwidth pop} bind def
/tr {translate} bind def

/ellipsedict 8 dict def
ellipsedict /mtrx matrix put
/ellipse
{ ellipsedict begin
   /endangle exch def
   /startangle exch def
   /yrad exch def
   /xrad exch def
   /y exch def
   /x exch def   /savematrix mtrx currentmatrix def
   x y tr xrad yrad sc
   0 0 1 startangle endangle arc
   savematrix setmatrix
   end
} def

/mergeprocs {
dup length
3 -1 roll
dup
length
dup
5 1 roll
3 -1 roll
add
array cvx
dup
3 -1 roll
0 exch
putinterval
dup
4 2 roll
putinterval
} bind def
6.519580 -6.519580 scale
-86.950000 -113.504050 translate
%%EndProlog


1.000000 1.000000 1.000000 srgb
n 108.332500 48.000000 m 113.665000 50.668655 l 108.332500 53.337310 l 103.000000 50.668655 l f
0.100000 slw
[] 0 sd
[] 0 sd
0 slj
0.000000 0.000000 0.000000 srgb
n 108.332500 48.000000 m 113.665000 50.668655 l 108.332500 53.337310 l 103.000000 50.668655 l cp s
/Courier-latin1 ff 0.800000 scf sf
(has update) dup sw 2 div 108.332500 ex sub 50.503138 m gs 1 -1 sc sh gr
(rights?) dup sw 2 div 108.332500 ex sub 51.303138 m gs 1 -1 sc sh gr
1.000000 1.000000 1.000000 srgb
n 120.000000 41.000000 m 120.000000 42.900000 l 123.724000 42.900000 l 123.724000 41.000000 l f
0.100000 slw
[] 0 sd
[] 0 sd
0 slj
0.000000 0.000000 0.000000 srgb
n 120.000000 41.000000 m 120.000000 42.900000 l 123.724000 42.900000 l 123.724000 41.000000 l cp s
/Courier-latin1 ff 0.800000 scf sf
("*") dup sw 2 div 121.862000 ex sub 42.184483 m gs 1 -1 sc sh gr
1.000000 1.000000 1.000000 srgb
n 141.000000 73.000000 m 141.000000 75.000000 l 150.056800 75.000000 l 150.056800 73.000000 l f
0.100000 slw
[] 0 sd
[] 0 sd
0 slj
0.000000 0.000000 0.000000 srgb
n 141.000000 73.000000 m 141.000000 75.000000 l 150.056800 75.000000 l 150.056800 73.000000 l cp s
/Courier-latin1 ff 0.800000 scf sf
("changeFilename") dup sw 2 div 145.528400 ex sub 74.234483 m gs 1 -1 sc sh gr
1.000000 1.000000 1.000000 srgb
n 128.517000 43.320700 m 128.517000 45.320700 l 137.089000 45.320700 l 137.089000 43.320700 l f
0.100000 slw
[] 0 sd
[] 0 sd
0 slj
0.000000 0.000000 0.000000 srgb
n 128.517000 43.320700 m 128.517000 45.320700 l 137.089000 45.320700 l 137.089000 43.320700 l cp s
/Courier-latin1 ff 0.800000 scf sf
("confirmDelete") dup sw 2 div 132.803000 ex sub 44.555183 m gs 1 -1 sc sh gr
1.000000 1.000000 1.000000 srgb
n 134.000000 73.000000 m 134.000000 75.000000 l 140.148000 75.000000 l 140.148000 73.000000 l f
0.100000 slw
[] 0 sd
[] 0 sd
0 slj
0.000000 0.000000 0.000000 srgb
n 134.000000 73.000000 m 134.000000 75.000000 l 140.148000 75.000000 l 140.148000 73.000000 l cp s
/Courier-latin1 ff 0.800000 scf sf
("moveDown") dup sw 2 div 137.074000 ex sub 74.234483 m gs 1 -1 sc sh gr
1.000000 1.000000 1.000000 srgb
n 128.000000 73.000000 m 128.000000 75.000000 l 133.178400 75.000000 l 133.178400 73.000000 l f
0.100000 slw
[] 0 sd
[] 0 sd
0 slj
0.000000 0.000000 0.000000 srgb
n 128.000000 73.000000 m 128.000000 75.000000 l 133.178400 75.000000 l 133.178400 73.000000 l cp s
/Courier-latin1 ff 0.800000 scf sf
("moveUp") dup sw 2 div 130.589200 ex sub 74.234483 m gs 1 -1 sc sh gr
0.100000 slw
[] 0 sd
[] 0 sd
0 slc
n 102.198000 49.756700 m 99.558800 57.000000 l s
0.100000 slw
[] 0 sd
0 slj
0 slc
n 99.456848 56.111402 m 99.558800 57.000000 l 100.208507 56.385280 l s
1.000000 1.000000 1.000000 srgb
n 104.000000 55.000000 m 104.000000 58.500000 l 108.208800 58.500000 l 108.208800 55.000000 l f
0.100000 slw
[] 0 sd
[] 0 sd
0 slj
0.000000 0.000000 0.000000 srgb
n 104.000000 55.000000 m 104.000000 58.500000 l 108.208800 58.500000 l 108.208800 55.000000 l cp s
/Courier-latin1 ff 0.800000 scf sf
(create) dup sw 2 div 106.104400 ex sub 56.184483 m gs 1 -1 sc sh gr
(update) dup sw 2 div 106.104400 ex sub 56.984483 m gs 1 -1 sc sh gr
(lock) dup sw 2 div 106.104400 ex sub 57.784483 m gs 1 -1 sc sh gr
0.100000 slw
[] 0 sd
[] 0 sd
0 slc
n 108.332000 53.337300 m 106.104000 55.000000 l s
0.100000 slw
[] 0 sd
0 slj
0 slc
n 106.505910 54.200958 m 106.104000 55.000000 l 106.984380 54.842102 l s
0.100000 slw
[] 0 sd
[] 0 sd
0 slc
n 106.104000 58.500000 m 103.559000 61.000000 l s
0.100000 slw
[] 0 sd
0 slj
0 slc
n 103.849400 60.154028 m 103.559000 61.000000 l 104.410017 60.724737 l s
1.000000 1.000000 1.000000 srgb
n 90.511120 70.000000 m 94.022240 73.135650 l 90.511120 76.271300 l 87.000000 73.135650 l f
0.100000 slw
[] 0 sd
[] 0 sd
0 slj
0.000000 0.000000 0.000000 srgb
n 90.511120 70.000000 m 94.022240 73.135650 l 90.511120 76.271300 l 87.000000 73.135650 l cp s
/Courier-latin1 ff 0.800000 scf sf
(auth) dup sw 2 div 90.511120 ex sub 72.570133 m gs 1 -1 sc sh gr
(check) dup sw 2 div 90.511120 ex sub 73.370133 m gs 1 -1 sc sh gr
(OK?) dup sw 2 div 90.511120 ex sub 74.170133 m gs 1 -1 sc sh gr
0.100000 slw
[] 0 sd
[] 0 sd
0 slc
n 91.316400 84.700000 m 91.558800 86.000000 l s
0.100000 slw
[] 0 sd
0 slj
0 slc
n 91.018936 85.286876 m 91.558800 86.000000 l 91.805381 85.140234 l s
1.000000 1.000000 1.000000 srgb
n 97.906500 52.906500 2.906500 2.906500 0 360 ellipse f
0.100000 slw
[] 0 sd
[] 0 sd
0 slj
0.000000 0.000000 0.000000 srgb
n 97.906500 52.906500 2.906500 2.906500 0 360 ellipse cp s
/Courier-latin1 ff 0.800000 scf sf
(populate) dup sw 2 div 97.906500 ex sub 52.340983 m gs 1 -1 sc sh gr
(login) dup sw 2 div 97.906500 ex sub 53.140983 m gs 1 -1 sc sh gr
(template) dup sw 2 div 97.906500 ex sub 53.940983 m gs 1 -1 sc sh gr
1.000000 1.000000 1.000000 srgb
n 88.000000 82.000000 m 88.000000 84.700000 l 94.632800 84.700000 l 94.632800 82.000000 l f
0.100000 slw
[] 0 sd
[] 0 sd
0 slj
0.000000 0.000000 0.000000 srgb
n 88.000000 82.000000 m 88.000000 84.700000 l 94.632800 84.700000 l 94.632800 82.000000 l cp s
/Courier-latin1 ff 0.800000 scf sf
(login) dup sw 2 div 91.316400 ex sub 83.184483 m gs 1 -1 sc sh gr
(new user) dup sw 2 div 91.316400 ex sub 83.984483 m gs 1 -1 sc sh gr
0.100000 slw
[] 0 sd
[] 0 sd
0 slc
n 90.511120 76.271300 m 90.316400 78.000000 l s
0.100000 slw
[] 0 sd
0 slj
0 slc
n 90.008459 77.160255 m 90.316400 78.000000 l 90.803432 77.249800 l s
0.100000 slw
[] 0 sd
[] 0 sd
0 slc
n 94.022240 73.135650 m 96.906500 74.000000 l s
0.100000 slw
[] 0 sd
0 slj
0 slc
n 96.025345 74.153512 m 96.906500 74.000000 l 96.254997 73.387183 l s
1.000000 1.000000 1.000000 srgb
n 87.000000 78.000000 m 87.000000 80.700000 l 93.632800 80.700000 l 93.632800 78.000000 l f
0.100000 slw
[] 0 sd
[] 0 sd
0 slj
0.000000 0.000000 0.000000 srgb
n 87.000000 78.000000 m 87.000000 80.700000 l 93.632800 80.700000 l 93.632800 78.000000 l cp s
/Courier-latin1 ff 0.800000 scf sf
(invalidate) dup sw 2 div 90.316400 ex sub 79.184483 m gs 1 -1 sc sh gr
(old user) dup sw 2 div 90.316400 ex sub 79.984483 m gs 1 -1 sc sh gr
0.100000 slw
[] 0 sd
[] 0 sd
0 slc
n 90.316400 80.700000 m 91.316400 82.000000 l s
0.100000 slw
[] 0 sd
0 slj
0 slc
n 90.511582 81.609785 m 91.316400 82.000000 l 91.145681 81.122017 l s
1.000000 1.000000 1.000000 srgb
n 99.000000 32.000000 m 99.000000 34.700000 l 105.632800 34.700000 l 105.632800 32.000000 l f
0.100000 slw
[] 0 sd
[] 0 sd
0 slj
0.000000 0.000000 0.000000 srgb
n 99.000000 32.000000 m 99.000000 34.700000 l 105.632800 34.700000 l 105.632800 32.000000 l cp s
/Courier-latin1 ff 0.800000 scf sf
(invalidate) dup sw 2 div 102.316400 ex sub 33.184483 m gs 1 -1 sc sh gr
(old user) dup sw 2 div 102.316400 ex sub 33.984483 m gs 1 -1 sc sh gr
0.100000 slw
[] 0 sd
[] 0 sd
0 slc
n 96.589200 23.000000 m 96.951725 26.000000 l s
0.100000 slw
[] 0 sd
0 slj
0 slc
n 96.458639 25.253765 m 96.951725 26.000000 l 97.252861 25.157790 l s
1.000000 1.000000 1.000000 srgb
n 96.951725 26.000000 m 101.903450 28.944250 l 96.951725 31.888500 l 92.000000 28.944250 l f
0.100000 slw
[] 0 sd
[] 0 sd
0 slj
0.000000 0.000000 0.000000 srgb
n 96.951725 26.000000 m 101.903450 28.944250 l 96.951725 31.888500 l 92.000000 28.944250 l cp s
/Courier-latin1 ff 0.800000 scf sf
(is user) dup sw 2 div 96.951725 ex sub 28.778733 m gs 1 -1 sc sh gr
(anonymous?) dup sw 2 div 96.951725 ex sub 29.578733 m gs 1 -1 sc sh gr
0.100000 slw
[] 0 sd
[] 0 sd
0 slc
n 96.951725 31.888500 m 95.558800 41.000000 l s
0.100000 slw
[] 0 sd
0 slj
0 slc
n 95.284290 40.148740 m 95.558800 41.000000 l 96.075102 40.269636 l s
0.100000 slw
[] 0 sd
[] 0 sd
0 slc
n 101.903450 28.944250 m 102.316400 32.000000 l s
0.100000 slw
[] 0 sd
0 slj
0 slc
n 101.812866 31.260775 m 102.316400 32.000000 l 102.605660 31.153638 l s
1.000000 1.000000 1.000000 srgb
n 99.000000 37.000000 m 99.000000 39.700000 l 104.663200 39.700000 l 104.663200 37.000000 l f
0.100000 slw
[] 0 sd
[] 0 sd
0 slj
0.000000 0.000000 0.000000 srgb
n 99.000000 37.000000 m 99.000000 39.700000 l 104.663200 39.700000 l 104.663200 37.000000 l cp s
/Courier-latin1 ff 0.800000 scf sf
(login as) dup sw 2 div 101.831600 ex sub 38.184483 m gs 1 -1 sc sh gr
(anonymous) dup sw 2 div 101.831600 ex sub 38.984483 m gs 1 -1 sc sh gr
0.100000 slw
[] 0 sd
[] 0 sd
0 slc
n 102.316400 34.700000 m 101.831600 37.000000 l s
0.100000 slw
[] 0 sd
0 slj
0 slc
n 101.605201 36.134700 m 101.831600 37.000000 l 102.388000 36.299701 l s
0.100000 slw
[] 0 sd
[] 0 sd
0 slc
n 101.831600 39.700000 m 95.558800 41.000000 l s
0.100000 slw
[] 0 sd
0 slj
0 slc
n 96.260982 40.445977 m 95.558800 41.000000 l 96.423327 41.229332 l s
1.000000 1.000000 1.000000 srgb
n 95.906500 64.906500 2.906500 2.906500 0 360 ellipse f
0.100000 slw
[] 0 sd
[] 0 sd
0 slj
0.000000 0.000000 0.000000 srgb
n 95.906500 64.906500 2.906500 2.906500 0 360 ellipse cp s
/Courier-latin1 ff 0.800000 scf sf
(populate) dup sw 2 div 95.906500 ex sub 64.340983 m gs 1 -1 sc sh gr
(read) dup sw 2 div 95.906500 ex sub 65.140983 m gs 1 -1 sc sh gr
(template) dup sw 2 div 95.906500 ex sub 65.940983 m gs 1 -1 sc sh gr
1.000000 1.000000 1.000000 srgb
n 102.198165 44.000000 m 106.396330 46.878365 l 102.198165 49.756730 l 98.000000 46.878365 l f
0.100000 slw
[] 0 sd
[] 0 sd
0 slj
0.000000 0.000000 0.000000 srgb
n 102.198165 44.000000 m 106.396330 46.878365 l 102.198165 49.756730 l 98.000000 46.878365 l cp s
/Courier-latin1 ff 0.800000 scf sf
(has read) dup sw 2 div 102.198165 ex sub 46.712848 m gs 1 -1 sc sh gr
(rights?) dup sw 2 div 102.198165 ex sub 47.512848 m gs 1 -1 sc sh gr
0.100000 slw
[] 0 sd
[] 0 sd
0 slc
n 98.000000 46.878400 m 97.906500 50.000000 l s
0.100000 slw
[] 0 sd
0 slj
0 slc
n 97.530631 49.188383 m 97.906500 50.000000 l 98.330272 49.212334 l s
1.000000 1.000000 1.000000 srgb
n 96.000000 57.000000 m 96.000000 59.700000 l 103.117600 59.700000 l 103.117600 57.000000 l f
0.100000 slw
[] 0 sd
[] 0 sd
0 slj
0.000000 0.000000 0.000000 srgb
n 96.000000 57.000000 m 96.000000 59.700000 l 103.117600 59.700000 l 103.117600 57.000000 l cp s
/Courier-latin1 ff 0.800000 scf sf
(sessionState) dup sw 2 div 99.558800 ex sub 58.184483 m gs 1 -1 sc sh gr
(= "read") dup sw 2 div 99.558800 ex sub 58.984483 m gs 1 -1 sc sh gr
0.100000 slw
[] 0 sd
[] 0 sd
0 slc
n 99.558800 59.700000 m 95.906500 62.000000 l s
0.100000 slw
[] 0 sd
0 slj
0 slc
n 96.370300 61.235220 m 95.906500 62.000000 l 96.796605 61.912172 l s
1.000000 1.000000 1.000000 srgb
n 91.930640 93.930640 2.930640 2.930640 0 360 ellipse f
0.100000 slw
[] 0 sd
[] 0 sd
0 slj
0.000000 0.000000 0.000000 srgb
n 91.930640 93.930640 2.930640 2.930640 0 360 ellipse cp s
/Courier-latin1 ff 0.800000 scf sf
(reload) dup sw 2 div 91.930640 ex sub 93.765123 m gs 1 -1 sc sh gr
(as "read") dup sw 2 div 91.930640 ex sub 94.565123 m gs 1 -1 sc sh gr
1.000000 1.000000 1.000000 srgb
n 88.000000 86.000000 m 88.000000 88.700000 l 95.117600 88.700000 l 95.117600 86.000000 l f
0.100000 slw
[] 0 sd
[] 0 sd
0 slj
0.000000 0.000000 0.000000 srgb
n 88.000000 86.000000 m 88.000000 88.700000 l 95.117600 88.700000 l 95.117600 86.000000 l cp s
/Courier-latin1 ff 0.800000 scf sf
(sessionState) dup sw 2 div 91.558800 ex sub 87.184483 m gs 1 -1 sc sh gr
(= "login") dup sw 2 div 91.558800 ex sub 87.984483 m gs 1 -1 sc sh gr
0.100000 slw
[] 0 sd
[] 0 sd
0 slc
n 91.558800 88.700000 m 91.930640 91.000000 l s
0.100000 slw
[] 0 sd
0 slj
0 slc
n 91.408089 90.274093 m 91.930640 91.000000 l 92.197835 90.146415 l s
1.000000 1.000000 1.000000 srgb
n 96.906500 76.906500 2.906500 2.906500 0 360 ellipse f
0.100000 slw
[] 0 sd
[] 0 sd
0 slj
0.000000 0.000000 0.000000 srgb
n 96.906500 76.906500 2.906500 2.906500 0 360 ellipse cp s
/Courier-latin1 ff 0.800000 scf sf
(populate) dup sw 2 div 96.906500 ex sub 76.340983 m gs 1 -1 sc sh gr
(login) dup sw 2 div 96.906500 ex sub 77.140983 m gs 1 -1 sc sh gr
(template) dup sw 2 div 96.906500 ex sub 77.940983 m gs 1 -1 sc sh gr
1.000000 1.000000 1.000000 srgb
n 93.930640 47.930640 2.930640 2.930640 0 360 ellipse f
0.100000 slw
[] 0 sd
[] 0 sd
0 slj
0.000000 0.000000 0.000000 srgb
n 93.930640 47.930640 2.930640 2.930640 0 360 ellipse cp s
/Courier-latin1 ff 0.800000 scf sf
(reload) dup sw 2 div 93.930640 ex sub 47.765123 m gs 1 -1 sc sh gr
(as "read") dup sw 2 div 93.930640 ex sub 48.565123 m gs 1 -1 sc sh gr
1.000000 1.000000 1.000000 srgb
n 92.000000 41.000000 m 92.000000 43.700000 l 99.117600 43.700000 l 99.117600 41.000000 l f
0.100000 slw
[] 0 sd
[] 0 sd
0 slj
0.000000 0.000000 0.000000 srgb
n 92.000000 41.000000 m 92.000000 43.700000 l 99.117600 43.700000 l 99.117600 41.000000 l cp s
/Courier-latin1 ff 0.800000 scf sf
(sessionState) dup sw 2 div 95.558800 ex sub 42.184483 m gs 1 -1 sc sh gr
(= "logout") dup sw 2 div 95.558800 ex sub 42.984483 m gs 1 -1 sc sh gr
0.100000 slw
[] 0 sd
[] 0 sd
0 slc
n 95.558800 43.700000 m 93.930640 45.000000 l s
0.100000 slw
[] 0 sd
0 slj
0 slc
n 94.306226 44.188252 m 93.930640 45.000000 l 94.805390 44.813420 l s
1.000000 1.000000 1.000000 srgb
n 102.000000 11.000000 m 102.000000 13.700000 l 107.663200 13.700000 l 107.663200 11.000000 l f
0.100000 slw
[] 0 sd
[] 0 sd
0 slj
0.000000 0.000000 0.000000 srgb
n 102.000000 11.000000 m 102.000000 13.700000 l 107.663200 13.700000 l 107.663200 11.000000 l cp s
/Courier-latin1 ff 0.800000 scf sf
(calculate) dup sw 2 div 104.831600 ex sub 12.184483 m gs 1 -1 sc sh gr
(Node) dup sw 2 div 104.831600 ex sub 12.984483 m gs 1 -1 sc sh gr
1.000000 1.000000 1.000000 srgb
n 104.945350 15.000000 m 108.890700 17.721175 l 104.945350 20.442350 l 101.000000 17.721175 l f
0.100000 slw
[] 0 sd
[] 0 sd
0 slj
0.000000 0.000000 0.000000 srgb
n 104.945350 15.000000 m 108.890700 17.721175 l 104.945350 20.442350 l 101.000000 17.721175 l cp s
/Courier-latin1 ff 0.800000 scf sf
(is last) dup sw 2 div 104.945350 ex sub 17.555658 m gs 1 -1 sc sh gr
(Node) dup sw 2 div 104.945350 ex sub 18.355658 m gs 1 -1 sc sh gr
0.100000 slw
[] 0 sd
[] 0 sd
0 slc
n 104.832000 13.700000 m 104.945000 15.000000 l s
0.100000 slw
[] 0 sd
0 slj
0 slc
n 104.477225 14.237644 m 104.945000 15.000000 l 105.274220 14.168367 l s
1.000000 1.000000 1.000000 srgb
n 120.198165 15.000000 m 124.396330 17.878365 l 120.198165 20.756730 l 116.000000 17.878365 l f
0.100000 slw
[] 0 sd
[] 0 sd
0 slj
0.000000 0.000000 0.000000 srgb
n 120.198165 15.000000 m 124.396330 17.878365 l 120.198165 20.756730 l 116.000000 17.878365 l cp s
/Courier-latin1 ff 0.800000 scf sf
(has read) dup sw 2 div 120.198165 ex sub 17.712848 m gs 1 -1 sc sh gr
(rights?) dup sw 2 div 120.198165 ex sub 18.512848 m gs 1 -1 sc sh gr
0.100000 slw
[] 0 sd
[] 0 sd
0 slc
n 108.891000 17.721200 m 116.000000 17.878400 l s
0.100000 slw
[] 0 sd
0 slj
0 slc
n 115.191353 18.260616 m 116.000000 17.878400 l 115.209038 17.460812 l s
1.000000 1.000000 1.000000 srgb
n 130.906500 25.906500 2.906500 2.906500 0 360 ellipse f
0.100000 slw
[] 0 sd
[] 0 sd
0 slj
0.000000 0.000000 0.000000 srgb
n 130.906500 25.906500 2.906500 2.906500 0 360 ellipse cp s
/Courier-latin1 ff 0.800000 scf sf
(populate) dup sw 2 div 130.906500 ex sub 25.340983 m gs 1 -1 sc sh gr
(read) dup sw 2 div 130.906500 ex sub 26.140983 m gs 1 -1 sc sh gr
(template) dup sw 2 div 130.906500 ex sub 26.940983 m gs 1 -1 sc sh gr
0.100000 slw
[] 0 sd
[] 0 sd
0 slc
n 120.198000 20.756700 m 128.851000 23.851300 l s
0.100000 slw
[] 0 sd
0 slj
0 slc
n 127.963025 23.958542 m 128.851000 23.851300 l 128.232422 23.205265 l s
1.000000 1.000000 1.000000 srgb
n 126.000000 16.000000 m 126.000000 19.500000 l 131.178400 19.500000 l 131.178400 16.000000 l f
0.100000 slw
[] 0 sd
[] 0 sd
0 slj
0.000000 0.000000 0.000000 srgb
n 126.000000 16.000000 m 126.000000 19.500000 l 131.178400 19.500000 l 131.178400 16.000000 l cp s
/Courier-latin1 ff 0.800000 scf sf
(populate) dup sw 2 div 128.589200 ex sub 17.184483 m gs 1 -1 sc sh gr
(summary) dup sw 2 div 128.589200 ex sub 17.984483 m gs 1 -1 sc sh gr
(template) dup sw 2 div 128.589200 ex sub 18.784483 m gs 1 -1 sc sh gr
0.100000 slw
[] 0 sd
[] 0 sd
0 slc
n 124.396000 17.878400 m 126.000000 17.750000 l s
0.100000 slw
[] 0 sd
0 slj
0 slc
n 125.234469 18.212560 m 126.000000 17.750000 l 125.170633 17.415111 l s
1.000000 1.000000 1.000000 srgb
n 96.493650 12.493650 2.493650 2.493650 0 360 ellipse f
0.100000 slw
[] 0 sd
[] 0 sd
0 slj
0.000000 0.000000 0.000000 srgb
n 96.493650 12.493650 2.493650 2.493650 0 360 ellipse cp s
/Courier-latin1 ff 0.800000 scf sf
(request) dup sw 2 div 96.493650 ex sub 12.328133 m gs 1 -1 sc sh gr
(arrives) dup sw 2 div 96.493650 ex sub 13.128133 m gs 1 -1 sc sh gr
0.100000 slw
[] 0 sd
[] 0 sd
0 slc
n 98.987300 12.493600 m 102.000000 12.350000 l s
0.100000 slw
[] 0 sd
0 slj
0 slc
n 101.219952 12.787635 m 102.000000 12.350000 l 101.181863 11.988542 l s
1.000000 1.000000 1.000000 srgb
n 88.000000 21.000000 m 88.000000 23.000000 l 92.693600 23.000000 l 92.693600 21.000000 l f
0.100000 slw
[] 0 sd
[] 0 sd
0 slj
0.000000 0.000000 0.000000 srgb
n 88.000000 21.000000 m 88.000000 23.000000 l 92.693600 23.000000 l 92.693600 21.000000 l cp s
/Courier-latin1 ff 0.800000 scf sf
("login") dup sw 2 div 90.346800 ex sub 22.234483 m gs 1 -1 sc sh gr
1.000000 1.000000 1.000000 srgb
n 94.000000 21.000000 m 94.000000 23.000000 l 99.178400 23.000000 l 99.178400 21.000000 l f
0.100000 slw
[] 0 sd
[] 0 sd
0 slj
0.000000 0.000000 0.000000 srgb
n 94.000000 21.000000 m 94.000000 23.000000 l 99.178400 23.000000 l 99.178400 21.000000 l cp s
/Courier-latin1 ff 0.800000 scf sf
("logout") dup sw 2 div 96.589200 ex sub 22.234483 m gs 1 -1 sc sh gr
1.000000 1.000000 1.000000 srgb
n 100.000000 21.000000 m 100.000000 23.000000 l 102.754400 23.000000 l 102.754400 21.000000 l f
0.100000 slw
[] 0 sd
[] 0 sd
0 slj
0.000000 0.000000 0.000000 srgb
n 100.000000 21.000000 m 100.000000 23.000000 l 102.754400 23.000000 l 102.754400 21.000000 l cp s
/Courier-latin1 ff 0.800000 scf sf
("*") dup sw 2 div 101.377200 ex sub 22.234483 m gs 1 -1 sc sh gr
0.100000 slw
[] 0 sd
[] 0 sd
0 slc
n 92.488025 20.000690 m 90.346800 21.000000 l s
0.100000 slw
[] 0 sd
0 slj
0 slc
n 90.902573 20.299203 m 90.346800 21.000000 l 91.240901 21.024140 l s
0.100000 slw
[] 0 sd
[] 0 sd
0 slc
n 92.488025 20.000690 m 96.589200 21.000000 l s
0.100000 slw
[] 0 sd
0 slj
0 slc
n 95.717246 21.199239 m 96.589200 21.000000 l 95.906636 20.421980 l s
0.100000 slw
[] 0 sd
[] 0 sd
0 slc
n 92.488025 20.000690 m 101.377200 21.000000 l s
0.100000 slw
[] 0 sd
0 slj
0 slc
n 100.537522 21.308124 m 101.377200 21.000000 l 100.626894 20.513132 l s
0.100000 slw
[0.200000] 0 sd
[0.200000] 0 sd
0 slc
n 92.693600 22.000000 m 94.000000 22.000000 l s
0.100000 slw
[0.200000] 0 sd
[0.200000] 0 sd
0 slc
n 99.178400 22.000000 m 100.000000 22.000000 l s
0.100000 slw
[] 0 sd
[] 0 sd
0 slc
n 101.000000 17.721200 m 96.976050 18.000345 l s
0.100000 slw
[] 0 sd
0 slj
0 slc
n 97.746450 17.545940 m 96.976050 18.000345 l 97.801814 18.344022 l s
1.000000 1.000000 1.000000 srgb
n 106.158000 40.950000 m 106.158000 42.950000 l 110.366800 42.950000 l 110.366800 40.950000 l f
0.100000 slw
[] 0 sd
[] 0 sd
0 slj
0.000000 0.000000 0.000000 srgb
n 106.158000 40.950000 m 106.158000 42.950000 l 110.366800 42.950000 l 110.366800 40.950000 l cp s
/Courier-latin1 ff 0.800000 scf sf
("read") dup sw 2 div 108.262400 ex sub 42.184483 m gs 1 -1 sc sh gr
1.000000 1.000000 1.000000 srgb
n 111.262000 40.950000 m 111.262000 42.950000 l 115.470800 42.950000 l 115.470800 40.950000 l f
0.100000 slw
[] 0 sd
[] 0 sd
0 slj
0.000000 0.000000 0.000000 srgb
n 111.262000 40.950000 m 111.262000 42.950000 l 115.470800 42.950000 l 115.470800 40.950000 l cp s
/Courier-latin1 ff 0.800000 scf sf
("edit") dup sw 2 div 113.366400 ex sub 42.184483 m gs 1 -1 sc sh gr
1.000000 1.000000 1.000000 srgb
n 115.777000 40.950000 m 115.777000 42.950000 l 119.501000 42.950000 l 119.501000 40.950000 l f
0.100000 slw
[] 0 sd
[] 0 sd
0 slj
0.000000 0.000000 0.000000 srgb
n 115.777000 40.950000 m 115.777000 42.950000 l 119.501000 42.950000 l 119.501000 40.950000 l cp s
/Courier-latin1 ff 0.800000 scf sf
("add") dup sw 2 div 117.639000 ex sub 42.184483 m gs 1 -1 sc sh gr
0.100000 slw
[0.200000] 0 sd
[0.200000] 0 sd
0 slc
n 115.471000 41.950000 m 116.262000 41.950000 l s
0.100000 slw
[0.200000] 0 sd
[0.200000] 0 sd
0 slc
n 110.367000 41.950000 m 111.262000 41.950000 l s
0.100000 slw
[] 0 sd
[] 0 sd
0 slc
n 113.646000 39.807300 m 117.639000 40.950000 l s
0.100000 slw
[] 0 sd
0 slj
0 slc
n 116.759822 41.114458 m 117.639000 40.950000 l 116.979927 40.345332 l s
0.100000 slw
[] 0 sd
[] 0 sd
0 slc
n 113.646000 39.807300 m 113.366000 40.950000 l s
0.100000 slw
[] 0 sd
0 slj
0 slc
n 113.167888 40.077789 m 113.366000 40.950000 l 113.944901 40.268184 l s
0.100000 slw
[] 0 sd
[] 0 sd
0 slc
n 113.646000 39.807300 m 108.262000 40.950000 l s
0.100000 slw
[] 0 sd
0 slj
0 slc
n 108.961522 40.392623 m 108.262000 40.950000 l 109.127615 41.175192 l s
1.000000 1.000000 1.000000 srgb
n 123.523540 47.523540 2.523540 2.523540 0 360 ellipse f
0.100000 slw
[] 0 sd
[] 0 sd
0 slj
0.000000 0.000000 0.000000 srgb
n 123.523540 47.523540 2.523540 2.523540 0 360 ellipse cp s
/Courier-latin1 ff 0.800000 scf sf
(reload) dup sw 2 div 123.523540 ex sub 46.958023 m gs 1 -1 sc sh gr
(as ) dup sw 2 div 123.523540 ex sub 47.758023 m gs 1 -1 sc sh gr
("read") dup sw 2 div 123.523540 ex sub 48.558023 m gs 1 -1 sc sh gr
0.100000 slw
[] 0 sd
[] 0 sd
0 slc
n 121.862000 42.900000 m 123.524000 45.000000 l s
0.100000 slw
[] 0 sd
0 slj
0 slc
n 122.713875 44.620926 m 123.524000 45.000000 l 123.341184 44.124455 l s
0.100000 slw
[] 0 sd
[] 0 sd
0 slc
n 108.262000 42.950000 m 102.198000 44.000000 l s
0.100000 slw
[] 0 sd
0 slj
0 slc
n 102.918025 43.469373 m 102.198000 44.000000 l 103.054516 44.257644 l s
0.100000 slw
[] 0 sd
[] 0 sd
0 slc
n 113.366000 42.950000 m 108.332000 48.000000 l s
0.100000 slw
[] 0 sd
0 slj
0 slc
n 108.613496 47.151024 m 108.332000 48.000000 l 109.180078 47.715811 l s
1.000000 1.000000 1.000000 srgb
n 101.864640 69.000000 2.864641 3.000001 0 360 ellipse f
0.100000 slw
[] 0 sd
[] 0 sd
0 slj
0.000000 0.000000 0.000000 srgb
n 101.864640 69.000000 2.864641 3.000001 0 360 ellipse cp s
/Courier-latin1 ff 0.800000 scf sf
(populate) dup sw 2 div 101.864640 ex sub 68.434483 m gs 1 -1 sc sh gr
(edit) dup sw 2 div 101.864640 ex sub 69.234483 m gs 1 -1 sc sh gr
(template) dup sw 2 div 101.864640 ex sub 70.034483 m gs 1 -1 sc sh gr
1.000000 1.000000 1.000000 srgb
n 111.906500 55.906500 2.906500 2.906500 0 360 ellipse f
0.100000 slw
[] 0 sd
[] 0 sd
0 slj
0.000000 0.000000 0.000000 srgb
n 111.906500 55.906500 2.906500 2.906500 0 360 ellipse cp s
/Courier-latin1 ff 0.800000 scf sf
(populate) dup sw 2 div 111.906500 ex sub 55.340983 m gs 1 -1 sc sh gr
(login) dup sw 2 div 111.906500 ex sub 56.140983 m gs 1 -1 sc sh gr
(template) dup sw 2 div 111.906500 ex sub 56.940983 m gs 1 -1 sc sh gr
0.100000 slw
[] 0 sd
[] 0 sd
0 slc
n 113.665000 50.668700 m 111.906000 53.000000 l s
0.100000 slw
[] 0 sd
0 slj
0 slc
n 112.068536 52.120465 m 111.906000 53.000000 l 112.707150 52.602308 l s
1.000000 1.000000 1.000000 srgb
n 104.000000 73.000000 m 104.000000 75.000000 l 109.178400 75.000000 l 109.178400 73.000000 l f
0.100000 slw
[] 0 sd
[] 0 sd
0 slj
0.000000 0.000000 0.000000 srgb
n 104.000000 73.000000 m 104.000000 75.000000 l 109.178400 75.000000 l 109.178400 73.000000 l cp s
/Courier-latin1 ff 0.800000 scf sf
("commit") dup sw 2 div 106.589200 ex sub 74.234483 m gs 1 -1 sc sh gr
1.000000 1.000000 1.000000 srgb
n 110.000000 73.000000 m 110.000000 75.000000 l 115.178400 75.000000 l 115.178400 73.000000 l f
0.100000 slw
[] 0 sd
[] 0 sd
0 slj
0.000000 0.000000 0.000000 srgb
n 110.000000 73.000000 m 110.000000 75.000000 l 115.178400 75.000000 l 115.178400 73.000000 l cp s
/Courier-latin1 ff 0.800000 scf sf
("cancel") dup sw 2 div 112.589200 ex sub 74.234483 m gs 1 -1 sc sh gr
1.000000 1.000000 1.000000 srgb
n 116.000000 73.000000 m 116.000000 75.000000 l 121.178400 75.000000 l 121.178400 73.000000 l f
0.100000 slw
[] 0 sd
[] 0 sd
0 slj
0.000000 0.000000 0.000000 srgb
n 116.000000 73.000000 m 116.000000 75.000000 l 121.178400 75.000000 l 121.178400 73.000000 l cp s
/Courier-latin1 ff 0.800000 scf sf
("update") dup sw 2 div 118.589200 ex sub 74.234483 m gs 1 -1 sc sh gr
1.000000 1.000000 1.000000 srgb
n 122.000000 73.000000 m 122.000000 75.000000 l 127.178400 75.000000 l 127.178400 73.000000 l f
0.100000 slw
[] 0 sd
[] 0 sd
0 slj
0.000000 0.000000 0.000000 srgb
n 122.000000 73.000000 m 122.000000 75.000000 l 127.178400 75.000000 l 127.178400 73.000000 l cp s
/Courier-latin1 ff 0.800000 scf sf
("delete") dup sw 2 div 124.589200 ex sub 74.234483 m gs 1 -1 sc sh gr
1.000000 1.000000 1.000000 srgb
n 100.000000 73.000000 m 100.000000 75.000000 l 102.754400 75.000000 l 102.754400 73.000000 l f
0.100000 slw
[] 0 sd
[] 0 sd
0 slj
0.000000 0.000000 0.000000 srgb
n 100.000000 73.000000 m 100.000000 75.000000 l 102.754400 75.000000 l 102.754400 73.000000 l cp s
/Courier-latin1 ff 0.800000 scf sf
("*") dup sw 2 div 101.377200 ex sub 74.234483 m gs 1 -1 sc sh gr
0.100000 slw
[] 0 sd
[] 0 sd
0 slc
n 131.488000 67.000700 m 101.377200 73.000000 l s
0.100000 slw
[] 0 sd
0 slj
0 slc
n 102.083619 72.451390 m 101.377200 73.000000 l 102.239939 73.235969 l s
0.100000 slw
[] 0 sd
[] 0 sd
0 slc
n 131.488000 67.000700 m 106.589200 73.000000 l s
0.100000 slw
[] 0 sd
0 slj
0 slc
n 107.273245 72.423734 m 106.589200 73.000000 l 107.460640 73.201476 l s
0.100000 slw
[] 0 sd
[] 0 sd
0 slc
n 131.488000 67.000700 m 112.589200 73.000000 l s
0.100000 slw
[] 0 sd
0 slj
0 slc
n 113.230677 72.376697 m 112.589200 73.000000 l 113.472729 73.139200 l s
0.100000 slw
[] 0 sd
[] 0 sd
0 slc
n 131.488000 67.000700 m 118.589200 73.000000 l s
0.100000 slw
[] 0 sd
0 slj
0 slc
n 119.145891 72.299932 m 118.589200 73.000000 l 119.483269 73.025312 l s
0.100000 slw
[] 0 sd
[] 0 sd
0 slc
n 131.488000 67.000700 m 124.589200 73.000000 l s
0.100000 slw
[] 0 sd
0 slj
0 slc
n 124.930389 72.173205 m 124.589200 73.000000 l 125.455350 72.776875 l s
0.100000 slw
[] 0 sd
[] 0 sd
0 slc
n 131.488000 67.000700 m 130.589200 73.000000 l s
0.100000 slw
[] 0 sd
0 slj
0 slc
n 130.312146 72.149564 m 130.589200 73.000000 l 131.103316 72.268095 l s
0.100000 slw
[] 0 sd
[] 0 sd
0 slc
n 131.488000 67.000700 m 137.074000 73.000000 l s
0.100000 slw
[] 0 sd
0 slj
0 slc
n 136.236095 72.687086 m 137.074000 73.000000 l 136.821589 72.141927 l s
0.100000 slw
[] 0 sd
[] 0 sd
0 slc
n 131.488000 67.000700 m 145.528400 73.000000 l s
0.100000 slw
[] 0 sd
0 slj
0 slc
n 144.635574 73.053491 m 145.528400 73.000000 l 144.949912 72.317833 l s
0.100000 slw
[] 0 sd
[] 0 sd
0 slc
n 113.646000 39.807300 m 121.862000 41.000000 l s
0.100000 slw
[] 0 sd
0 slj
0 slc
n 121.012834 41.280921 m 121.862000 41.000000 l 121.127763 40.489220 l s
1.000000 1.000000 1.000000 srgb
n 105.987410 90.906500 2.987410 2.906500 0 360 ellipse f
0.100000 slw
[] 0 sd
[] 0 sd
0 slj
0.000000 0.000000 0.000000 srgb
n 105.987410 90.906500 2.987410 2.906500 0 360 ellipse cp s
/Courier-latin1 ff 0.800000 scf sf
(populate) dup sw 2 div 105.987410 ex sub 90.340983 m gs 1 -1 sc sh gr
(edit) dup sw 2 div 105.987410 ex sub 91.140983 m gs 1 -1 sc sh gr
(template) dup sw 2 div 105.987410 ex sub 91.940983 m gs 1 -1 sc sh gr
0.100000 slw
[] 0 sd
[] 0 sd
0 slc
n 105.559000 82.700000 m 105.988000 88.000000 l s
0.100000 slw
[] 0 sd
0 slj
0 slc
n 105.524760 87.234880 m 105.988000 88.000000 l 106.322152 87.170336 l s
0.100000 slw
[] 0 sd
[] 0 sd
0 slc
n 124.104000 34.000000 m 131.488000 63.000000 l s
0.100000 slw
[] 0 sd
0 slj
0 slc
n 130.902970 62.323435 m 131.488000 63.000000 l 131.678234 62.126037 l s
0.100000 slw
[] 0 sd
[] 0 sd
0 slc
n 132.803000 45.320700 m 132.316000 48.000000 l s
0.100000 slw
[] 0 sd
0 slj
0 slc
n 132.065515 47.141363 m 132.316000 48.000000 l 132.852619 47.284430 l s
1.000000 1.000000 1.000000 srgb
n 129.000000 48.000000 m 129.000000 50.700000 l 135.632800 50.700000 l 135.632800 48.000000 l f
0.100000 slw
[] 0 sd
[] 0 sd
0 slj
0.000000 0.000000 0.000000 srgb
n 129.000000 48.000000 m 129.000000 50.700000 l 135.632800 50.700000 l 135.632800 48.000000 l cp s
/Courier-latin1 ff 0.800000 scf sf
(commit) dup sw 2 div 132.316400 ex sub 49.184483 m gs 1 -1 sc sh gr
(Transaction) dup sw 2 div 132.316400 ex sub 49.984483 m gs 1 -1 sc sh gr
1.000000 1.000000 1.000000 srgb
n 136.080525 57.267625 2.515525 2.515525 0 360 ellipse f
0.100000 slw
[] 0 sd
[] 0 sd
0 slj
0.000000 0.000000 0.000000 srgb
n 136.080525 57.267625 2.515525 2.515525 0 360 ellipse cp s
/Courier-latin1 ff 0.800000 scf sf
(reload) dup sw 2 div 136.080525 ex sub 56.702108 m gs 1 -1 sc sh gr
(as) dup sw 2 div 136.080525 ex sub 57.502108 m gs 1 -1 sc sh gr
("edit") dup sw 2 div 136.080525 ex sub 58.302108 m gs 1 -1 sc sh gr
0.100000 slw
[] 0 sd
[] 0 sd
0 slc
n 132.316000 50.700000 m 136.081000 54.752100 l s
0.100000 slw
[] 0 sd
0 slj
0 slc
n 135.243425 54.438305 m 136.081000 54.752100 l 135.829491 53.893763 l s
1.000000 1.000000 1.000000 srgb
n 100.000000 61.000000 m 100.000000 63.700000 l 107.117600 63.700000 l 107.117600 61.000000 l f
0.100000 slw
[] 0 sd
[] 0 sd
0 slj
0.000000 0.000000 0.000000 srgb
n 100.000000 61.000000 m 100.000000 63.700000 l 107.117600 63.700000 l 107.117600 61.000000 l cp s
/Courier-latin1 ff 0.800000 scf sf
(sessionState) dup sw 2 div 103.558800 ex sub 62.184483 m gs 1 -1 sc sh gr
(= "edit") dup sw 2 div 103.558800 ex sub 62.984483 m gs 1 -1 sc sh gr
0.100000 slw
[] 0 sd
[] 0 sd
0 slc
n 103.559000 63.700000 m 101.865000 66.000000 l s
0.100000 slw
[] 0 sd
0 slj
0 slc
n 102.017354 65.118644 m 101.865000 66.000000 l 102.661497 65.593070 l s
1.000000 1.000000 1.000000 srgb
n 102.000000 80.000000 m 102.000000 82.700000 l 109.117600 82.700000 l 109.117600 80.000000 l f
0.100000 slw
[] 0 sd
[] 0 sd
0 slj
0.000000 0.000000 0.000000 srgb
n 102.000000 80.000000 m 102.000000 82.700000 l 109.117600 82.700000 l 109.117600 80.000000 l cp s
/Courier-latin1 ff 0.800000 scf sf
(sessionState) dup sw 2 div 105.558800 ex sub 81.184483 m gs 1 -1 sc sh gr
(= "edit") dup sw 2 div 105.558800 ex sub 81.984483 m gs 1 -1 sc sh gr
0.100000 slw
[] 0 sd
[] 0 sd
0 slc
n 101.377200 75.000000 m 105.559000 80.000000 l s
0.100000 slw
[] 0 sd
0 slj
0 slc
n 104.738926 79.642959 m 105.559000 80.000000 l 105.352588 79.129716 l s
0.100000 slw
[0.200000] 0 sd
[0.200000] 0 sd
0 slc
n 109.178400 74.000000 m 110.000000 74.000000 l s
0.100000 slw
[0.200000] 0 sd
[0.200000] 0 sd
0 slc
n 115.178400 74.000000 m 116.000000 74.000000 l s
0.100000 slw
[0.200000] 0 sd
[0.200000] 0 sd
0 slc
n 121.178400 74.000000 m 122.000000 74.000000 l s
0.100000 slw
[0.200000] 0 sd
[0.200000] 0 sd
0 slc
n 127.178400 74.000000 m 128.000000 74.000000 l s
0.100000 slw
[0.200000] 0 sd
[0.200000] 0 sd
0 slc
n 133.178400 74.000000 m 134.000000 74.000000 l s
0.100000 slw
[0.200000] 0 sd
[0.200000] 0 sd
0 slc
n 140.148000 74.000000 m 141.000000 74.000000 l s
0.100000 slw
[0.200000] 0 sd
[0.200000] 0 sd
0 slc
n 119.016000 41.950000 m 120.000000 41.950000 l s
1.000000 1.000000 1.000000 srgb
n 131.488025 63.000000 m 135.976050 65.000345 l 131.488025 67.000690 l 127.000000 65.000345 l f
0.100000 slw
[] 0 sd
[] 0 sd
0 slj
0.000000 0.000000 0.000000 srgb
n 131.488025 63.000000 m 135.976050 65.000345 l 131.488025 67.000690 l 127.000000 65.000345 l cp s
/Courier-latin1 ff 0.800000 scf sf
(viewState) dup sw 2 div 131.488025 ex sub 65.234828 m gs 1 -1 sc sh gr
1.000000 1.000000 1.000000 srgb
n 122.939065 26.000000 m 126.878131 28.115365 l 122.939065 30.230730 l 118.999999 28.115365 l f
0.100000 slw
[] 0 sd
[] 0 sd
0 slj
0.000000 0.000000 0.000000 srgb
n 122.939065 26.000000 m 126.878131 28.115365 l 122.939065 30.230730 l 118.999999 28.115365 l cp s
/Courier-latin1 ff 0.800000 scf sf
(lockType) dup sw 2 div 122.939065 ex sub 28.349848 m gs 1 -1 sc sh gr
1.000000 1.000000 1.000000 srgb
n 118.000000 32.000000 m 118.000000 34.000000 l 121.239200 34.000000 l 121.239200 32.000000 l f
0.100000 slw
[] 0 sd
[] 0 sd
0 slj
0.000000 0.000000 0.000000 srgb
n 118.000000 32.000000 m 118.000000 34.000000 l 121.239200 34.000000 l 121.239200 32.000000 l cp s
/Courier-latin1 ff 0.800000 scf sf
(none) dup sw 2 div 119.619600 ex sub 33.234483 m gs 1 -1 sc sh gr
1.000000 1.000000 1.000000 srgb
n 122.000000 32.000000 m 122.000000 34.000000 l 126.208800 34.000000 l 126.208800 32.000000 l f
0.100000 slw
[] 0 sd
[] 0 sd
0 slj
0.000000 0.000000 0.000000 srgb
n 122.000000 32.000000 m 122.000000 34.000000 l 126.208800 34.000000 l 126.208800 32.000000 l cp s
/Courier-latin1 ff 0.800000 scf sf
(update) dup sw 2 div 124.104400 ex sub 33.234483 m gs 1 -1 sc sh gr
1.000000 1.000000 1.000000 srgb
n 127.000000 32.000000 m 127.000000 34.000000 l 131.208800 34.000000 l 131.208800 32.000000 l f
0.100000 slw
[] 0 sd
[] 0 sd
0 slj
0.000000 0.000000 0.000000 srgb
n 127.000000 32.000000 m 127.000000 34.000000 l 131.208800 34.000000 l 131.208800 32.000000 l cp s
/Courier-latin1 ff 0.800000 scf sf
(delete) dup sw 2 div 129.104400 ex sub 33.234483 m gs 1 -1 sc sh gr
0.100000 slw
[0.200000] 0 sd
[0.200000] 0 sd
0 slc
n 121.239000 33.000000 m 122.000000 33.000000 l s
0.100000 slw
[0.200000] 0 sd
[0.200000] 0 sd
0 slc
n 126.209000 33.000000 m 127.000000 33.000000 l s
0.100000 slw
[] 0 sd
[] 0 sd
0 slc
n 122.939000 30.230700 m 119.620000 32.000000 l s
0.100000 slw
[] 0 sd
0 slj
0 slc
n 120.137790 31.270689 m 119.620000 32.000000 l 120.514122 31.976645 l s
0.100000 slw
[] 0 sd
[] 0 sd
0 slc
n 122.939000 30.230700 m 124.104000 32.000000 l s
0.100000 slw
[] 0 sd
0 slj
0 slc
n 123.329965 31.551814 m 124.104000 32.000000 l 123.998128 31.111861 l s
0.100000 slw
[] 0 sd
[] 0 sd
0 slc
n 122.939000 30.230700 m 129.104000 32.000000 l s
0.100000 slw
[] 0 sd
0 slj
0 slc
n 128.224698 32.163795 m 129.104000 32.000000 l 128.445383 31.394836 l s
1.000000 1.000000 1.000000 srgb
n 113.646025 35.806600 m 118.134050 37.806945 l 113.646025 39.807290 l 109.158000 37.806945 l f
0.100000 slw
[] 0 sd
[] 0 sd
0 slj
0.000000 0.000000 0.000000 srgb
n 113.646025 35.806600 m 118.134050 37.806945 l 113.646025 39.807290 l 109.158000 37.806945 l cp s
/Courier-latin1 ff 0.800000 scf sf
(viewState) dup sw 2 div 113.646025 ex sub 38.041428 m gs 1 -1 sc sh gr
1.000000 1.000000 1.000000 srgb
n 137.488025 37.000000 m 141.976050 39.000345 l 137.488025 41.000690 l 133.000000 39.000345 l f
0.100000 slw
[] 0 sd
[] 0 sd
0 slj
0.000000 0.000000 0.000000 srgb
n 137.488025 37.000000 m 141.976050 39.000345 l 137.488025 41.000690 l 133.000000 39.000345 l cp s
/Courier-latin1 ff 0.800000 scf sf
(viewState) dup sw 2 div 137.488025 ex sub 39.234828 m gs 1 -1 sc sh gr
1.000000 1.000000 1.000000 srgb
n 137.517000 43.320700 m 137.517000 45.320700 l 145.604200 45.320700 l 145.604200 43.320700 l f
0.100000 slw
[] 0 sd
[] 0 sd
0 slj
0.000000 0.000000 0.000000 srgb
n 137.517000 43.320700 m 137.517000 45.320700 l 145.604200 45.320700 l 145.604200 43.320700 l cp s
/Courier-latin1 ff 0.800000 scf sf
("cancelDelete") dup sw 2 div 141.560600 ex sub 44.555183 m gs 1 -1 sc sh gr
0.100000 slw
[0.200000] 0 sd
[0.200000] 0 sd
0 slc
n 137.089000 44.320700 m 137.517000 44.320700 l s
0.100000 slw
[] 0 sd
[] 0 sd
0 slc
n 137.488000 41.000700 m 132.803000 43.320700 l s
0.100000 slw
[] 0 sd
0 slj
0 slc
n 133.342407 42.607229 m 132.803000 43.320700 l 133.697421 43.324143 l s
0.100000 slw
[] 0 sd
[] 0 sd
0 slc
n 137.488000 41.000700 m 141.561000 43.320700 l s
0.100000 slw
[] 0 sd
0 slj
0 slc
n 140.667882 43.272315 m 141.561000 43.320700 l 141.063838 42.577175 l s
1.000000 1.000000 1.000000 srgb
n 136.000000 48.000000 m 136.000000 50.700000 l 142.632800 50.700000 l 142.632800 48.000000 l f
0.100000 slw
[] 0 sd
[] 0 sd
0 slj
0.000000 0.000000 0.000000 srgb
n 136.000000 48.000000 m 136.000000 50.700000 l 142.632800 50.700000 l 142.632800 48.000000 l cp s
/Courier-latin1 ff 0.800000 scf sf
(cancel) dup sw 2 div 139.316400 ex sub 49.184483 m gs 1 -1 sc sh gr
(Transaction) dup sw 2 div 139.316400 ex sub 49.984483 m gs 1 -1 sc sh gr
0.100000 slw
[] 0 sd
[] 0 sd
0 slc
n 141.561000 45.320700 m 139.316000 48.000000 l s
0.100000 slw
[] 0 sd
0 slj
0 slc
n 139.523202 47.129904 m 139.316000 48.000000 l 140.136398 47.643704 l s
0.100000 slw
[] 0 sd
[] 0 sd
0 slc
n 139.316000 50.700000 m 136.081000 54.752100 l s
0.100000 slw
[] 0 sd
0 slj
0 slc
n 136.267529 53.877339 m 136.081000 54.752100 l 136.892726 54.376466 l s
0.100000 slw
[0.200000] 0 sd
[0.200000] 0 sd
0 slc
n 102.754400 74.000000 m 104.000000 74.000000 l s
1.000000 1.000000 1.000000 srgb
n 107.000000 84.000000 m 107.000000 87.500000 l 113.632800 87.500000 l 113.632800 84.000000 l f
0.100000 slw
[] 0 sd
[] 0 sd
0 slj
0.000000 0.000000 0.000000 srgb
n 107.000000 84.000000 m 107.000000 87.500000 l 113.632800 87.500000 l 113.632800 84.000000 l cp s
/Courier-latin1 ff 0.800000 scf sf
(commit) dup sw 2 div 110.316400 ex sub 85.184483 m gs 1 -1 sc sh gr
(update) dup sw 2 div 110.316400 ex sub 85.984483 m gs 1 -1 sc sh gr
(Transaction) dup sw 2 div 110.316400 ex sub 86.784483 m gs 1 -1 sc sh gr
0.100000 slw
[] 0 sd
[] 0 sd
0 slc
n 106.589200 75.000000 m 110.317000 84.000000 l s
0.100000 slw
[] 0 sd
0 slj
0 slc
n 109.641308 83.413962 m 110.317000 84.000000 l 110.380415 83.107824 l s
1.000000 1.000000 1.000000 srgb
n 112.000000 80.000000 m 112.000000 83.500000 l 118.632800 83.500000 l 118.632800 80.000000 l f
0.100000 slw
[] 0 sd
[] 0 sd
0 slj
0.000000 0.000000 0.000000 srgb
n 112.000000 80.000000 m 112.000000 83.500000 l 118.632800 83.500000 l 118.632800 80.000000 l cp s
/Courier-latin1 ff 0.800000 scf sf
(cancel) dup sw 2 div 115.316400 ex sub 81.184483 m gs 1 -1 sc sh gr
(update) dup sw 2 div 115.316400 ex sub 81.984483 m gs 1 -1 sc sh gr
(Transaction) dup sw 2 div 115.316400 ex sub 82.784483 m gs 1 -1 sc sh gr
0.100000 slw
[] 0 sd
[] 0 sd
0 slc
n 112.589200 75.000000 m 115.317000 80.000000 l s
0.100000 slw
[] 0 sd
0 slj
0 slc
n 114.582719 79.489284 m 115.317000 80.000000 l 115.285004 79.106145 l s
1.000000 1.000000 1.000000 srgb
n 111.523540 103.523540 2.523540 2.523540 0 360 ellipse f
0.100000 slw
[] 0 sd
[] 0 sd
0 slj
0.000000 0.000000 0.000000 srgb
n 111.523540 103.523540 2.523540 2.523540 0 360 ellipse cp s
/Courier-latin1 ff 0.800000 scf sf
(reload) dup sw 2 div 111.523540 ex sub 102.958023 m gs 1 -1 sc sh gr
(as ) dup sw 2 div 111.523540 ex sub 103.758023 m gs 1 -1 sc sh gr
("read") dup sw 2 div 111.523540 ex sub 104.558023 m gs 1 -1 sc sh gr
0.100000 slw
[] 0 sd
[] 0 sd
0 slc
n 110.317000 87.500000 m 111.524000 101.000000 l s
0.100000 slw
[] 0 sd
0 slj
0 slc
n 111.054347 100.238799 m 111.524000 101.000000 l 111.851169 100.167558 l s
0.100000 slw
[] 0 sd
[] 0 sd
0 slc
n 115.317000 83.500000 m 111.524000 101.000000 l s
0.100000 slw
[] 0 sd
0 slj
0 slc
n 111.302536 100.133424 m 111.524000 101.000000 l 112.084383 100.302884 l s
1.000000 1.000000 1.000000 srgb
n 115.000000 88.000000 m 115.000000 91.500000 l 123.572000 91.500000 l 123.572000 88.000000 l f
0.100000 slw
[] 0 sd
[] 0 sd
0 slj
0.000000 0.000000 0.000000 srgb
n 115.000000 88.000000 m 115.000000 91.500000 l 123.572000 91.500000 l 123.572000 88.000000 l cp s
/Courier-latin1 ff 0.800000 scf sf
(update) dup sw 2 div 119.286000 ex sub 89.184483 m gs 1 -1 sc sh gr
(Transaction) dup sw 2 div 119.286000 ex sub 89.984483 m gs 1 -1 sc sh gr
(WritableRecords) dup sw 2 div 119.286000 ex sub 90.784483 m gs 1 -1 sc sh gr
0.100000 slw
[] 0 sd
[] 0 sd
0 slc
n 118.589200 75.000000 m 119.286000 88.000000 l s
0.100000 slw
[] 0 sd
0 slj
0 slc
n 118.843755 87.222556 m 119.286000 88.000000 l 119.642608 87.179737 l s
1.000000 1.000000 1.000000 srgb
n 115.987410 96.906500 2.987410 2.906500 0 360 ellipse f
0.100000 slw
[] 0 sd
[] 0 sd
0 slj
0.000000 0.000000 0.000000 srgb
n 115.987410 96.906500 2.987410 2.906500 0 360 ellipse cp s
/Courier-latin1 ff 0.800000 scf sf
(populate) dup sw 2 div 115.987410 ex sub 96.340983 m gs 1 -1 sc sh gr
(edit) dup sw 2 div 115.987410 ex sub 97.140983 m gs 1 -1 sc sh gr
(template) dup sw 2 div 115.987410 ex sub 97.940983 m gs 1 -1 sc sh gr
0.100000 slw
[] 0 sd
[] 0 sd
0 slc
n 119.286000 91.500000 m 115.987000 94.000000 l s
0.100000 slw
[] 0 sd
0 slj
0 slc
n 116.383014 93.198019 m 115.987000 94.000000 l 116.866193 93.835622 l s
1.000000 1.000000 1.000000 srgb
n 124.571440 92.000000 m 129.142880 95.346930 l 124.571440 98.693860 l 120.000000 95.346930 l f
0.100000 slw
[] 0 sd
[] 0 sd
0 slj
0.000000 0.000000 0.000000 srgb
n 124.571440 92.000000 m 129.142880 95.346930 l 124.571440 98.693860 l 120.000000 95.346930 l cp s
/Courier-latin1 ff 0.800000 scf sf
(has delete) dup sw 2 div 124.571440 ex sub 95.181413 m gs 1 -1 sc sh gr
(rights?) dup sw 2 div 124.571440 ex sub 95.981413 m gs 1 -1 sc sh gr
0.100000 slw
[] 0 sd
[] 0 sd
0 slc
n 124.589200 75.000000 m 125.316000 83.000000 l s
0.100000 slw
[] 0 sd
0 slj
0 slc
n 124.845259 82.239472 m 125.316000 83.000000 l 125.641978 82.167090 l s
1.000000 1.000000 1.000000 srgb
n 122.000000 83.000000 m 122.000000 86.500000 l 128.632800 86.500000 l 128.632800 83.000000 l f
0.100000 slw
[] 0 sd
[] 0 sd
0 slj
0.000000 0.000000 0.000000 srgb
n 122.000000 83.000000 m 122.000000 86.500000 l 128.632800 86.500000 l 128.632800 83.000000 l cp s
/Courier-latin1 ff 0.800000 scf sf
(cancel) dup sw 2 div 125.316400 ex sub 84.184483 m gs 1 -1 sc sh gr
(update) dup sw 2 div 125.316400 ex sub 84.984483 m gs 1 -1 sc sh gr
(Transaction) dup sw 2 div 125.316400 ex sub 85.784483 m gs 1 -1 sc sh gr
0.100000 slw
[] 0 sd
[] 0 sd
0 slc
n 124.571000 98.693900 m 119.316000 101.000000 l s
0.100000 slw
[] 0 sd
0 slj
0 slc
n 119.887826 100.312239 m 119.316000 101.000000 l 120.209304 101.044804 l s
1.000000 1.000000 1.000000 srgb
n 116.000000 101.000000 m 116.000000 104.500000 l 122.632800 104.500000 l 122.632800 101.000000 l f
0.100000 slw
[] 0 sd
[] 0 sd
0 slj
0.000000 0.000000 0.000000 srgb
n 116.000000 101.000000 m 116.000000 104.500000 l 122.632800 104.500000 l 122.632800 101.000000 l cp s
/Courier-latin1 ff 0.800000 scf sf
(create) dup sw 2 div 119.316400 ex sub 102.184483 m gs 1 -1 sc sh gr
(delete) dup sw 2 div 119.316400 ex sub 102.984483 m gs 1 -1 sc sh gr
(Transaction) dup sw 2 div 119.316400 ex sub 103.784483 m gs 1 -1 sc sh gr
0.100000 slw
[] 0 sd
[] 0 sd
0 slc
n 125.316000 86.500000 m 124.571000 92.000000 l s
0.100000 slw
[] 0 sd
0 slj
0 slc
n 124.282003 91.153548 m 124.571000 92.000000 l 125.074763 91.260931 l s
1.000000 1.000000 1.000000 srgb
n 114.906500 109.906500 2.906500 2.906500 0 360 ellipse f
0.100000 slw
[] 0 sd
[] 0 sd
0 slj
0.000000 0.000000 0.000000 srgb
n 114.906500 109.906500 2.906500 2.906500 0 360 ellipse cp s
/Courier-latin1 ff 0.800000 scf sf
(populate) dup sw 2 div 114.906500 ex sub 109.340983 m gs 1 -1 sc sh gr
(delete) dup sw 2 div 114.906500 ex sub 110.140983 m gs 1 -1 sc sh gr
(template) dup sw 2 div 114.906500 ex sub 110.940983 m gs 1 -1 sc sh gr
0.100000 slw
[] 0 sd
[] 0 sd
0 slc
n 119.316000 104.500000 m 114.907000 107.000000 l s
0.100000 slw
[] 0 sd
0 slj
0 slc
n 115.405613 106.257447 m 114.907000 107.000000 l 115.800210 106.953359 l s
1.000000 1.000000 1.000000 srgb
n 122.906500 108.906500 2.906500 2.906500 0 360 ellipse f
0.100000 slw
[] 0 sd
[] 0 sd
0 slj
0.000000 0.000000 0.000000 srgb
n 122.906500 108.906500 2.906500 2.906500 0 360 ellipse cp s
/Courier-latin1 ff 0.800000 scf sf
(populate) dup sw 2 div 122.906500 ex sub 108.340983 m gs 1 -1 sc sh gr
(login) dup sw 2 div 122.906500 ex sub 109.140983 m gs 1 -1 sc sh gr
(template) dup sw 2 div 122.906500 ex sub 109.940983 m gs 1 -1 sc sh gr
0.100000 slw
[] 0 sd
[] 0 sd
0 slc
n 129.143000 95.346900 m 122.906000 106.000000 l s
0.100000 slw
[] 0 sd
0 slj
0 slc
n 122.965002 105.107521 m 122.906000 106.000000 l 123.655385 105.511715 l s
0.100000 slw
[] 0 sd
[] 0 sd
0 slc
n 130.589200 75.000000 m 133.316000 79.000000 l s
0.100000 slw
[] 0 sd
0 slj
0 slc
n 132.534875 78.564290 m 133.316000 79.000000 l 133.195893 78.113674 l s
1.000000 1.000000 1.000000 srgb
n 130.000000 79.000000 m 130.000000 82.500000 l 136.632800 82.500000 l 136.632800 79.000000 l f
0.100000 slw
[] 0 sd
[] 0 sd
0 slj
0.000000 0.000000 0.000000 srgb
n 130.000000 79.000000 m 130.000000 82.500000 l 136.632800 82.500000 l 136.632800 79.000000 l cp s
/Courier-latin1 ff 0.800000 scf sf
(cancel) dup sw 2 div 133.316400 ex sub 80.184483 m gs 1 -1 sc sh gr
(update) dup sw 2 div 133.316400 ex sub 80.984483 m gs 1 -1 sc sh gr
(Transaction) dup sw 2 div 133.316400 ex sub 81.784483 m gs 1 -1 sc sh gr
0.100000 slw
[] 0 sd
[] 0 sd
0 slc
n 137.074000 75.000000 m 133.316000 79.000000 l s
0.100000 slw
[] 0 sd
0 slj
0 slc
n 133.572249 78.143066 m 133.316000 79.000000 l 134.155297 78.690839 l s
1.000000 1.000000 1.000000 srgb
n 130.480805 86.676800 m 134.895610 89.371180 l 130.480805 92.065560 l 126.066000 89.371180 l f
0.100000 slw
[] 0 sd
[] 0 sd
0 slj
0.000000 0.000000 0.000000 srgb
n 130.480805 86.676800 m 134.895610 89.371180 l 130.480805 92.065560 l 126.066000 89.371180 l cp s
/Courier-latin1 ff 0.800000 scf sf
(is valid) dup sw 2 div 130.480805 ex sub 89.205663 m gs 1 -1 sc sh gr
(move?) dup sw 2 div 130.480805 ex sub 90.005663 m gs 1 -1 sc sh gr
0.100000 slw
[] 0 sd
[] 0 sd
0 slc
n 133.316000 82.500000 m 130.481000 86.676800 l s
0.100000 slw
[] 0 sd
0 slj
0 slc
n 130.599319 85.790233 m 130.481000 86.676800 l 131.261245 86.239515 l s
1.000000 1.000000 1.000000 srgb
n 127.517000 99.872700 m 127.517000 103.372700 l 134.149800 103.372700 l 134.149800 99.872700 l f
0.100000 slw
[] 0 sd
[] 0 sd
0 slj
0.000000 0.000000 0.000000 srgb
n 127.517000 99.872700 m 127.517000 103.372700 l 134.149800 103.372700 l 134.149800 99.872700 l cp s
/Courier-latin1 ff 0.800000 scf sf
(create) dup sw 2 div 130.833400 ex sub 101.057183 m gs 1 -1 sc sh gr
(move) dup sw 2 div 130.833400 ex sub 101.857183 m gs 1 -1 sc sh gr
(Transaction) dup sw 2 div 130.833400 ex sub 102.657183 m gs 1 -1 sc sh gr
1.000000 1.000000 1.000000 srgb
n 127.484000 105.066000 m 127.484000 107.766000 l 133.147200 107.766000 l 133.147200 105.066000 l f
0.100000 slw
[] 0 sd
[] 0 sd
0 slj
0.000000 0.000000 0.000000 srgb
n 127.484000 105.066000 m 127.484000 107.766000 l 133.147200 107.766000 l 133.147200 105.066000 l cp s
/Courier-latin1 ff 0.800000 scf sf
(update) dup sw 2 div 130.315600 ex sub 106.250483 m gs 1 -1 sc sh gr
(numbering) dup sw 2 div 130.315600 ex sub 107.050483 m gs 1 -1 sc sh gr
1.000000 1.000000 1.000000 srgb
n 126.451000 109.486000 m 126.451000 112.986000 l 133.083800 112.986000 l 133.083800 109.486000 l f
0.100000 slw
[] 0 sd
[] 0 sd
0 slj
0.000000 0.000000 0.000000 srgb
n 126.451000 109.486000 m 126.451000 112.986000 l 133.083800 112.986000 l 133.083800 109.486000 l cp s
/Courier-latin1 ff 0.800000 scf sf
(commit) dup sw 2 div 129.767400 ex sub 110.670483 m gs 1 -1 sc sh gr
(move) dup sw 2 div 129.767400 ex sub 111.470483 m gs 1 -1 sc sh gr
(Transaction) dup sw 2 div 129.767400 ex sub 112.270483 m gs 1 -1 sc sh gr
1.000000 1.000000 1.000000 srgb
n 138.256525 110.938525 2.515525 2.515525 0 360 ellipse f
0.100000 slw
[] 0 sd
[] 0 sd
0 slj
0.000000 0.000000 0.000000 srgb
n 138.256525 110.938525 2.515525 2.515525 0 360 ellipse cp s
/Courier-latin1 ff 0.800000 scf sf
(reload) dup sw 2 div 138.256525 ex sub 110.373008 m gs 1 -1 sc sh gr
(as) dup sw 2 div 138.256525 ex sub 111.173008 m gs 1 -1 sc sh gr
("edit") dup sw 2 div 138.256525 ex sub 111.973008 m gs 1 -1 sc sh gr
0.100000 slw
[] 0 sd
[] 0 sd
0 slc
n 130.481000 92.065600 m 130.833000 99.872700 l s
0.100000 slw
[] 0 sd
0 slj
0 slc
n 130.397373 99.091528 m 130.833000 99.872700 l 131.196561 99.055495 l s
0.100000 slw
[] 0 sd
[] 0 sd
0 slc
n 130.833000 103.373000 m 130.316000 105.066000 l s
0.100000 slw
[] 0 sd
0 slj
0 slc
n 130.167089 104.184056 m 130.316000 105.066000 l 130.932208 104.417704 l s
0.100000 slw
[] 0 sd
[] 0 sd
0 slc
n 130.316000 107.766000 m 129.767000 109.486000 l s
0.100000 slw
[] 0 sd
0 slj
0 slc
n 129.629198 108.602252 m 129.767000 109.486000 l 130.391317 108.845510 l s
0.100000 slw
[] 0 sd
[] 0 sd
0 slc
n 133.084000 111.236000 m 135.741000 110.938000 l s
0.100000 slw
[] 0 sd
0 slj
0 slc
n 134.990568 111.424674 m 135.741000 110.938000 l 134.901402 110.629659 l s
1.000000 1.000000 1.000000 srgb
n 138.000000 79.000000 m 138.000000 82.500000 l 144.632800 82.500000 l 144.632800 79.000000 l f
0.100000 slw
[] 0 sd
[] 0 sd
0 slj
0.000000 0.000000 0.000000 srgb
n 138.000000 79.000000 m 138.000000 82.500000 l 144.632800 82.500000 l 144.632800 79.000000 l cp s
/Courier-latin1 ff 0.800000 scf sf
(cancel) dup sw 2 div 141.316400 ex sub 80.184483 m gs 1 -1 sc sh gr
(update) dup sw 2 div 141.316400 ex sub 80.984483 m gs 1 -1 sc sh gr
(Transaction) dup sw 2 div 141.316400 ex sub 81.784483 m gs 1 -1 sc sh gr
0.100000 slw
[] 0 sd
[] 0 sd
0 slc
n 145.528400 75.000000 m 141.316000 79.000000 l s
0.100000 slw
[] 0 sd
0 slj
0 slc
n 141.620687 78.159068 m 141.316000 79.000000 l 142.171557 78.739190 l s
1.000000 1.000000 1.000000 srgb
n 134.552500 95.392400 2.906500 2.906500 0 360 ellipse f
0.100000 slw
[] 0 sd
[] 0 sd
0 slj
0.000000 0.000000 0.000000 srgb
n 134.552500 95.392400 2.906500 2.906500 0 360 ellipse cp s
/Courier-latin1 ff 0.800000 scf sf
(populate) dup sw 2 div 134.552500 ex sub 94.826883 m gs 1 -1 sc sh gr
(error) dup sw 2 div 134.552500 ex sub 95.626883 m gs 1 -1 sc sh gr
(template) dup sw 2 div 134.552500 ex sub 96.426883 m gs 1 -1 sc sh gr
0.100000 slw
[] 0 sd
[] 0 sd
0 slc
n 134.896000 89.371200 m 134.553000 92.485900 l s
0.100000 slw
[] 0 sd
0 slj
0 slc
n 134.242973 91.646923 m 134.553000 92.485900 l 135.038165 91.734492 l s
1.000000 1.000000 1.000000 srgb
n 140.541560 84.000000 m 145.083120 86.944405 l 140.541560 89.888810 l 136.000000 86.944405 l f
0.100000 slw
[] 0 sd
[] 0 sd
0 slj
0.000000 0.000000 0.000000 srgb
n 140.541560 84.000000 m 145.083120 86.944405 l 140.541560 89.888810 l 136.000000 86.944405 l cp s
/Courier-latin1 ff 0.800000 scf sf
(is valid) dup sw 2 div 140.541560 ex sub 86.778888 m gs 1 -1 sc sh gr
(filename?) dup sw 2 div 140.541560 ex sub 87.578888 m gs 1 -1 sc sh gr
0.100000 slw
[] 0 sd
[] 0 sd
0 slc
n 141.316000 82.500000 m 140.542000 84.000000 l s
0.100000 slw
[] 0 sd
0 slj
0 slc
n 140.553375 83.105645 m 140.542000 84.000000 l 141.264309 83.472487 l s
1.000000 1.000000 1.000000 srgb
n 138.000000 92.000000 m 138.000000 95.500000 l 144.632800 95.500000 l 144.632800 92.000000 l f
0.100000 slw
[] 0 sd
[] 0 sd
0 slj
0.000000 0.000000 0.000000 srgb
n 138.000000 92.000000 m 138.000000 95.500000 l 144.632800 95.500000 l 144.632800 92.000000 l cp s
/Courier-latin1 ff 0.800000 scf sf
(create) dup sw 2 div 141.316400 ex sub 93.184483 m gs 1 -1 sc sh gr
(filename) dup sw 2 div 141.316400 ex sub 93.984483 m gs 1 -1 sc sh gr
(Transaction) dup sw 2 div 141.316400 ex sub 94.784483 m gs 1 -1 sc sh gr
0.100000 slw
[] 0 sd
[] 0 sd
0 slc
n 140.542000 89.888800 m 141.316000 92.000000 l s
0.100000 slw
[] 0 sd
0 slj
0 slc
n 140.665073 91.386572 m 141.316000 92.000000 l 141.416186 91.111202 l s
1.000000 1.000000 1.000000 srgb
n 137.194000 98.325600 m 137.194000 101.025600 l 142.372400 101.025600 l 142.372400 98.325600 l f
0.100000 slw
[] 0 sd
[] 0 sd
0 slj
0.000000 0.000000 0.000000 srgb
n 137.194000 98.325600 m 137.194000 101.025600 l 142.372400 101.025600 l 142.372400 98.325600 l cp s
/Courier-latin1 ff 0.800000 scf sf
(update) dup sw 2 div 139.783200 ex sub 99.510083 m gs 1 -1 sc sh gr
(filename) dup sw 2 div 139.783200 ex sub 100.310083 m gs 1 -1 sc sh gr
0.100000 slw
[] 0 sd
[] 0 sd
0 slc
n 141.316000 95.500000 m 139.783000 98.325600 l s
0.100000 slw
[] 0 sd
0 slj
0 slc
n 139.812913 97.431673 m 139.783000 98.325600 l 140.516089 97.813174 l s
1.000000 1.000000 1.000000 srgb
n 135.160000 102.843000 m 135.160000 106.343000 l 141.792800 106.343000 l 141.792800 102.843000 l f
0.100000 slw
[] 0 sd
[] 0 sd
0 slj
0.000000 0.000000 0.000000 srgb
n 135.160000 102.843000 m 135.160000 106.343000 l 141.792800 106.343000 l 141.792800 102.843000 l cp s
/Courier-latin1 ff 0.800000 scf sf
(commit) dup sw 2 div 138.476400 ex sub 104.027483 m gs 1 -1 sc sh gr
(filename) dup sw 2 div 138.476400 ex sub 104.827483 m gs 1 -1 sc sh gr
(Transaction) dup sw 2 div 138.476400 ex sub 105.627483 m gs 1 -1 sc sh gr
0.100000 slw
[] 0 sd
[] 0 sd
0 slc
n 139.783000 101.026000 m 138.476000 102.843000 l s
0.100000 slw
[] 0 sd
0 slj
0 slc
n 138.618433 101.959987 m 138.476000 102.843000 l 139.267871 102.427138 l s
0.100000 slw
[] 0 sd
[] 0 sd
0 slc
n 138.476000 106.343000 m 138.257000 108.423000 l s
0.100000 slw
[] 0 sd
0 slj
0 slc
n 137.942967 107.585514 m 138.257000 108.423000 l 138.738569 107.669282 l s
0.100000 slw
[] 0 sd
[] 0 sd
0 slc
n 117.639000 42.950000 m 117.316000 45.000000 l s
0.100000 slw
[] 0 sd
0 slj
0 slc
n 117.045387 44.147493 m 117.316000 45.000000 l 117.835638 44.272005 l s
1.000000 1.000000 1.000000 srgb
n 146.003500 99.295700 2.906500 2.906500 0 360 ellipse f
0.100000 slw
[] 0 sd
[] 0 sd
0 slj
0.000000 0.000000 0.000000 srgb
n 146.003500 99.295700 2.906500 2.906500 0 360 ellipse cp s
/Courier-latin1 ff 0.800000 scf sf
(populate) dup sw 2 div 146.003500 ex sub 98.730183 m gs 1 -1 sc sh gr
(error) dup sw 2 div 146.003500 ex sub 99.530183 m gs 1 -1 sc sh gr
(template) dup sw 2 div 146.003500 ex sub 100.330183 m gs 1 -1 sc sh gr
0.100000 slw
[] 0 sd
[] 0 sd
0 slc
n 145.083000 86.944400 m 146.004000 96.389200 l s
0.100000 slw
[] 0 sd
0 slj
0 slc
n 145.528245 95.631798 m 146.004000 96.389200 l 146.324469 95.554155 l s
1.000000 1.000000 1.000000 srgb
n 121.967050 52.000000 m 125.934100 54.702535 l 121.967050 57.405070 l 118.000000 54.702535 l f
0.100000 slw
[] 0 sd
[] 0 sd
0 slj
0.000000 0.000000 0.000000 srgb
n 121.967050 52.000000 m 125.934100 54.702535 l 121.967050 57.405070 l 118.000000 54.702535 l cp s
/Courier-latin1 ff 0.800000 scf sf
(has add) dup sw 2 div 121.967050 ex sub 54.537018 m gs 1 -1 sc sh gr
(rights?) dup sw 2 div 121.967050 ex sub 55.337018 m gs 1 -1 sc sh gr
1.000000 1.000000 1.000000 srgb
n 121.000000 59.000000 m 121.000000 61.000000 l 126.178400 61.000000 l 126.178400 59.000000 l f
0.100000 slw
[] 0 sd
[] 0 sd
0 slj
0.000000 0.000000 0.000000 srgb
n 121.000000 59.000000 m 121.000000 61.000000 l 126.178400 61.000000 l 126.178400 59.000000 l cp s
/Courier-latin1 ff 0.800000 scf sf
(add Node) dup sw 2 div 123.589200 ex sub 60.234483 m gs 1 -1 sc sh gr
1.000000 1.000000 1.000000 srgb
n 120.000000 63.000000 m 120.000000 65.700000 l 126.632800 65.700000 l 126.632800 63.000000 l f
0.100000 slw
[] 0 sd
[] 0 sd
0 slj
0.000000 0.000000 0.000000 srgb
n 120.000000 63.000000 m 120.000000 65.700000 l 126.632800 65.700000 l 126.632800 63.000000 l cp s
/Courier-latin1 ff 0.800000 scf sf
(release) dup sw 2 div 123.316400 ex sub 64.184483 m gs 1 -1 sc sh gr
(NodeGroup) dup sw 2 div 123.316400 ex sub 64.984483 m gs 1 -1 sc sh gr
1.000000 1.000000 1.000000 srgb
n 113.958580 66.411580 3.538580 3.538580 0 360 ellipse f
0.100000 slw
[] 0 sd
[] 0 sd
0 slj
0.000000 0.000000 0.000000 srgb
n 113.958580 66.411580 3.538580 3.538580 0 360 ellipse cp s
/Courier-latin1 ff 0.800000 scf sf
(reload) dup sw 2 div 113.958580 ex sub 65.846063 m gs 1 -1 sc sh gr
(new node as) dup sw 2 div 113.958580 ex sub 66.646063 m gs 1 -1 sc sh gr
("edit") dup sw 2 div 113.958580 ex sub 67.446063 m gs 1 -1 sc sh gr
0.100000 slw
[] 0 sd
[] 0 sd
0 slc
n 121.967000 57.405100 m 123.589000 59.000000 l s
0.100000 slw
[] 0 sd
0 slj
0 slc
n 122.738119 58.724315 m 123.589000 59.000000 l 123.299019 58.153885 l s
0.100000 slw
[] 0 sd
[] 0 sd
0 slc
n 123.589000 61.000000 m 123.316000 63.000000 l s
0.100000 slw
[] 0 sd
0 slj
0 slc
n 123.027872 62.153252 m 123.316000 63.000000 l 123.820522 62.261449 l s
0.100000 slw
[] 0 sd
[] 0 sd
0 slc
n 120.000000 64.350000 m 117.497000 66.411600 l s
0.100000 slw
[] 0 sd
0 slj
0 slc
n 117.860202 65.594236 m 117.497000 66.411600 l 118.368813 66.211743 l s
1.000000 1.000000 1.000000 srgb
n 116.906500 59.906500 2.906500 2.906500 0 360 ellipse f
0.100000 slw
[] 0 sd
[] 0 sd
0 slj
0.000000 0.000000 0.000000 srgb
n 116.906500 59.906500 2.906500 2.906500 0 360 ellipse cp s
/Courier-latin1 ff 0.800000 scf sf
(populate) dup sw 2 div 116.906500 ex sub 59.340983 m gs 1 -1 sc sh gr
(login) dup sw 2 div 116.906500 ex sub 60.140983 m gs 1 -1 sc sh gr
(template) dup sw 2 div 116.906500 ex sub 60.940983 m gs 1 -1 sc sh gr
0.100000 slw
[] 0 sd
[] 0 sd
0 slc
n 118.000000 54.702500 m 116.906000 57.000000 l s
0.100000 slw
[] 0 sd
0 slj
0 slc
n 116.888788 56.105738 m 116.906000 57.000000 l 117.611082 56.449673 l s
0.100000 slw
[] 0 sd
[] 0 sd
0 slj
0 slc
n 128.589000 16.000000 m 128.589000 12.350000 l 107.663000 12.350000 l s
0.100000 slw
[] 0 sd
0 slj
0 slc
n 108.463000 11.950000 m 107.663000 12.350000 l 108.463000 12.750000 l s
1.000000 1.000000 1.000000 srgb
n 92.488025 16.000000 m 96.976050 18.000345 l 92.488025 20.000690 l 88.000000 18.000345 l f
0.100000 slw
[] 0 sd
[] 0 sd
0 slj
0.000000 0.000000 0.000000 srgb
n 92.488025 16.000000 m 96.976050 18.000345 l 92.488025 20.000690 l 88.000000 18.000345 l cp s
/Courier-latin1 ff 0.800000 scf sf
(viewState) dup sw 2 div 92.488025 ex sub 18.234828 m gs 1 -1 sc sh gr
0.100000 slw
[] 0 sd
[] 0 sd
0 slc
n 119.620000 34.000000 m 113.646000 35.806600 l s
0.100000 slw
[] 0 sd
0 slj
0 slc
n 114.295966 35.192153 m 113.646000 35.806600 l 114.527537 35.957904 l s
0.100000 slw
[] 0 sd
[] 0 sd
0 slc
n 129.104000 34.000000 m 137.488000 37.000000 l s
0.100000 slw
[] 0 sd
0 slj
0 slc
n 136.600007 37.107091 m 137.488000 37.000000 l 136.869531 36.353860 l s
1.000000 1.000000 1.000000 srgb
n 145.423500 57.227200 2.906500 2.906500 0 360 ellipse f
0.100000 slw
[] 0 sd
[] 0 sd
0 slj
0.000000 0.000000 0.000000 srgb
n 145.423500 57.227200 2.906500 2.906500 0 360 ellipse cp s
/Courier-latin1 ff 0.800000 scf sf
(populate) dup sw 2 div 145.423500 ex sub 56.661683 m gs 1 -1 sc sh gr
(delete) dup sw 2 div 145.423500 ex sub 57.461683 m gs 1 -1 sc sh gr
(template) dup sw 2 div 145.423500 ex sub 58.261683 m gs 1 -1 sc sh gr
1.000000 1.000000 1.000000 srgb
n 146.517000 43.320700 m 146.517000 45.320700 l 149.271400 45.320700 l 149.271400 43.320700 l f
0.100000 slw
[] 0 sd
[] 0 sd
0 slj
0.000000 0.000000 0.000000 srgb
n 146.517000 43.320700 m 146.517000 45.320700 l 149.271400 45.320700 l 149.271400 43.320700 l cp s
/Courier-latin1 ff 0.800000 scf sf
("*") dup sw 2 div 147.894200 ex sub 44.555183 m gs 1 -1 sc sh gr
0.100000 slw
[0.200000] 0 sd
[0.200000] 0 sd
0 slc
n 146.517000 44.320700 m 145.604000 44.320700 l s
0.100000 slw
[] 0 sd
[] 0 sd
0 slc
n 147.894000 45.320700 m 145.423000 54.320700 l s
0.100000 slw
[] 0 sd
0 slj
0 slc
n 145.249080 53.443345 m 145.423000 54.320700 l 146.020532 53.655151 l s
1.000000 1.000000 1.000000 srgb
n 114.000000 45.000000 m 114.000000 47.700000 l 120.632800 47.700000 l 120.632800 45.000000 l f
0.100000 slw
[] 0 sd
[] 0 sd
0 slj
0.000000 0.000000 0.000000 srgb
n 114.000000 45.000000 m 114.000000 47.700000 l 120.632800 47.700000 l 120.632800 45.000000 l cp s
/Courier-latin1 ff 0.800000 scf sf
(lock) dup sw 2 div 117.316400 ex sub 46.184483 m gs 1 -1 sc sh gr
(NodeGroup) dup sw 2 div 117.316400 ex sub 46.984483 m gs 1 -1 sc sh gr
0.100000 slw
[] 0 sd
[] 0 sd
0 slc
n 117.316000 47.700000 m 121.967000 52.000000 l s
0.100000 slw
[] 0 sd
0 slj
0 slc
n 121.108041 51.750623 m 121.967000 52.000000 l 121.651126 51.163206 l s
0.100000 slw
[] 0 sd
[] 0 sd
0 slc
n 90.346800 23.000000 m 90.511120 70.000000 l s
0.100000 slw
[] 0 sd
0 slj
0 slc
n 90.108326 69.201403 m 90.511120 70.000000 l 90.908321 69.198606 l s
0.100000 slw
[] 0 sd
[] 0 sd
0 slc
n 101.377200 23.000000 m 122.939065 26.000000 l s
0.100000 slw
[] 0 sd
0 slj
0 slc
n 122.091575 26.285938 m 122.939065 26.000000 l 122.201821 25.493570 l s
showpage
