%!PS-Adobe-2.0 EPSF-2.0
%%Title: /home/alex/cord/org.cord/docs/SimpleText-uml.dia
%%Creator: Dia v0.88.1
%%CreationDate: Sat Oct 19 17:45:20 2002
%%For: a user
%%Magnification: 1.0000
%%Orientation: Portrait
%%BoundingBox: 0 0 214 185
%%Pages: 1
%%BeginSetup
%%EndSetup
%%EndComments
%%BeginProlog
[ /.notdef /.notdef /.notdef /.notdef /.notdef /.notdef /.notdef /.notdef /.notdef /.notdef
/.notdef /.notdef /.notdef /.notdef /.notdef /.notdef /.notdef /.notdef /.notdef /.notdef
/.notdef /.notdef /.notdef /.notdef /.notdef /.notdef /.notdef /.notdef /.notdef /.notdef
/.notdef /.notdef /space /exclam /quotedbl /numbersign /dollar /percent /ampersand /quoteright
/parenleft /parenright /asterisk /plus /comma /hyphen /period /slash /zero /one
/two /three /four /five /six /seven /eight /nine /colon /semicolon
/less /equal /greater /question /at /A /B /C /D /E
/F /G /H /I /J /K /L /M /N /O
/P /Q /R /S /T /U /V /W /X /Y
/Z /bracketleft /backslash /bracketright /asciicircum /underscore /quoteleft /a /b /c
/d /e /f /g /h /i /j /k /l /m
/n /o /p /q /r /s /t /u /v /w
/x /y /z /braceleft /bar /braceright /asciitilde /.notdef /.notdef /.notdef
/.notdef /.notdef /.notdef /.notdef /.notdef /.notdef /.notdef /.notdef /.notdef /.notdef
/.notdef /.notdef /.notdef /.notdef /.notdef /.notdef /.notdef /.notdef /.notdef /.notdef
/.notdef /.notdef /.notdef /.notdef /.notdef /.notdef /.notdef /.notdef /.notdef /.notdef
/space /exclamdown /cent /sterling /currency /yen /brokenbar /section /dieresis /copyright
/ordfeminine /guillemotleft /logicalnot /hyphen /registered /macron /degree /plusminus /twosuperior /threesuperior
/acute /mu /paragraph /periodcentered /cedilla /onesuperior /ordmasculine /guillemotright /onequarter /onehalf
/threequarters /questiondown /Agrave /Aacute /Acircumflex /Atilde /Adieresis /Aring /AE /Ccedilla
/Egrave /Eacute /Ecircumflex /Edieresis /Igrave /Iacute /Icircumflex /Idieresis /Eth /Ntilde
/Ograve /Oacute /Ocircumflex /Otilde /Odieresis /multiply /Oslash /Ugrave /Uacute /Ucircumflex
/Udieresis /Yacute /Thorn /germandbls /agrave /aacute /acircumflex /atilde /adieresis /aring
/ae /ccedilla /egrave /eacute /ecircumflex /edieresis /igrave /iacute /icircumflex /idieresis
/eth /ntilde /ograve /oacute /ocircumflex /otilde /odieresis /divide /oslash /ugrave
/uacute /ucircumflex /udieresis /yacute /thorn /ydieresis] /isolatin1encoding exch def
/Times-Roman-latin1
    /Times-Roman findfont
    dup length dict begin
	{1 index /FID ne {def} {pop pop} ifelse} forall
	/Encoding isolatin1encoding def
    currentdict end
definefont pop
/Times-Italic-latin1
    /Times-Italic findfont
    dup length dict begin
	{1 index /FID ne {def} {pop pop} ifelse} forall
	/Encoding isolatin1encoding def
    currentdict end
definefont pop
/Times-Bold-latin1
    /Times-Bold findfont
    dup length dict begin
	{1 index /FID ne {def} {pop pop} ifelse} forall
	/Encoding isolatin1encoding def
    currentdict end
definefont pop
/Times-BoldItalic-latin1
    /Times-BoldItalic findfont
    dup length dict begin
	{1 index /FID ne {def} {pop pop} ifelse} forall
	/Encoding isolatin1encoding def
    currentdict end
definefont pop
/AvantGarde-Book-latin1
    /AvantGarde-Book findfont
    dup length dict begin
	{1 index /FID ne {def} {pop pop} ifelse} forall
	/Encoding isolatin1encoding def
    currentdict end
definefont pop
/AvantGarde-BookOblique-latin1
    /AvantGarde-BookOblique findfont
    dup length dict begin
	{1 index /FID ne {def} {pop pop} ifelse} forall
	/Encoding isolatin1encoding def
    currentdict end
definefont pop
/AvantGarde-Demi-latin1
    /AvantGarde-Demi findfont
    dup length dict begin
	{1 index /FID ne {def} {pop pop} ifelse} forall
	/Encoding isolatin1encoding def
    currentdict end
definefont pop
/AvantGarde-DemiOblique-latin1
    /AvantGarde-DemiOblique findfont
    dup length dict begin
	{1 index /FID ne {def} {pop pop} ifelse} forall
	/Encoding isolatin1encoding def
    currentdict end
definefont pop
/Bookman-Light-latin1
    /Bookman-Light findfont
    dup length dict begin
	{1 index /FID ne {def} {pop pop} ifelse} forall
	/Encoding isolatin1encoding def
    currentdict end
definefont pop
/Bookman-LightItalic-latin1
    /Bookman-LightItalic findfont
    dup length dict begin
	{1 index /FID ne {def} {pop pop} ifelse} forall
	/Encoding isolatin1encoding def
    currentdict end
definefont pop
/Bookman-Demi-latin1
    /Bookman-Demi findfont
    dup length dict begin
	{1 index /FID ne {def} {pop pop} ifelse} forall
	/Encoding isolatin1encoding def
    currentdict end
definefont pop
/Bookman-DemiItalic-latin1
    /Bookman-DemiItalic findfont
    dup length dict begin
	{1 index /FID ne {def} {pop pop} ifelse} forall
	/Encoding isolatin1encoding def
    currentdict end
definefont pop
/Courier-latin1
    /Courier findfont
    dup length dict begin
	{1 index /FID ne {def} {pop pop} ifelse} forall
	/Encoding isolatin1encoding def
    currentdict end
definefont pop
/Courier-Oblique-latin1
    /Courier-Oblique findfont
    dup length dict begin
	{1 index /FID ne {def} {pop pop} ifelse} forall
	/Encoding isolatin1encoding def
    currentdict end
definefont pop
/Courier-Bold-latin1
    /Courier-Bold findfont
    dup length dict begin
	{1 index /FID ne {def} {pop pop} ifelse} forall
	/Encoding isolatin1encoding def
    currentdict end
definefont pop
/Courier-BoldOblique-latin1
    /Courier-BoldOblique findfont
    dup length dict begin
	{1 index /FID ne {def} {pop pop} ifelse} forall
	/Encoding isolatin1encoding def
    currentdict end
definefont pop
/Helvetica-latin1
    /Helvetica findfont
    dup length dict begin
	{1 index /FID ne {def} {pop pop} ifelse} forall
	/Encoding isolatin1encoding def
    currentdict end
definefont pop
/Helvetica-Oblique-latin1
    /Helvetica-Oblique findfont
    dup length dict begin
	{1 index /FID ne {def} {pop pop} ifelse} forall
	/Encoding isolatin1encoding def
    currentdict end
definefont pop
/Helvetica-Bold-latin1
    /Helvetica-Bold findfont
    dup length dict begin
	{1 index /FID ne {def} {pop pop} ifelse} forall
	/Encoding isolatin1encoding def
    currentdict end
definefont pop
/Helvetica-BoldOblique-latin1
    /Helvetica-BoldOblique findfont
    dup length dict begin
	{1 index /FID ne {def} {pop pop} ifelse} forall
	/Encoding isolatin1encoding def
    currentdict end
definefont pop
/Helvetica-Narrow-latin1
    /Helvetica-Narrow findfont
    dup length dict begin
	{1 index /FID ne {def} {pop pop} ifelse} forall
	/Encoding isolatin1encoding def
    currentdict end
definefont pop
/Helvetica-Narrow-Oblique-latin1
    /Helvetica-Narrow-Oblique findfont
    dup length dict begin
	{1 index /FID ne {def} {pop pop} ifelse} forall
	/Encoding isolatin1encoding def
    currentdict end
definefont pop
/Helvetica-Narrow-Bold-latin1
    /Helvetica-Narrow-Bold findfont
    dup length dict begin
	{1 index /FID ne {def} {pop pop} ifelse} forall
	/Encoding isolatin1encoding def
    currentdict end
definefont pop
/Helvetica-Narrow-BoldOblique-latin1
    /Helvetica-Narrow-BoldOblique findfont
    dup length dict begin
	{1 index /FID ne {def} {pop pop} ifelse} forall
	/Encoding isolatin1encoding def
    currentdict end
definefont pop
/NewCenturySchoolbook-Roman-latin1
    /NewCenturySchoolbook-Roman findfont
    dup length dict begin
	{1 index /FID ne {def} {pop pop} ifelse} forall
	/Encoding isolatin1encoding def
    currentdict end
definefont pop
/NewCenturySchoolbook-Italic-latin1
    /NewCenturySchoolbook-Italic findfont
    dup length dict begin
	{1 index /FID ne {def} {pop pop} ifelse} forall
	/Encoding isolatin1encoding def
    currentdict end
definefont pop
/NewCenturySchoolbook-Bold-latin1
    /NewCenturySchoolbook-Bold findfont
    dup length dict begin
	{1 index /FID ne {def} {pop pop} ifelse} forall
	/Encoding isolatin1encoding def
    currentdict end
definefont pop
/NewCenturySchoolbook-BoldItalic-latin1
    /NewCenturySchoolbook-BoldItalic findfont
    dup length dict begin
	{1 index /FID ne {def} {pop pop} ifelse} forall
	/Encoding isolatin1encoding def
    currentdict end
definefont pop
/Palatino-Roman-latin1
    /Palatino-Roman findfont
    dup length dict begin
	{1 index /FID ne {def} {pop pop} ifelse} forall
	/Encoding isolatin1encoding def
    currentdict end
definefont pop
/Palatino-Italic-latin1
    /Palatino-Italic findfont
    dup length dict begin
	{1 index /FID ne {def} {pop pop} ifelse} forall
	/Encoding isolatin1encoding def
    currentdict end
definefont pop
/Palatino-Bold-latin1
    /Palatino-Bold findfont
    dup length dict begin
	{1 index /FID ne {def} {pop pop} ifelse} forall
	/Encoding isolatin1encoding def
    currentdict end
definefont pop
/Palatino-BoldItalic-latin1
    /Palatino-BoldItalic findfont
    dup length dict begin
	{1 index /FID ne {def} {pop pop} ifelse} forall
	/Encoding isolatin1encoding def
    currentdict end
definefont pop
/Symbol-latin1
    /Symbol findfont
definefont pop
/ZapfChancery-MediumItalic-latin1
    /ZapfChancery-MediumItalic findfont
    dup length dict begin
	{1 index /FID ne {def} {pop pop} ifelse} forall
	/Encoding isolatin1encoding def
    currentdict end
definefont pop
/ZapfDingbats-latin1
    /ZapfDingbats findfont
definefont pop
/Ryumin-Light-EUC-H-latin1
    /Ryumin-Light-EUC-H findfont
definefont pop
/GothicBBB-Medium-EUC-H-latin1
    /GothicBBB-Medium-EUC-H findfont
definefont pop
/cp {closepath} bind def
/c {curveto} bind def
/f {fill} bind def
/a {arc} bind def
/ef {eofill} bind def
/ex {exch} bind def
/gr {grestore} bind def
/gs {gsave} bind def
/sa {save} bind def
/rs {restore} bind def
/l {lineto} bind def
/m {moveto} bind def
/rm {rmoveto} bind def
/n {newpath} bind def
/s {stroke} bind def
/sh {show} bind def
/slc {setlinecap} bind def
/slj {setlinejoin} bind def
/slw {setlinewidth} bind def
/srgb {setrgbcolor} bind def
/rot {rotate} bind def
/sc {scale} bind def
/sd {setdash} bind def
/ff {findfont} bind def
/sf {setfont} bind def
/scf {scalefont} bind def
/sw {stringwidth pop} bind def
/tr {translate} bind def

/ellipsedict 8 dict def
ellipsedict /mtrx matrix put
/ellipse
{ ellipsedict begin
   /endangle exch def
   /startangle exch def
   /yrad exch def
   /xrad exch def
   /y exch def
   /x exch def   /savematrix mtrx currentmatrix def
   x y tr xrad yrad sc
   0 0 1 startangle endangle arc
   savematrix setmatrix
   end
} def

/mergeprocs {
dup length
3 -1 roll
dup
length
dup
5 1 roll
3 -1 roll
add
array cvx
dup
3 -1 roll
0 exch
putinterval
dup
4 2 roll
putinterval
} bind def
8.503800 -8.503800 scale
-0.950000 -22.700000 translate
%%EndProlog


0.100000 slw
[] 0 sd
1.000000 1.000000 1.000000 srgb
n 1.000000 1.000000 m 1.000000 2.400000 l 24.585600 2.400000 l 24.585600 1.000000 l f
0.000000 0.000000 0.000000 srgb
n 1.000000 1.000000 m 1.000000 2.400000 l 24.585600 2.400000 l 24.585600 1.000000 l cp s
/Helvetica-Bold-latin1 ff 1.000000 scf sf
(SimpleTextInstance) dup sw 2 div 12.792800 ex sub 2.000000 m gs 1 -1 sc sh gr
1.000000 1.000000 1.000000 srgb
n 1.000000 2.400000 m 1.000000 7.400000 l 24.585600 7.400000 l 24.585600 2.400000 l f
0.000000 0.000000 0.000000 srgb
n 1.000000 2.400000 m 1.000000 7.400000 l 24.585600 7.400000 l 24.585600 2.400000 l cp s
/Courier-latin1 ff 0.800000 scf sf
(+id: INT) 1.150000 3.134483 m gs 1 -1 sc sh gr
/Courier-latin1 ff 0.800000 scf sf
(+nodeRegion_id: INT) 1.150000 3.934483 m gs 1 -1 sc sh gr
/Courier-latin1 ff 0.800000 scf sf
(+style_id: INT) 1.150000 4.734483 m gs 1 -1 sc sh gr
/Courier-latin1 ff 0.800000 scf sf
(+isDefined: BOOLEAN = SimpleTextStyle.isDefined) 1.150000 5.534483 m gs 1 -1 sc sh gr
/Courier-latin1 ff 0.800000 scf sf
(+text: TEXT) 1.150000 6.334483 m gs 1 -1 sc sh gr
/Courier-latin1 ff 0.800000 scf sf
(+html: TEXT) 1.150000 7.134483 m gs 1 -1 sc sh gr
1.000000 1.000000 1.000000 srgb
n 1.000000 7.400000 m 1.000000 9.200000 l 24.585600 9.200000 l 24.585600 7.400000 l f
0.000000 0.000000 0.000000 srgb
n 1.000000 7.400000 m 1.000000 9.200000 l 24.585600 9.200000 l 24.585600 7.400000 l cp s
/Courier-latin1 ff 0.800000 scf sf
(+nodeRegion\(\): NodeRegion) 1.150000 8.134483 m gs 1 -1 sc sh gr
/Courier-latin1 ff 0.800000 scf sf
(+style\(\): SimpleTextStyle) 1.150000 8.934483 m gs 1 -1 sc sh gr
0.100000 slw
[] 0 sd
1.000000 1.000000 1.000000 srgb
n 1.242400 11.000000 m 1.242400 12.400000 l 24.343200 12.400000 l 24.343200 11.000000 l f
0.000000 0.000000 0.000000 srgb
n 1.242400 11.000000 m 1.242400 12.400000 l 24.343200 12.400000 l 24.343200 11.000000 l cp s
/Helvetica-Bold-latin1 ff 1.000000 scf sf
(SimpleTextStyle) dup sw 2 div 12.792800 ex sub 12.000000 m gs 1 -1 sc sh gr
1.000000 1.000000 1.000000 srgb
n 1.242400 12.400000 m 1.242400 21.400000 l 24.343200 21.400000 l 24.343200 12.400000 l f
0.000000 0.000000 0.000000 srgb
n 1.242400 12.400000 m 1.242400 21.400000 l 24.343200 21.400000 l 24.343200 12.400000 l cp s
/Courier-latin1 ff 0.800000 scf sf
(+id: INT) 1.392400 13.134483 m gs 1 -1 sc sh gr
/Courier-latin1 ff 0.800000 scf sf
(+name: CHAR\(255\)) 1.392400 13.934483 m gs 1 -1 sc sh gr
/Courier-latin1 ff 0.800000 scf sf
(+isOptional: BOOLEAN) 1.392400 14.734483 m gs 1 -1 sc sh gr
/Courier-latin1 ff 0.800000 scf sf
(+isDefined: BOOLEAN) 1.392400 15.534483 m gs 1 -1 sc sh gr
/Courier-latin1 ff 0.800000 scf sf
(+maxLength: INT) 1.392400 16.334483 m gs 1 -1 sc sh gr
/Courier-latin1 ff 0.800000 scf sf
(+supportsLinebreaks: BOOLEAN) 1.392400 17.134483 m gs 1 -1 sc sh gr
/Courier-latin1 ff 0.800000 scf sf
(+editorRows: INT) 1.392400 17.934483 m gs 1 -1 sc sh gr
/Courier-latin1 ff 0.800000 scf sf
(+editorColumns: INT) 1.392400 18.734483 m gs 1 -1 sc sh gr
/Courier-latin1 ff 0.800000 scf sf
(+editCss: CHAR\(255\)) 1.392400 19.534483 m gs 1 -1 sc sh gr
/Courier-latin1 ff 0.800000 scf sf
(+viewCss: CHAR\(255\)) 1.392400 20.334483 m gs 1 -1 sc sh gr
/Courier-latin1 ff 0.800000 scf sf
(+isBlock: BOOLEAN) 1.392400 21.134483 m gs 1 -1 sc sh gr
1.000000 1.000000 1.000000 srgb
n 1.242400 21.400000 m 1.242400 22.400000 l 24.343200 22.400000 l 24.343200 21.400000 l f
0.000000 0.000000 0.000000 srgb
n 1.242400 21.400000 m 1.242400 22.400000 l 24.343200 22.400000 l 24.343200 21.400000 l cp s
/Courier-latin1 ff 0.800000 scf sf
(+instances\(\): QueryWrapper\(SimpleTextInstance\)) 1.392400 22.134483 m gs 1 -1 sc sh gr
0.100000 slw
[] 0 sd
0 slj
0 slc
n 24.585600 8.700000 m 26.000000 8.700000 l 26.000000 21.900000 l 24.343200 21.900000 l s
[] 0 sd
0 slj
0 slc
1.000000 1.000000 1.000000 srgb
n 24.343200 21.900000 m 25.043200 21.660000 l 25.743200 21.900000 l 25.043200 22.140000 l f
0.100000 slw
[] 0 sd
0 slj
0 slc
0.000000 0.000000 0.000000 srgb
n 24.343200 21.900000 m 25.043200 21.660000 l 25.743200 21.900000 l 25.043200 22.140000 l cp s
/Courier-latin1 ff 0.800000 scf sf
showpage
