%!PS-Adobe-2.0 EPSF-2.0
%%Title: /home/alex/cord/org.cord/docs/TemporalContentCompiler.dia
%%Creator: Dia v0.88.1
%%CreationDate: Mon Oct  7 09:10:22 2002
%%For: a user
%%Magnification: 1.0000
%%Orientation: Portrait
%%BoundingBox: 0 0 410 597
%%Pages: 1
%%BeginSetup
%%EndSetup
%%EndComments
%%BeginProlog
[ /.notdef /.notdef /.notdef /.notdef /.notdef /.notdef /.notdef /.notdef /.notdef /.notdef
/.notdef /.notdef /.notdef /.notdef /.notdef /.notdef /.notdef /.notdef /.notdef /.notdef
/.notdef /.notdef /.notdef /.notdef /.notdef /.notdef /.notdef /.notdef /.notdef /.notdef
/.notdef /.notdef /space /exclam /quotedbl /numbersign /dollar /percent /ampersand /quoteright
/parenleft /parenright /asterisk /plus /comma /hyphen /period /slash /zero /one
/two /three /four /five /six /seven /eight /nine /colon /semicolon
/less /equal /greater /question /at /A /B /C /D /E
/F /G /H /I /J /K /L /M /N /O
/P /Q /R /S /T /U /V /W /X /Y
/Z /bracketleft /backslash /bracketright /asciicircum /underscore /quoteleft /a /b /c
/d /e /f /g /h /i /j /k /l /m
/n /o /p /q /r /s /t /u /v /w
/x /y /z /braceleft /bar /braceright /asciitilde /.notdef /.notdef /.notdef
/.notdef /.notdef /.notdef /.notdef /.notdef /.notdef /.notdef /.notdef /.notdef /.notdef
/.notdef /.notdef /.notdef /.notdef /.notdef /.notdef /.notdef /.notdef /.notdef /.notdef
/.notdef /.notdef /.notdef /.notdef /.notdef /.notdef /.notdef /.notdef /.notdef /.notdef
/space /exclamdown /cent /sterling /currency /yen /brokenbar /section /dieresis /copyright
/ordfeminine /guillemotleft /logicalnot /hyphen /registered /macron /degree /plusminus /twosuperior /threesuperior
/acute /mu /paragraph /periodcentered /cedilla /onesuperior /ordmasculine /guillemotright /onequarter /onehalf
/threequarters /questiondown /Agrave /Aacute /Acircumflex /Atilde /Adieresis /Aring /AE /Ccedilla
/Egrave /Eacute /Ecircumflex /Edieresis /Igrave /Iacute /Icircumflex /Idieresis /Eth /Ntilde
/Ograve /Oacute /Ocircumflex /Otilde /Odieresis /multiply /Oslash /Ugrave /Uacute /Ucircumflex
/Udieresis /Yacute /Thorn /germandbls /agrave /aacute /acircumflex /atilde /adieresis /aring
/ae /ccedilla /egrave /eacute /ecircumflex /edieresis /igrave /iacute /icircumflex /idieresis
/eth /ntilde /ograve /oacute /ocircumflex /otilde /odieresis /divide /oslash /ugrave
/uacute /ucircumflex /udieresis /yacute /thorn /ydieresis] /isolatin1encoding exch def
/Times-Roman-latin1
    /Times-Roman findfont
    dup length dict begin
	{1 index /FID ne {def} {pop pop} ifelse} forall
	/Encoding isolatin1encoding def
    currentdict end
definefont pop
/Times-Italic-latin1
    /Times-Italic findfont
    dup length dict begin
	{1 index /FID ne {def} {pop pop} ifelse} forall
	/Encoding isolatin1encoding def
    currentdict end
definefont pop
/Times-Bold-latin1
    /Times-Bold findfont
    dup length dict begin
	{1 index /FID ne {def} {pop pop} ifelse} forall
	/Encoding isolatin1encoding def
    currentdict end
definefont pop
/Times-BoldItalic-latin1
    /Times-BoldItalic findfont
    dup length dict begin
	{1 index /FID ne {def} {pop pop} ifelse} forall
	/Encoding isolatin1encoding def
    currentdict end
definefont pop
/AvantGarde-Book-latin1
    /AvantGarde-Book findfont
    dup length dict begin
	{1 index /FID ne {def} {pop pop} ifelse} forall
	/Encoding isolatin1encoding def
    currentdict end
definefont pop
/AvantGarde-BookOblique-latin1
    /AvantGarde-BookOblique findfont
    dup length dict begin
	{1 index /FID ne {def} {pop pop} ifelse} forall
	/Encoding isolatin1encoding def
    currentdict end
definefont pop
/AvantGarde-Demi-latin1
    /AvantGarde-Demi findfont
    dup length dict begin
	{1 index /FID ne {def} {pop pop} ifelse} forall
	/Encoding isolatin1encoding def
    currentdict end
definefont pop
/AvantGarde-DemiOblique-latin1
    /AvantGarde-DemiOblique findfont
    dup length dict begin
	{1 index /FID ne {def} {pop pop} ifelse} forall
	/Encoding isolatin1encoding def
    currentdict end
definefont pop
/Bookman-Light-latin1
    /Bookman-Light findfont
    dup length dict begin
	{1 index /FID ne {def} {pop pop} ifelse} forall
	/Encoding isolatin1encoding def
    currentdict end
definefont pop
/Bookman-LightItalic-latin1
    /Bookman-LightItalic findfont
    dup length dict begin
	{1 index /FID ne {def} {pop pop} ifelse} forall
	/Encoding isolatin1encoding def
    currentdict end
definefont pop
/Bookman-Demi-latin1
    /Bookman-Demi findfont
    dup length dict begin
	{1 index /FID ne {def} {pop pop} ifelse} forall
	/Encoding isolatin1encoding def
    currentdict end
definefont pop
/Bookman-DemiItalic-latin1
    /Bookman-DemiItalic findfont
    dup length dict begin
	{1 index /FID ne {def} {pop pop} ifelse} forall
	/Encoding isolatin1encoding def
    currentdict end
definefont pop
/Courier-latin1
    /Courier findfont
    dup length dict begin
	{1 index /FID ne {def} {pop pop} ifelse} forall
	/Encoding isolatin1encoding def
    currentdict end
definefont pop
/Courier-Oblique-latin1
    /Courier-Oblique findfont
    dup length dict begin
	{1 index /FID ne {def} {pop pop} ifelse} forall
	/Encoding isolatin1encoding def
    currentdict end
definefont pop
/Courier-Bold-latin1
    /Courier-Bold findfont
    dup length dict begin
	{1 index /FID ne {def} {pop pop} ifelse} forall
	/Encoding isolatin1encoding def
    currentdict end
definefont pop
/Courier-BoldOblique-latin1
    /Courier-BoldOblique findfont
    dup length dict begin
	{1 index /FID ne {def} {pop pop} ifelse} forall
	/Encoding isolatin1encoding def
    currentdict end
definefont pop
/Helvetica-latin1
    /Helvetica findfont
    dup length dict begin
	{1 index /FID ne {def} {pop pop} ifelse} forall
	/Encoding isolatin1encoding def
    currentdict end
definefont pop
/Helvetica-Oblique-latin1
    /Helvetica-Oblique findfont
    dup length dict begin
	{1 index /FID ne {def} {pop pop} ifelse} forall
	/Encoding isolatin1encoding def
    currentdict end
definefont pop
/Helvetica-Bold-latin1
    /Helvetica-Bold findfont
    dup length dict begin
	{1 index /FID ne {def} {pop pop} ifelse} forall
	/Encoding isolatin1encoding def
    currentdict end
definefont pop
/Helvetica-BoldOblique-latin1
    /Helvetica-BoldOblique findfont
    dup length dict begin
	{1 index /FID ne {def} {pop pop} ifelse} forall
	/Encoding isolatin1encoding def
    currentdict end
definefont pop
/Helvetica-Narrow-latin1
    /Helvetica-Narrow findfont
    dup length dict begin
	{1 index /FID ne {def} {pop pop} ifelse} forall
	/Encoding isolatin1encoding def
    currentdict end
definefont pop
/Helvetica-Narrow-Oblique-latin1
    /Helvetica-Narrow-Oblique findfont
    dup length dict begin
	{1 index /FID ne {def} {pop pop} ifelse} forall
	/Encoding isolatin1encoding def
    currentdict end
definefont pop
/Helvetica-Narrow-Bold-latin1
    /Helvetica-Narrow-Bold findfont
    dup length dict begin
	{1 index /FID ne {def} {pop pop} ifelse} forall
	/Encoding isolatin1encoding def
    currentdict end
definefont pop
/Helvetica-Narrow-BoldOblique-latin1
    /Helvetica-Narrow-BoldOblique findfont
    dup length dict begin
	{1 index /FID ne {def} {pop pop} ifelse} forall
	/Encoding isolatin1encoding def
    currentdict end
definefont pop
/NewCenturySchoolbook-Roman-latin1
    /NewCenturySchoolbook-Roman findfont
    dup length dict begin
	{1 index /FID ne {def} {pop pop} ifelse} forall
	/Encoding isolatin1encoding def
    currentdict end
definefont pop
/NewCenturySchoolbook-Italic-latin1
    /NewCenturySchoolbook-Italic findfont
    dup length dict begin
	{1 index /FID ne {def} {pop pop} ifelse} forall
	/Encoding isolatin1encoding def
    currentdict end
definefont pop
/NewCenturySchoolbook-Bold-latin1
    /NewCenturySchoolbook-Bold findfont
    dup length dict begin
	{1 index /FID ne {def} {pop pop} ifelse} forall
	/Encoding isolatin1encoding def
    currentdict end
definefont pop
/NewCenturySchoolbook-BoldItalic-latin1
    /NewCenturySchoolbook-BoldItalic findfont
    dup length dict begin
	{1 index /FID ne {def} {pop pop} ifelse} forall
	/Encoding isolatin1encoding def
    currentdict end
definefont pop
/Palatino-Roman-latin1
    /Palatino-Roman findfont
    dup length dict begin
	{1 index /FID ne {def} {pop pop} ifelse} forall
	/Encoding isolatin1encoding def
    currentdict end
definefont pop
/Palatino-Italic-latin1
    /Palatino-Italic findfont
    dup length dict begin
	{1 index /FID ne {def} {pop pop} ifelse} forall
	/Encoding isolatin1encoding def
    currentdict end
definefont pop
/Palatino-Bold-latin1
    /Palatino-Bold findfont
    dup length dict begin
	{1 index /FID ne {def} {pop pop} ifelse} forall
	/Encoding isolatin1encoding def
    currentdict end
definefont pop
/Palatino-BoldItalic-latin1
    /Palatino-BoldItalic findfont
    dup length dict begin
	{1 index /FID ne {def} {pop pop} ifelse} forall
	/Encoding isolatin1encoding def
    currentdict end
definefont pop
/Symbol-latin1
    /Symbol findfont
definefont pop
/ZapfChancery-MediumItalic-latin1
    /ZapfChancery-MediumItalic findfont
    dup length dict begin
	{1 index /FID ne {def} {pop pop} ifelse} forall
	/Encoding isolatin1encoding def
    currentdict end
definefont pop
/ZapfDingbats-latin1
    /ZapfDingbats findfont
definefont pop
/Ryumin-Light-EUC-H-latin1
    /Ryumin-Light-EUC-H findfont
definefont pop
/GothicBBB-Medium-EUC-H-latin1
    /GothicBBB-Medium-EUC-H findfont
definefont pop
/cp {closepath} bind def
/c {curveto} bind def
/f {fill} bind def
/a {arc} bind def
/ef {eofill} bind def
/ex {exch} bind def
/gr {grestore} bind def
/gs {gsave} bind def
/sa {save} bind def
/rs {restore} bind def
/l {lineto} bind def
/m {moveto} bind def
/rm {rmoveto} bind def
/n {newpath} bind def
/s {stroke} bind def
/sh {show} bind def
/slc {setlinecap} bind def
/slj {setlinejoin} bind def
/slw {setlinewidth} bind def
/srgb {setrgbcolor} bind def
/rot {rotate} bind def
/sc {scale} bind def
/sd {setdash} bind def
/ff {findfont} bind def
/sf {setfont} bind def
/scf {scalefont} bind def
/sw {stringwidth pop} bind def
/tr {translate} bind def

/ellipsedict 8 dict def
ellipsedict /mtrx matrix put
/ellipse
{ ellipsedict begin
   /endangle exch def
   /startangle exch def
   /yrad exch def
   /xrad exch def
   /y exch def
   /x exch def   /savematrix mtrx currentmatrix def
   x y tr xrad yrad sc
   0 0 1 startangle endangle arc
   savematrix setmatrix
   end
} def

/mergeprocs {
dup length
3 -1 roll
dup
length
dup
5 1 roll
3 -1 roll
add
array cvx
dup
3 -1 roll
0 exch
putinterval
dup
4 2 roll
putinterval
} bind def
8.503800 -8.503800 scale
-1.950000 -77.100000 translate
%%EndProlog


0.100000 slw
[] 0 sd
1.000000 1.000000 1.000000 srgb
n 12.363200 38.000000 m 12.363200 39.400000 l 38.857600 39.400000 l 38.857600 38.000000 l f
0.000000 0.000000 0.000000 srgb
n 12.363200 38.000000 m 12.363200 39.400000 l 38.857600 39.400000 l 38.857600 38.000000 l cp s
/Helvetica-Bold-latin1 ff 1.000000 scf sf
(TemporalInstance) dup sw 2 div 25.610400 ex sub 39.000000 m gs 1 -1 sc sh gr
1.000000 1.000000 1.000000 srgb
n 12.363200 39.400000 m 12.363200 50.000000 l 38.857600 50.000000 l 38.857600 39.400000 l f
0.000000 0.000000 0.000000 srgb
n 12.363200 39.400000 m 12.363200 50.000000 l 38.857600 50.000000 l 38.857600 39.400000 l cp s
/Courier-latin1 ff 0.800000 scf sf
(+id: INT) 12.513200 40.134483 m gs 1 -1 sc sh gr
/Courier-latin1 ff 0.800000 scf sf
(+region_id: INT) 12.513200 40.934483 m gs 1 -1 sc sh gr
/Courier-latin1 ff 0.800000 scf sf
(+style_id: INT) 12.513200 41.734483 m gs 1 -1 sc sh gr
/Courier-latin1 ff 0.800000 scf sf
(+isDefined: BOOLEAN = this.style.isDefined) 12.513200 42.534483 m gs 1 -1 sc sh gr
/Courier-latin1 ff 0.800000 scf sf
(+startDate: BIGINT) 12.513200 43.334483 m gs 1 -1 sc sh gr
/Courier-latin1 ff 0.800000 scf sf
(+startDate_day_id: INT) 12.513200 44.134483 m gs 1 -1 sc sh gr
/Courier-latin1 ff 0.800000 scf sf
(+startDate_month_id: INT) 12.513200 44.934483 m gs 1 -1 sc sh gr
/Courier-latin1 ff 0.800000 scf sf
(+startDate_year_id: INT) 12.513200 45.734483 m gs 1 -1 sc sh gr
/Courier-latin1 ff 0.800000 scf sf
(+endDate: BIGINT) 12.513200 46.534483 m gs 1 -1 sc sh gr
/Courier-latin1 ff 0.800000 scf sf
(+endDate_day_id: INT) 12.513200 47.334483 m gs 1 -1 sc sh gr
/Courier-latin1 ff 0.800000 scf sf
(+endDate_month_id: INT) 12.513200 48.134483 m gs 1 -1 sc sh gr
/Courier-latin1 ff 0.800000 scf sf
(+endDate_year_id: INT) 12.513200 48.934483 m gs 1 -1 sc sh gr
/Courier-latin1 ff 0.800000 scf sf
(+isPublished: BOOLEAN = $this.region.node.isPublished) 12.513200 49.734483 m gs 1 -1 sc sh gr
1.000000 1.000000 1.000000 srgb
n 12.363200 50.000000 m 12.363200 56.600000 l 38.857600 56.600000 l 38.857600 50.000000 l f
0.000000 0.000000 0.000000 srgb
n 12.363200 50.000000 m 12.363200 56.600000 l 38.857600 56.600000 l 38.857600 50.000000 l cp s
/Courier-latin1 ff 0.800000 scf sf
(+startDate_day\(\): DayIndex) 12.513200 50.734483 m gs 1 -1 sc sh gr
/Courier-latin1 ff 0.800000 scf sf
(+startDate_month\(\): MonthIndex) 12.513200 51.534483 m gs 1 -1 sc sh gr
/Courier-latin1 ff 0.800000 scf sf
(+startDate_year\(\): YearIndex) 12.513200 52.334483 m gs 1 -1 sc sh gr
/Courier-latin1 ff 0.800000 scf sf
(+endDate_day\(\): DayIndex) 12.513200 53.134483 m gs 1 -1 sc sh gr
/Courier-latin1 ff 0.800000 scf sf
(+endDate_month\(\): MonthIndex) 12.513200 53.934483 m gs 1 -1 sc sh gr
/Courier-latin1 ff 0.800000 scf sf
(+endDate_year\(\): YearIndex) 12.513200 54.734483 m gs 1 -1 sc sh gr
/Courier-latin1 ff 0.800000 scf sf
(+region\(\): Region) 12.513200 55.534483 m gs 1 -1 sc sh gr
/Courier-latin1 ff 0.800000 scf sf
(+style\(\): TemporalStyle) 12.513200 56.334483 m gs 1 -1 sc sh gr
0.100000 slw
[] 0 sd
1.000000 1.000000 1.000000 srgb
n 8.727200 28.000000 m 8.727200 29.400000 l 42.493600 29.400000 l 42.493600 28.000000 l f
0.000000 0.000000 0.000000 srgb
n 8.727200 28.000000 m 8.727200 29.400000 l 42.493600 29.400000 l 42.493600 28.000000 l cp s
/Helvetica-Bold-latin1 ff 1.000000 scf sf
(DayIndex) dup sw 2 div 25.610400 ex sub 29.000000 m gs 1 -1 sc sh gr
1.000000 1.000000 1.000000 srgb
n 8.727200 29.400000 m 8.727200 32.000000 l 42.493600 32.000000 l 42.493600 29.400000 l f
0.000000 0.000000 0.000000 srgb
n 8.727200 29.400000 m 8.727200 32.000000 l 42.493600 32.000000 l 42.493600 29.400000 l cp s
/Courier-latin1 ff 0.800000 scf sf
(+id: INT) 8.877200 30.134483 m gs 1 -1 sc sh gr
/Courier-latin1 ff 0.800000 scf sf
(+day: INT) 8.877200 30.934483 m gs 1 -1 sc sh gr
/Courier-latin1 ff 0.800000 scf sf
(+month_id: MonthIndex) 8.877200 31.734483 m gs 1 -1 sc sh gr
1.000000 1.000000 1.000000 srgb
n 8.727200 32.000000 m 8.727200 36.200000 l 42.493600 36.200000 l 42.493600 32.000000 l f
0.000000 0.000000 0.000000 srgb
n 8.727200 32.000000 m 8.727200 36.200000 l 42.493600 36.200000 l 42.493600 32.000000 l cp s
/Courier-latin1 ff 0.800000 scf sf
(+month\(\): MonthIndex) 8.877200 32.734483 m gs 1 -1 sc sh gr
/Courier-latin1 ff 0.800000 scf sf
(+temporalStarts\(\): QueryWrapper\(TemporalInstance\)) 8.877200 33.534483 m gs 1 -1 sc sh gr
/Courier-latin1 ff 0.800000 scf sf
(+temporalStarts\(style:TemporalStyle\): QueryWrapper\(TemporalInstance\)) 8.877200 34.334483 m gs 1 -1 sc sh gr
/Courier-latin1 ff 0.800000 scf sf
(+temporalEnds\(\): QueryWrapper\(TemporalInstance\)) 8.877200 35.134483 m gs 1 -1 sc sh gr
/Courier-latin1 ff 0.800000 scf sf
(+temporalEnds\(style:TemporalStyle\): QueryWrapper\(TemporalInstance\)) 8.877200 35.934483 m gs 1 -1 sc sh gr
0.100000 slw
[] 0 sd
1.000000 1.000000 1.000000 srgb
n 8.727200 16.000000 m 8.727200 17.400000 l 42.493600 17.400000 l 42.493600 16.000000 l f
0.000000 0.000000 0.000000 srgb
n 8.727200 16.000000 m 8.727200 17.400000 l 42.493600 17.400000 l 42.493600 16.000000 l cp s
/Helvetica-Bold-latin1 ff 1.000000 scf sf
(MonthIndex) dup sw 2 div 25.610400 ex sub 17.000000 m gs 1 -1 sc sh gr
1.000000 1.000000 1.000000 srgb
n 8.727200 17.400000 m 8.727200 20.800000 l 42.493600 20.800000 l 42.493600 17.400000 l f
0.000000 0.000000 0.000000 srgb
n 8.727200 17.400000 m 8.727200 20.800000 l 42.493600 20.800000 l 42.493600 17.400000 l cp s
/Courier-latin1 ff 0.800000 scf sf
(+id: INT) 8.877200 18.134483 m gs 1 -1 sc sh gr
/Courier-latin1 ff 0.800000 scf sf
(+month: INT) 8.877200 18.934483 m gs 1 -1 sc sh gr
/Courier-latin1 ff 0.800000 scf sf
(+name: CHAR\(16\)) 8.877200 19.734483 m gs 1 -1 sc sh gr
/Courier-latin1 ff 0.800000 scf sf
(+year_id: INT) 8.877200 20.534483 m gs 1 -1 sc sh gr
1.000000 1.000000 1.000000 srgb
n 8.727200 20.800000 m 8.727200 25.800000 l 42.493600 25.800000 l 42.493600 20.800000 l f
0.000000 0.000000 0.000000 srgb
n 8.727200 20.800000 m 8.727200 25.800000 l 42.493600 25.800000 l 42.493600 20.800000 l cp s
/Courier-latin1 ff 0.800000 scf sf
(+days\(\): QueryWrapper\(DayIndex\)) 8.877200 21.534483 m gs 1 -1 sc sh gr
/Courier-latin1 ff 0.800000 scf sf
(+temporalStarts\(\): QueryWrapper\(TemporalInstance\)) 8.877200 22.334483 m gs 1 -1 sc sh gr
/Courier-latin1 ff 0.800000 scf sf
(+temporalStarts\(style:TemporalStyle\): QueryWrapper\(TemporalInstance\)) 8.877200 23.134483 m gs 1 -1 sc sh gr
/Courier-latin1 ff 0.800000 scf sf
(+temporalEnds\(\): QueryWrapper\(TemporalInstance\)) 8.877200 23.934483 m gs 1 -1 sc sh gr
/Courier-latin1 ff 0.800000 scf sf
(+temporalEnds\(style:TemporalStyle\): QueryWrapper\(TemporalInstance\)) 8.877200 24.734483 m gs 1 -1 sc sh gr
/Courier-latin1 ff 0.800000 scf sf
(+year\(\): YearIndex) 8.877200 25.534483 m gs 1 -1 sc sh gr
0.100000 slw
[] 0 sd
1.000000 1.000000 1.000000 srgb
n 8.727200 7.000000 m 8.727200 8.400000 l 42.493600 8.400000 l 42.493600 7.000000 l f
0.000000 0.000000 0.000000 srgb
n 8.727200 7.000000 m 8.727200 8.400000 l 42.493600 8.400000 l 42.493600 7.000000 l cp s
/Helvetica-Bold-latin1 ff 1.000000 scf sf
(YearIndex) dup sw 2 div 25.610400 ex sub 8.000000 m gs 1 -1 sc sh gr
1.000000 1.000000 1.000000 srgb
n 8.727200 8.400000 m 8.727200 10.200000 l 42.493600 10.200000 l 42.493600 8.400000 l f
0.000000 0.000000 0.000000 srgb
n 8.727200 8.400000 m 8.727200 10.200000 l 42.493600 10.200000 l 42.493600 8.400000 l cp s
/Courier-latin1 ff 0.800000 scf sf
(+id: INT) 8.877200 9.134483 m gs 1 -1 sc sh gr
/Courier-latin1 ff 0.800000 scf sf
(+year: INT) 8.877200 9.934483 m gs 1 -1 sc sh gr
1.000000 1.000000 1.000000 srgb
n 8.727200 10.200000 m 8.727200 14.400000 l 42.493600 14.400000 l 42.493600 10.200000 l f
0.000000 0.000000 0.000000 srgb
n 8.727200 10.200000 m 8.727200 14.400000 l 42.493600 14.400000 l 42.493600 10.200000 l cp s
/Courier-latin1 ff 0.800000 scf sf
(+months\(\): QueryWrapper\(MonthIndex\)) 8.877200 10.934483 m gs 1 -1 sc sh gr
/Courier-latin1 ff 0.800000 scf sf
(+temporalStarts\(\): QueryWrapper\(TemporalInstance\)) 8.877200 11.734483 m gs 1 -1 sc sh gr
/Courier-latin1 ff 0.800000 scf sf
(+temporalStarts\(style:TemporalStyle\): QueryWrapper\(TemporalInstance\)) 8.877200 12.534483 m gs 1 -1 sc sh gr
/Courier-latin1 ff 0.800000 scf sf
(+temporalEnds\(\): QueryWrapper\(TemporalInstance\)) 8.877200 13.334483 m gs 1 -1 sc sh gr
/Courier-latin1 ff 0.800000 scf sf
(+temporalEnds\(style:TemporalStyle\): QueryWrapper\(TemporalInstance\)) 8.877200 14.134483 m gs 1 -1 sc sh gr
0.100000 slw
[] 0 sd
0 slj
0 slc
n 8.727200 25.300000 m 2.000000 25.300000 l 2.000000 10.700000 l 8.727200 10.700000 l s
[] 0 sd
0 slj
0 slc
1.000000 1.000000 1.000000 srgb
n 8.727200 10.700000 m 8.027200 10.940000 l 7.327200 10.700000 l 8.027200 10.460000 l f
0.100000 slw
[] 0 sd
0 slj
0 slc
0.000000 0.000000 0.000000 srgb
n 8.727200 10.700000 m 8.027200 10.940000 l 7.327200 10.700000 l 8.027200 10.460000 l cp s
/Courier-latin1 ff 0.800000 scf sf
0.100000 slw
[] 0 sd
0 slj
0 slc
n 8.727200 32.500000 m 3.000000 32.500000 l 3.000000 21.300000 l 8.727200 21.300000 l s
[] 0 sd
0 slj
0 slc
1.000000 1.000000 1.000000 srgb
n 8.727200 21.300000 m 8.027200 21.540000 l 7.327200 21.300000 l 8.027200 21.060000 l f
0.100000 slw
[] 0 sd
0 slj
0 slc
0.000000 0.000000 0.000000 srgb
n 8.727200 21.300000 m 8.027200 21.540000 l 7.327200 21.300000 l 8.027200 21.060000 l cp s
/Courier-latin1 ff 0.800000 scf sf
0.100000 slw
[] 0 sd
0 slj
0 slc
n 38.857600 50.500000 m 45.000000 50.500000 l 45.000000 33.300000 l 42.493600 33.300000 l s
[] 0 sd
0 slj
0 slc
1.000000 1.000000 1.000000 srgb
n 42.493600 33.300000 m 43.193600 33.060000 l 43.893600 33.300000 l 43.193600 33.540000 l f
0.100000 slw
[] 0 sd
0 slj
0 slc
0.000000 0.000000 0.000000 srgb
n 42.493600 33.300000 m 43.193600 33.060000 l 43.893600 33.300000 l 43.193600 33.540000 l cp s
/Courier-latin1 ff 0.800000 scf sf
0.100000 slw
[] 0 sd
0 slj
0 slc
n 38.857600 51.300000 m 47.000000 51.300000 l 47.000000 22.100000 l 42.493600 22.100000 l s
[] 0 sd
0 slj
0 slc
1.000000 1.000000 1.000000 srgb
n 42.493600 22.100000 m 43.193600 21.860000 l 43.893600 22.100000 l 43.193600 22.340000 l f
0.100000 slw
[] 0 sd
0 slj
0 slc
0.000000 0.000000 0.000000 srgb
n 42.493600 22.100000 m 43.193600 21.860000 l 43.893600 22.100000 l 43.193600 22.340000 l cp s
/Courier-latin1 ff 0.800000 scf sf
0.100000 slw
[] 0 sd
0 slj
0 slc
n 38.857600 52.100000 m 50.000000 52.100000 l 50.000000 11.500000 l 42.493600 11.500000 l s
[] 0 sd
0 slj
0 slc
1.000000 1.000000 1.000000 srgb
n 42.493600 11.500000 m 43.193600 11.260000 l 43.893600 11.500000 l 43.193600 11.740000 l f
0.100000 slw
[] 0 sd
0 slj
0 slc
0.000000 0.000000 0.000000 srgb
n 42.493600 11.500000 m 43.193600 11.260000 l 43.893600 11.500000 l 43.193600 11.740000 l cp s
/Courier-latin1 ff 0.800000 scf sf
0.100000 slw
[] 0 sd
1.000000 1.000000 1.000000 srgb
n 7.515200 59.000000 m 7.515200 60.400000 l 43.705600 60.400000 l 43.705600 59.000000 l f
0.000000 0.000000 0.000000 srgb
n 7.515200 59.000000 m 7.515200 60.400000 l 43.705600 60.400000 l 43.705600 59.000000 l cp s
/Helvetica-Bold-latin1 ff 1.000000 scf sf
(TemporalStyle) dup sw 2 div 25.610400 ex sub 60.000000 m gs 1 -1 sc sh gr
1.000000 1.000000 1.000000 srgb
n 7.515200 60.400000 m 7.515200 63.800000 l 43.705600 63.800000 l 43.705600 60.400000 l f
0.000000 0.000000 0.000000 srgb
n 7.515200 60.400000 m 7.515200 63.800000 l 43.705600 63.800000 l 43.705600 60.400000 l cp s
/Courier-latin1 ff 0.800000 scf sf
(+id: INT) 7.665200 61.134483 m gs 1 -1 sc sh gr
/Courier-latin1 ff 0.800000 scf sf
(+name: CHAR\(255\)) 7.665200 61.934483 m gs 1 -1 sc sh gr
/Courier-latin1 ff 0.800000 scf sf
(+isOptional: BOOLEAN) 7.665200 62.734483 m gs 1 -1 sc sh gr
/Courier-latin1 ff 0.800000 scf sf
(+isDefined: BOOLEAN) 7.665200 63.534483 m gs 1 -1 sc sh gr
1.000000 1.000000 1.000000 srgb
n 7.515200 63.800000 m 7.515200 76.800000 l 43.705600 76.800000 l 43.705600 63.800000 l f
0.000000 0.000000 0.000000 srgb
n 7.515200 63.800000 m 7.515200 76.800000 l 43.705600 76.800000 l 43.705600 63.800000 l cp s
/Courier-latin1 ff 0.800000 scf sf
(+earlierInstances\(\): QueryWrapper\(TemporalInstances\)) 7.665200 64.534483 m gs 1 -1 sc sh gr
/Courier-latin1 ff 0.800000 scf sf
(+exclusiveInstances\(\): QueryWrapper\(TemporalInstance\)) 7.665200 65.334483 m gs 1 -1 sc sh gr
/Courier-latin1 ff 0.800000 scf sf
(+inclusiveInstances\(\): QueryWrapper\(TemporalInstance\)) 7.665200 66.134483 m gs 1 -1 sc sh gr
/Courier-latin1 ff 0.800000 scf sf
(+instances\(\): QueryWrapper\(TemporalInstance\)) 7.665200 66.934483 m gs 1 -1 sc sh gr
/Courier-latin1 ff 0.800000 scf sf
(+instancesEarlierThan\(date:DATE\): QueryWrapper\(TemporalInstance\)) 7.665200 67.734483 m gs 1 -1 sc sh gr
/Courier-latin1 ff 0.800000 scf sf
(+instancesLaterThan\(date:Date\): QueryWrapper\(TemporalInstances\)) 7.665200 68.534483 m gs 1 -1 sc sh gr
/Courier-latin1 ff 0.800000 scf sf
(+instancesNotOn\(date:Date\): QueryWrapper\(TemporalInstance\)) 7.665200 69.334483 m gs 1 -1 sc sh gr
/Courier-latin1 ff 0.800000 scf sf
(+instancesOn\(date:Date\): QueryWrapper\(TemporalInstance\)) 7.665200 70.134483 m gs 1 -1 sc sh gr
/Courier-latin1 ff 0.800000 scf sf
(+publishedEarlierInstances\(\): QueryWrapper\(TemporalInstance\)) 7.665200 70.934483 m gs 1 -1 sc sh gr
/Courier-latin1 ff 0.800000 scf sf
(+publishedExclusiveInstances\(\): QueryWrapper\(TemporalInstance\)) 7.665200 71.734483 m gs 1 -1 sc sh gr
/Courier-latin1 ff 0.800000 scf sf
(+publishedInclusiveInstances\(\): QueryWrapper\(TemporalInstance\)) 7.665200 72.534483 m gs 1 -1 sc sh gr
/Courier-latin1 ff 0.800000 scf sf
(+publishedInstancesEarlierThan\(date:DATE\): QueryWrapper\(TemporalInstance\)) 7.665200 73.334483 m gs 1 -1 sc sh gr
/Courier-latin1 ff 0.800000 scf sf
(+publishedInstancesLaterThan\(date:DATE\): QueryWrapper\(TemporalInstance\)) 7.665200 74.134483 m gs 1 -1 sc sh gr
/Courier-latin1 ff 0.800000 scf sf
(+publishedInstancesNotOn\(date:DATE\): QueryWrapper\(TemporalInstance\)) 7.665200 74.934483 m gs 1 -1 sc sh gr
/Courier-latin1 ff 0.800000 scf sf
(+publishedLaterInstances\(\): QueryWrapper\(TemporalInstance\)) 7.665200 75.734483 m gs 1 -1 sc sh gr
/Courier-latin1 ff 0.800000 scf sf
(+laterInstances\(\): QueryWrapper\(TemporalInstance\)) 7.665200 76.534483 m gs 1 -1 sc sh gr
0.100000 slw
[] 0 sd
0 slj
0 slc
n 38.857600 56.100000 m 46.000000 56.100000 l 46.000000 66.700000 l 43.705600 66.700000 l s
[] 0 sd
0 slj
0 slc
1.000000 1.000000 1.000000 srgb
n 43.705600 66.700000 m 44.405600 66.460000 l 45.105600 66.700000 l 44.405600 66.940000 l f
0.100000 slw
[] 0 sd
0 slj
0 slc
0.000000 0.000000 0.000000 srgb
n 43.705600 66.700000 m 44.405600 66.460000 l 45.105600 66.700000 l 44.405600 66.940000 l cp s
/Courier-latin1 ff 0.800000 scf sf
0.100000 slw
[] 0 sd
0 slj
0 slc
n 38.857600 52.900000 m 46.000000 52.900000 l 46.000000 34.900000 l 42.493600 34.900000 l s
[] 0 sd
0 slj
0 slc
1.000000 1.000000 1.000000 srgb
n 42.493600 34.900000 m 43.193600 34.660000 l 43.893600 34.900000 l 43.193600 35.140000 l f
0.100000 slw
[] 0 sd
0 slj
0 slc
0.000000 0.000000 0.000000 srgb
n 42.493600 34.900000 m 43.193600 34.660000 l 43.893600 34.900000 l 43.193600 35.140000 l cp s
/Courier-latin1 ff 0.800000 scf sf
0.100000 slw
[] 0 sd
0 slj
0 slc
n 38.857600 54.500000 m 49.000000 54.500000 l 49.000000 13.100000 l 42.493600 13.100000 l s
[] 0 sd
0 slj
0 slc
1.000000 1.000000 1.000000 srgb
n 42.493600 13.100000 m 43.193600 12.860000 l 43.893600 13.100000 l 43.193600 13.340000 l f
0.100000 slw
[] 0 sd
0 slj
0 slc
0.000000 0.000000 0.000000 srgb
n 42.493600 13.100000 m 43.193600 12.860000 l 43.893600 13.100000 l 43.193600 13.340000 l cp s
/Courier-latin1 ff 0.800000 scf sf
0.100000 slw
[] 0 sd
0 slj
0 slc
n 38.857600 53.700000 m 48.000000 53.700000 l 48.000000 23.700000 l 42.493600 23.700000 l s
[] 0 sd
0 slj
0 slc
1.000000 1.000000 1.000000 srgb
n 42.493600 23.700000 m 43.193600 23.460000 l 43.893600 23.700000 l 43.193600 23.940000 l f
0.100000 slw
[] 0 sd
0 slj
0 slc
0.000000 0.000000 0.000000 srgb
n 42.493600 23.700000 m 43.193600 23.460000 l 43.893600 23.700000 l 43.193600 23.940000 l cp s
/Courier-latin1 ff 0.800000 scf sf
0.100000 slw
[] 0 sd
0 slj
0 slc
n 7.515200 69.900000 m 5.000000 69.900000 l 5.000000 38.700000 l 12.363200 38.700000 l s
[] 0 sd
0 slj
0 slc
1.000000 1.000000 1.000000 srgb
n 12.363200 38.700000 m 11.663200 38.940000 l 10.963200 38.700000 l 11.663200 38.460000 l f
0.100000 slw
[] 0 sd
0 slj
0 slc
0.000000 0.000000 0.000000 srgb
n 12.363200 38.700000 m 11.663200 38.940000 l 10.963200 38.700000 l 11.663200 38.460000 l cp s
/Courier-latin1 ff 0.800000 scf sf
0.100000 slw
[] 0 sd
0 slj
0 slc
n 7.515200 65.900000 m 5.000000 65.900000 l 5.000000 38.700000 l 12.363200 38.700000 l s
[] 0 sd
0 slj
0 slc
1.000000 1.000000 1.000000 srgb
n 12.363200 38.700000 m 11.663200 38.940000 l 10.963200 38.700000 l 11.663200 38.460000 l f
0.100000 slw
[] 0 sd
0 slj
0 slc
0.000000 0.000000 0.000000 srgb
n 12.363200 38.700000 m 11.663200 38.940000 l 10.963200 38.700000 l 11.663200 38.460000 l cp s
/Courier-latin1 ff 0.800000 scf sf
0.100000 slw
[] 0 sd
0 slj
0 slc
n 7.515200 69.100000 m 5.000000 69.100000 l 5.000000 38.700000 l 12.363200 38.700000 l s
[] 0 sd
0 slj
0 slc
1.000000 1.000000 1.000000 srgb
n 12.363200 38.700000 m 11.663200 38.940000 l 10.963200 38.700000 l 11.663200 38.460000 l f
0.100000 slw
[] 0 sd
0 slj
0 slc
0.000000 0.000000 0.000000 srgb
n 12.363200 38.700000 m 11.663200 38.940000 l 10.963200 38.700000 l 11.663200 38.460000 l cp s
/Courier-latin1 ff 0.800000 scf sf
0.100000 slw
[] 0 sd
0 slj
0 slc
n 7.515200 65.100000 m 5.000000 65.100000 l 5.000000 38.700000 l 12.363200 38.700000 l s
[] 0 sd
0 slj
0 slc
1.000000 1.000000 1.000000 srgb
n 12.363200 38.700000 m 11.663200 38.940000 l 10.963200 38.700000 l 11.663200 38.460000 l f
0.100000 slw
[] 0 sd
0 slj
0 slc
0.000000 0.000000 0.000000 srgb
n 12.363200 38.700000 m 11.663200 38.940000 l 10.963200 38.700000 l 11.663200 38.460000 l cp s
/Courier-latin1 ff 0.800000 scf sf
0.100000 slw
[] 0 sd
0 slj
0 slc
n 8.727200 33.300000 m 5.000000 33.300000 l 5.000000 38.700000 l 12.363200 38.700000 l s
[] 0 sd
0 slj
0 slc
1.000000 1.000000 1.000000 srgb
n 12.363200 38.700000 m 11.663200 38.940000 l 10.963200 38.700000 l 11.663200 38.460000 l f
0.100000 slw
[] 0 sd
0 slj
0 slc
0.000000 0.000000 0.000000 srgb
n 12.363200 38.700000 m 11.663200 38.940000 l 10.963200 38.700000 l 11.663200 38.460000 l cp s
/Courier-latin1 ff 0.800000 scf sf
0.100000 slw
[] 0 sd
0 slj
0 slc
n 8.727200 34.100000 m 5.000000 34.100000 l 5.000000 38.700000 l 12.363200 38.700000 l s
[] 0 sd
0 slj
0 slc
1.000000 1.000000 1.000000 srgb
n 12.363200 38.700000 m 11.663200 38.940000 l 10.963200 38.700000 l 11.663200 38.460000 l f
0.100000 slw
[] 0 sd
0 slj
0 slc
0.000000 0.000000 0.000000 srgb
n 12.363200 38.700000 m 11.663200 38.940000 l 10.963200 38.700000 l 11.663200 38.460000 l cp s
/Courier-latin1 ff 0.800000 scf sf
0.100000 slw
[] 0 sd
0 slj
0 slc
n 8.727200 34.900000 m 5.000000 34.900000 l 5.000000 38.700000 l 12.363200 38.700000 l s
[] 0 sd
0 slj
0 slc
1.000000 1.000000 1.000000 srgb
n 12.363200 38.700000 m 11.663200 38.940000 l 10.963200 38.700000 l 11.663200 38.460000 l f
0.100000 slw
[] 0 sd
0 slj
0 slc
0.000000 0.000000 0.000000 srgb
n 12.363200 38.700000 m 11.663200 38.940000 l 10.963200 38.700000 l 11.663200 38.460000 l cp s
/Courier-latin1 ff 0.800000 scf sf
0.100000 slw
[] 0 sd
0 slj
0 slc
n 8.727200 35.700000 m 5.000000 35.700000 l 5.000000 38.700000 l 12.363200 38.700000 l s
[] 0 sd
0 slj
0 slc
1.000000 1.000000 1.000000 srgb
n 12.363200 38.700000 m 11.663200 38.940000 l 10.963200 38.700000 l 11.663200 38.460000 l f
0.100000 slw
[] 0 sd
0 slj
0 slc
0.000000 0.000000 0.000000 srgb
n 12.363200 38.700000 m 11.663200 38.940000 l 10.963200 38.700000 l 11.663200 38.460000 l cp s
/Courier-latin1 ff 0.800000 scf sf
0.100000 slw
[] 0 sd
0 slj
0 slc
n 8.727200 24.500000 m 5.000000 24.500000 l 5.000000 38.700000 l 12.363200 38.700000 l s
[] 0 sd
0 slj
0 slc
1.000000 1.000000 1.000000 srgb
n 12.363200 38.700000 m 11.663200 38.940000 l 10.963200 38.700000 l 11.663200 38.460000 l f
0.100000 slw
[] 0 sd
0 slj
0 slc
0.000000 0.000000 0.000000 srgb
n 12.363200 38.700000 m 11.663200 38.940000 l 10.963200 38.700000 l 11.663200 38.460000 l cp s
/Courier-latin1 ff 0.800000 scf sf
0.100000 slw
[] 0 sd
0 slj
0 slc
n 8.727200 23.700000 m 5.000000 23.700000 l 5.000000 38.700000 l 12.363200 38.700000 l s
[] 0 sd
0 slj
0 slc
1.000000 1.000000 1.000000 srgb
n 12.363200 38.700000 m 11.663200 38.940000 l 10.963200 38.700000 l 11.663200 38.460000 l f
0.100000 slw
[] 0 sd
0 slj
0 slc
0.000000 0.000000 0.000000 srgb
n 12.363200 38.700000 m 11.663200 38.940000 l 10.963200 38.700000 l 11.663200 38.460000 l cp s
/Courier-latin1 ff 0.800000 scf sf
0.100000 slw
[] 0 sd
0 slj
0 slc
n 8.727200 22.900000 m 5.000000 22.900000 l 5.000000 38.700000 l 12.363200 38.700000 l s
[] 0 sd
0 slj
0 slc
1.000000 1.000000 1.000000 srgb
n 12.363200 38.700000 m 11.663200 38.940000 l 10.963200 38.700000 l 11.663200 38.460000 l f
0.100000 slw
[] 0 sd
0 slj
0 slc
0.000000 0.000000 0.000000 srgb
n 12.363200 38.700000 m 11.663200 38.940000 l 10.963200 38.700000 l 11.663200 38.460000 l cp s
/Courier-latin1 ff 0.800000 scf sf
0.100000 slw
[] 0 sd
0 slj
0 slc
n 8.727200 22.100000 m 5.000000 22.100000 l 5.000000 38.700000 l 12.363200 38.700000 l s
[] 0 sd
0 slj
0 slc
1.000000 1.000000 1.000000 srgb
n 12.363200 38.700000 m 11.663200 38.940000 l 10.963200 38.700000 l 11.663200 38.460000 l f
0.100000 slw
[] 0 sd
0 slj
0 slc
0.000000 0.000000 0.000000 srgb
n 12.363200 38.700000 m 11.663200 38.940000 l 10.963200 38.700000 l 11.663200 38.460000 l cp s
/Courier-latin1 ff 0.800000 scf sf
0.100000 slw
[] 0 sd
0 slj
0 slc
n 8.727200 13.900000 m 5.000000 13.900000 l 5.000000 38.700000 l 12.363200 38.700000 l s
[] 0 sd
0 slj
0 slc
1.000000 1.000000 1.000000 srgb
n 12.363200 38.700000 m 11.663200 38.940000 l 10.963200 38.700000 l 11.663200 38.460000 l f
0.100000 slw
[] 0 sd
0 slj
0 slc
0.000000 0.000000 0.000000 srgb
n 12.363200 38.700000 m 11.663200 38.940000 l 10.963200 38.700000 l 11.663200 38.460000 l cp s
/Courier-latin1 ff 0.800000 scf sf
0.100000 slw
[] 0 sd
0 slj
0 slc
n 8.727200 13.100000 m 5.000000 13.100000 l 5.000000 38.700000 l 12.363200 38.700000 l s
[] 0 sd
0 slj
0 slc
1.000000 1.000000 1.000000 srgb
n 12.363200 38.700000 m 11.663200 38.940000 l 10.963200 38.700000 l 11.663200 38.460000 l f
0.100000 slw
[] 0 sd
0 slj
0 slc
0.000000 0.000000 0.000000 srgb
n 12.363200 38.700000 m 11.663200 38.940000 l 10.963200 38.700000 l 11.663200 38.460000 l cp s
/Courier-latin1 ff 0.800000 scf sf
0.100000 slw
[] 0 sd
0 slj
0 slc
n 8.727200 12.300000 m 5.000000 12.300000 l 5.000000 38.700000 l 12.363200 38.700000 l s
[] 0 sd
0 slj
0 slc
1.000000 1.000000 1.000000 srgb
n 12.363200 38.700000 m 11.663200 38.940000 l 10.963200 38.700000 l 11.663200 38.460000 l f
0.100000 slw
[] 0 sd
0 slj
0 slc
0.000000 0.000000 0.000000 srgb
n 12.363200 38.700000 m 11.663200 38.940000 l 10.963200 38.700000 l 11.663200 38.460000 l cp s
/Courier-latin1 ff 0.800000 scf sf
0.100000 slw
[] 0 sd
0 slj
0 slc
n 8.727200 11.500000 m 5.000000 11.500000 l 5.000000 38.700000 l 12.363200 38.700000 l s
[] 0 sd
0 slj
0 slc
1.000000 1.000000 1.000000 srgb
n 12.363200 38.700000 m 11.663200 38.940000 l 10.963200 38.700000 l 11.663200 38.460000 l f
0.100000 slw
[] 0 sd
0 slj
0 slc
0.000000 0.000000 0.000000 srgb
n 12.363200 38.700000 m 11.663200 38.940000 l 10.963200 38.700000 l 11.663200 38.460000 l cp s
/Courier-latin1 ff 0.800000 scf sf
0.100000 slw
[] 0 sd
0 slj
0 slc
n 7.515200 64.300000 m 5.000000 64.300000 l 5.000000 38.700000 l 12.363200 38.700000 l s
[] 0 sd
0 slj
0 slc
1.000000 1.000000 1.000000 srgb
n 12.363200 38.700000 m 11.663200 38.940000 l 10.963200 38.700000 l 11.663200 38.460000 l f
0.100000 slw
[] 0 sd
0 slj
0 slc
0.000000 0.000000 0.000000 srgb
n 12.363200 38.700000 m 11.663200 38.940000 l 10.963200 38.700000 l 11.663200 38.460000 l cp s
/Courier-latin1 ff 0.800000 scf sf
0.100000 slw
[] 0 sd
0 slj
0 slc
n 7.515200 67.500000 m 5.000000 67.500000 l 5.000000 38.700000 l 12.363200 38.700000 l s
[] 0 sd
0 slj
0 slc
1.000000 1.000000 1.000000 srgb
n 12.363200 38.700000 m 11.663200 38.940000 l 10.963200 38.700000 l 11.663200 38.460000 l f
0.100000 slw
[] 0 sd
0 slj
0 slc
0.000000 0.000000 0.000000 srgb
n 12.363200 38.700000 m 11.663200 38.940000 l 10.963200 38.700000 l 11.663200 38.460000 l cp s
/Courier-latin1 ff 0.800000 scf sf
0.100000 slw
[] 0 sd
0 slj
0 slc
n 7.515200 76.300000 m 5.000000 76.300000 l 5.000000 38.700000 l 12.363200 38.700000 l s
[] 0 sd
0 slj
0 slc
1.000000 1.000000 1.000000 srgb
n 12.363200 38.700000 m 11.663200 38.940000 l 10.963200 38.700000 l 11.663200 38.460000 l f
0.100000 slw
[] 0 sd
0 slj
0 slc
0.000000 0.000000 0.000000 srgb
n 12.363200 38.700000 m 11.663200 38.940000 l 10.963200 38.700000 l 11.663200 38.460000 l cp s
/Courier-latin1 ff 0.800000 scf sf
0.100000 slw
[] 0 sd
0 slj
0 slc
n 7.515200 68.300000 m 5.000000 68.300000 l 5.000000 38.700000 l 12.363200 38.700000 l s
[] 0 sd
0 slj
0 slc
1.000000 1.000000 1.000000 srgb
n 12.363200 38.700000 m 11.663200 38.940000 l 10.963200 38.700000 l 11.663200 38.460000 l f
0.100000 slw
[] 0 sd
0 slj
0 slc
0.000000 0.000000 0.000000 srgb
n 12.363200 38.700000 m 11.663200 38.940000 l 10.963200 38.700000 l 11.663200 38.460000 l cp s
/Courier-latin1 ff 0.800000 scf sf
0.100000 slw
[] 0 sd
0 slj
0 slc
n 7.515200 70.700000 m 5.000000 70.700000 l 5.000000 38.700000 l 12.363200 38.700000 l s
[] 0 sd
0 slj
0 slc
1.000000 1.000000 1.000000 srgb
n 12.363200 38.700000 m 11.663200 38.940000 l 10.963200 38.700000 l 11.663200 38.460000 l f
0.100000 slw
[] 0 sd
0 slj
0 slc
0.000000 0.000000 0.000000 srgb
n 12.363200 38.700000 m 11.663200 38.940000 l 10.963200 38.700000 l 11.663200 38.460000 l cp s
/Courier-latin1 ff 0.800000 scf sf
0.100000 slw
[] 0 sd
0 slj
0 slc
n 7.515200 71.500000 m 5.000000 71.500000 l 5.000000 38.700000 l 12.363200 38.700000 l s
[] 0 sd
0 slj
0 slc
1.000000 1.000000 1.000000 srgb
n 12.363200 38.700000 m 11.663200 38.940000 l 10.963200 38.700000 l 11.663200 38.460000 l f
0.100000 slw
[] 0 sd
0 slj
0 slc
0.000000 0.000000 0.000000 srgb
n 12.363200 38.700000 m 11.663200 38.940000 l 10.963200 38.700000 l 11.663200 38.460000 l cp s
/Courier-latin1 ff 0.800000 scf sf
0.100000 slw
[] 0 sd
0 slj
0 slc
n 7.515200 72.300000 m 5.000000 72.300000 l 5.000000 38.700000 l 12.363200 38.700000 l s
[] 0 sd
0 slj
0 slc
1.000000 1.000000 1.000000 srgb
n 12.363200 38.700000 m 11.663200 38.940000 l 10.963200 38.700000 l 11.663200 38.460000 l f
0.100000 slw
[] 0 sd
0 slj
0 slc
0.000000 0.000000 0.000000 srgb
n 12.363200 38.700000 m 11.663200 38.940000 l 10.963200 38.700000 l 11.663200 38.460000 l cp s
/Courier-latin1 ff 0.800000 scf sf
0.100000 slw
[] 0 sd
0 slj
0 slc
n 7.515200 73.100000 m 5.000000 73.100000 l 5.000000 38.700000 l 12.363200 38.700000 l s
[] 0 sd
0 slj
0 slc
1.000000 1.000000 1.000000 srgb
n 12.363200 38.700000 m 11.663200 38.940000 l 10.963200 38.700000 l 11.663200 38.460000 l f
0.100000 slw
[] 0 sd
0 slj
0 slc
0.000000 0.000000 0.000000 srgb
n 12.363200 38.700000 m 11.663200 38.940000 l 10.963200 38.700000 l 11.663200 38.460000 l cp s
/Courier-latin1 ff 0.800000 scf sf
0.100000 slw
[] 0 sd
0 slj
0 slc
n 7.515200 73.900000 m 5.000000 73.900000 l 5.000000 38.700000 l 12.363200 38.700000 l s
[] 0 sd
0 slj
0 slc
1.000000 1.000000 1.000000 srgb
n 12.363200 38.700000 m 11.663200 38.940000 l 10.963200 38.700000 l 11.663200 38.460000 l f
0.100000 slw
[] 0 sd
0 slj
0 slc
0.000000 0.000000 0.000000 srgb
n 12.363200 38.700000 m 11.663200 38.940000 l 10.963200 38.700000 l 11.663200 38.460000 l cp s
/Courier-latin1 ff 0.800000 scf sf
0.100000 slw
[] 0 sd
0 slj
0 slc
n 7.515200 74.700000 m 5.000000 74.700000 l 5.000000 38.700000 l 12.363200 38.700000 l s
[] 0 sd
0 slj
0 slc
1.000000 1.000000 1.000000 srgb
n 12.363200 38.700000 m 11.663200 38.940000 l 10.963200 38.700000 l 11.663200 38.460000 l f
0.100000 slw
[] 0 sd
0 slj
0 slc
0.000000 0.000000 0.000000 srgb
n 12.363200 38.700000 m 11.663200 38.940000 l 10.963200 38.700000 l 11.663200 38.460000 l cp s
/Courier-latin1 ff 0.800000 scf sf
0.100000 slw
[] 0 sd
0 slj
0 slc
n 7.515200 75.500000 m 5.000000 75.500000 l 5.000000 38.700000 l 12.363200 38.700000 l s
[] 0 sd
0 slj
0 slc
1.000000 1.000000 1.000000 srgb
n 12.363200 38.700000 m 11.663200 38.940000 l 10.963200 38.700000 l 11.663200 38.460000 l f
0.100000 slw
[] 0 sd
0 slj
0 slc
0.000000 0.000000 0.000000 srgb
n 12.363200 38.700000 m 11.663200 38.940000 l 10.963200 38.700000 l 11.663200 38.460000 l cp s
/Courier-latin1 ff 0.800000 scf sf
showpage
