%!PS-Adobe-2.0 EPSF-2.0
%%Title: totalFlow.eps
%%Creator: fig2dev Version 3.2 Patchlevel 3c
%%CreationDate: Sat Oct 27 17:44:25 2001
%%For: alex@interzone (Alex Twisleton-Wykeham-Fiennes)
%%BoundingBox: 0 0 179 207
%%Magnification: 1.0000
%%EndComments
/$F2psDict 200 dict def
$F2psDict begin
$F2psDict /mtrx matrix put
/col-1 {0 setgray} bind def
/col0 {0.000 0.000 0.000 srgb} bind def
/col1 {0.000 0.000 1.000 srgb} bind def
/col2 {0.000 1.000 0.000 srgb} bind def
/col3 {0.000 1.000 1.000 srgb} bind def
/col4 {1.000 0.000 0.000 srgb} bind def
/col5 {1.000 0.000 1.000 srgb} bind def
/col6 {1.000 1.000 0.000 srgb} bind def
/col7 {1.000 1.000 1.000 srgb} bind def
/col8 {0.000 0.000 0.560 srgb} bind def
/col9 {0.000 0.000 0.690 srgb} bind def
/col10 {0.000 0.000 0.820 srgb} bind def
/col11 {0.530 0.810 1.000 srgb} bind def
/col12 {0.000 0.560 0.000 srgb} bind def
/col13 {0.000 0.690 0.000 srgb} bind def
/col14 {0.000 0.820 0.000 srgb} bind def
/col15 {0.000 0.560 0.560 srgb} bind def
/col16 {0.000 0.690 0.690 srgb} bind def
/col17 {0.000 0.820 0.820 srgb} bind def
/col18 {0.560 0.000 0.000 srgb} bind def
/col19 {0.690 0.000 0.000 srgb} bind def
/col20 {0.820 0.000 0.000 srgb} bind def
/col21 {0.560 0.000 0.560 srgb} bind def
/col22 {0.690 0.000 0.690 srgb} bind def
/col23 {0.820 0.000 0.820 srgb} bind def
/col24 {0.500 0.190 0.000 srgb} bind def
/col25 {0.630 0.250 0.000 srgb} bind def
/col26 {0.750 0.380 0.000 srgb} bind def
/col27 {1.000 0.500 0.500 srgb} bind def
/col28 {1.000 0.630 0.630 srgb} bind def
/col29 {1.000 0.750 0.750 srgb} bind def
/col30 {1.000 0.880 0.880 srgb} bind def
/col31 {1.000 0.840 0.000 srgb} bind def

end
save
newpath 0 207 moveto 0 0 lineto 179 0 lineto 179 207 lineto closepath clip newpath
-109.0 316.0 translate
1 -1 scale

/cp {closepath} bind def
/ef {eofill} bind def
/gr {grestore} bind def
/gs {gsave} bind def
/sa {save} bind def
/rs {restore} bind def
/l {lineto} bind def
/m {moveto} bind def
/rm {rmoveto} bind def
/n {newpath} bind def
/s {stroke} bind def
/sh {show} bind def
/slc {setlinecap} bind def
/slj {setlinejoin} bind def
/slw {setlinewidth} bind def
/srgb {setrgbcolor} bind def
/rot {rotate} bind def
/sc {scale} bind def
/sd {setdash} bind def
/ff {findfont} bind def
/sf {setfont} bind def
/scf {scalefont} bind def
/sw {stringwidth} bind def
/tr {translate} bind def
/tnt {dup dup currentrgbcolor
  4 -2 roll dup 1 exch sub 3 -1 roll mul add
  4 -2 roll dup 1 exch sub 3 -1 roll mul add
  4 -2 roll dup 1 exch sub 3 -1 roll mul add srgb}
  bind def
/shd {dup dup currentrgbcolor 4 -2 roll mul 4 -2 roll mul
  4 -2 roll mul srgb} bind def
/$F2psBegin {$F2psDict begin /$F2psEnteredState save def} def
/$F2psEnd {$F2psEnteredState restore end} def

$F2psBegin
%%Page: 1 1
10 setmiterlimit
 0.06299 0.06299 sc
%
% Fig objects follow
%
% Polyline
7.500 slw
n 1800 1800 m 2610 1800 l 2610 2610 l 1800 2610 l
 cp gs col0 s gr 
/Times-Roman ff 180.00 scf sf
1845 1980 m
gs 1 -1 sc (1) col0 sh gr
% Polyline
n 3690 3240 m 4500 3240 l 4500 4050 l 3690 4050 l
 cp gs col0 s gr 
% Polyline
n 2700 1800 m 4500 1800 l 4500 2430 l 2700 2430 l
 cp gs col0 s gr 
% Polyline
n 2700 2520 m 2700 2700 l 1800 2700 l 1800 3150 l 4500 3150 l 4500 2520 l

 2700 2520 l  cp gs col0 s gr 
% Polyline
n 3600 3960 m 3600 4140 l 4500 4140 l 4500 4590 l 1800 4590 l 1800 3960 l

 3600 3960 l  cp gs col0 s gr 
% Polyline
n 1800 4680 m 4500 4680 l 4500 4950 l 1800 4950 l
 cp gs col0 s gr 
% Polyline
 [60] 0 sd
n 1755 1755 m 4545 1755 l 4545 4995 l 1755 4995 l
 cp gs col0 s gr  [] 0 sd
% Polyline
 [60] 0 sd
n 1755 4635 m
 4545 4635 l gs col0 s gr  [] 0 sd
% Polyline
n 1800 3240 m 3600 3240 l 3600 3870 l 1800 3870 l
 cp gs col0 s gr 
/Times-Roman ff 180.00 scf sf
3735 3420 m
gs 1 -1 sc (4) col0 sh gr
/Times-Roman ff 180.00 scf sf
2745 1980 m
gs 1 -1 sc (2) col0 sh gr
/Times-Roman ff 180.00 scf sf
2745 2700 m
gs 1 -1 sc (3) col0 sh gr
/Times-Roman ff 180.00 scf sf
1845 4860 m
gs 1 -1 sc (7) col0 sh gr
/Times-Roman ff 180.00 scf sf
1845 4140 m
gs 1 -1 sc (6) col0 sh gr
/Times-Roman ff 180.00 scf sf
1845 3420 m
gs 1 -1 sc (5) col0 sh gr
$F2psEnd
rs
