#FIG 3.2
Landscape
Center
Metric
A4      
100.00
Single
-2
1200 2
6 1800 1800 2610 2610
2 2 0 1 0 7 50 0 -1 0.000 0 0 -1 0 0 5
	 1800 1800 2610 1800 2610 2610 1800 2610 1800 1800
4 0 0 50 0 0 12 0.0000 4 105 75 1845 1980 1\001
-6
2 2 0 1 0 7 50 0 -1 0.000 0 0 -1 0 0 5
	 3690 3240 4500 3240 4500 4050 3690 4050 3690 3240
2 2 0 1 0 7 50 0 -1 0.000 0 0 -1 0 0 5
	 2700 1800 4500 1800 4500 2430 2700 2430 2700 1800
2 1 0 1 0 7 50 0 -1 0.000 0 0 -1 0 0 7
	 2700 2520 2700 2700 1800 2700 1800 3150 4500 3150 4500 2520
	 2700 2520
2 1 0 1 0 7 50 0 -1 0.000 0 0 -1 0 0 7
	 3600 3960 3600 4140 4500 4140 4500 4590 1800 4590 1800 3960
	 3600 3960
2 2 0 1 0 7 50 0 -1 4.000 0 0 -1 0 0 5
	 1800 4680 4500 4680 4500 4950 1800 4950 1800 4680
2 2 1 1 0 7 50 0 -1 4.000 0 0 -1 0 0 5
	 1755 1755 4545 1755 4545 4995 1755 4995 1755 1755
2 1 1 1 0 7 50 0 -1 4.000 0 0 -1 0 0 2
	 1755 4635 4545 4635
2 2 0 1 0 7 50 0 -1 0.000 0 0 -1 0 0 5
	 1800 3240 3600 3240 3600 3870 1800 3870 1800 3240
4 0 0 50 0 0 12 0.0000 4 105 75 3735 3420 4\001
4 0 0 50 0 0 12 0.0000 4 105 75 2745 1980 2\001
4 0 0 50 0 0 12 0.0000 4 105 75 2745 2700 3\001
4 0 0 50 0 0 12 0.0000 4 105 75 1845 4860 7\001
4 0 0 50 0 0 12 0.0000 4 105 75 1845 4140 6\001
4 0 0 50 0 0 12 0.0000 4 105 75 1845 3420 5\001
