%!PS-Adobe-2.0 EPSF-2.0
%%Title: /home/alex/cord/org.cord/module/modules/GenericTextNode/doc/gtn-DesignAndImplementation/transactionNodeGroup.dia
%%Creator: Dia v0.88.1
%%CreationDate: Mon Mar 18 10:01:45 2002
%%For: a user
%%Magnification: 1.0000
%%Orientation: Portrait
%%BoundingBox: 0 0 181 171
%%Pages: 1
%%BeginSetup
%%EndSetup
%%EndComments
%%BeginProlog
[ /.notdef /.notdef /.notdef /.notdef /.notdef /.notdef /.notdef /.notdef /.notdef /.notdef
/.notdef /.notdef /.notdef /.notdef /.notdef /.notdef /.notdef /.notdef /.notdef /.notdef
/.notdef /.notdef /.notdef /.notdef /.notdef /.notdef /.notdef /.notdef /.notdef /.notdef
/.notdef /.notdef /space /exclam /quotedbl /numbersign /dollar /percent /ampersand /quoteright
/parenleft /parenright /asterisk /plus /comma /hyphen /period /slash /zero /one
/two /three /four /five /six /seven /eight /nine /colon /semicolon
/less /equal /greater /question /at /A /B /C /D /E
/F /G /H /I /J /K /L /M /N /O
/P /Q /R /S /T /U /V /W /X /Y
/Z /bracketleft /backslash /bracketright /asciicircum /underscore /quoteleft /a /b /c
/d /e /f /g /h /i /j /k /l /m
/n /o /p /q /r /s /t /u /v /w
/x /y /z /braceleft /bar /braceright /asciitilde /.notdef /.notdef /.notdef
/.notdef /.notdef /.notdef /.notdef /.notdef /.notdef /.notdef /.notdef /.notdef /.notdef
/.notdef /.notdef /.notdef /.notdef /.notdef /.notdef /.notdef /.notdef /.notdef /.notdef
/.notdef /.notdef /.notdef /.notdef /.notdef /.notdef /.notdef /.notdef /.notdef /.notdef
/space /exclamdown /cent /sterling /currency /yen /brokenbar /section /dieresis /copyright
/ordfeminine /guillemotleft /logicalnot /hyphen /registered /macron /degree /plusminus /twosuperior /threesuperior
/acute /mu /paragraph /periodcentered /cedilla /onesuperior /ordmasculine /guillemotright /onequarter /onehalf
/threequarters /questiondown /Agrave /Aacute /Acircumflex /Atilde /Adieresis /Aring /AE /Ccedilla
/Egrave /Eacute /Ecircumflex /Edieresis /Igrave /Iacute /Icircumflex /Idieresis /Eth /Ntilde
/Ograve /Oacute /Ocircumflex /Otilde /Odieresis /multiply /Oslash /Ugrave /Uacute /Ucircumflex
/Udieresis /Yacute /Thorn /germandbls /agrave /aacute /acircumflex /atilde /adieresis /aring
/ae /ccedilla /egrave /eacute /ecircumflex /edieresis /igrave /iacute /icircumflex /idieresis
/eth /ntilde /ograve /oacute /ocircumflex /otilde /odieresis /divide /oslash /ugrave
/uacute /ucircumflex /udieresis /yacute /thorn /ydieresis] /isolatin1encoding exch def
/Times-Roman-latin1
    /Times-Roman findfont
    dup length dict begin
	{1 index /FID ne {def} {pop pop} ifelse} forall
	/Encoding isolatin1encoding def
    currentdict end
definefont pop
/Times-Italic-latin1
    /Times-Italic findfont
    dup length dict begin
	{1 index /FID ne {def} {pop pop} ifelse} forall
	/Encoding isolatin1encoding def
    currentdict end
definefont pop
/Times-Bold-latin1
    /Times-Bold findfont
    dup length dict begin
	{1 index /FID ne {def} {pop pop} ifelse} forall
	/Encoding isolatin1encoding def
    currentdict end
definefont pop
/Times-BoldItalic-latin1
    /Times-BoldItalic findfont
    dup length dict begin
	{1 index /FID ne {def} {pop pop} ifelse} forall
	/Encoding isolatin1encoding def
    currentdict end
definefont pop
/AvantGarde-Book-latin1
    /AvantGarde-Book findfont
    dup length dict begin
	{1 index /FID ne {def} {pop pop} ifelse} forall
	/Encoding isolatin1encoding def
    currentdict end
definefont pop
/AvantGarde-BookOblique-latin1
    /AvantGarde-BookOblique findfont
    dup length dict begin
	{1 index /FID ne {def} {pop pop} ifelse} forall
	/Encoding isolatin1encoding def
    currentdict end
definefont pop
/AvantGarde-Demi-latin1
    /AvantGarde-Demi findfont
    dup length dict begin
	{1 index /FID ne {def} {pop pop} ifelse} forall
	/Encoding isolatin1encoding def
    currentdict end
definefont pop
/AvantGarde-DemiOblique-latin1
    /AvantGarde-DemiOblique findfont
    dup length dict begin
	{1 index /FID ne {def} {pop pop} ifelse} forall
	/Encoding isolatin1encoding def
    currentdict end
definefont pop
/Bookman-Light-latin1
    /Bookman-Light findfont
    dup length dict begin
	{1 index /FID ne {def} {pop pop} ifelse} forall
	/Encoding isolatin1encoding def
    currentdict end
definefont pop
/Bookman-LightItalic-latin1
    /Bookman-LightItalic findfont
    dup length dict begin
	{1 index /FID ne {def} {pop pop} ifelse} forall
	/Encoding isolatin1encoding def
    currentdict end
definefont pop
/Bookman-Demi-latin1
    /Bookman-Demi findfont
    dup length dict begin
	{1 index /FID ne {def} {pop pop} ifelse} forall
	/Encoding isolatin1encoding def
    currentdict end
definefont pop
/Bookman-DemiItalic-latin1
    /Bookman-DemiItalic findfont
    dup length dict begin
	{1 index /FID ne {def} {pop pop} ifelse} forall
	/Encoding isolatin1encoding def
    currentdict end
definefont pop
/Courier-latin1
    /Courier findfont
    dup length dict begin
	{1 index /FID ne {def} {pop pop} ifelse} forall
	/Encoding isolatin1encoding def
    currentdict end
definefont pop
/Courier-Oblique-latin1
    /Courier-Oblique findfont
    dup length dict begin
	{1 index /FID ne {def} {pop pop} ifelse} forall
	/Encoding isolatin1encoding def
    currentdict end
definefont pop
/Courier-Bold-latin1
    /Courier-Bold findfont
    dup length dict begin
	{1 index /FID ne {def} {pop pop} ifelse} forall
	/Encoding isolatin1encoding def
    currentdict end
definefont pop
/Courier-BoldOblique-latin1
    /Courier-BoldOblique findfont
    dup length dict begin
	{1 index /FID ne {def} {pop pop} ifelse} forall
	/Encoding isolatin1encoding def
    currentdict end
definefont pop
/Helvetica-latin1
    /Helvetica findfont
    dup length dict begin
	{1 index /FID ne {def} {pop pop} ifelse} forall
	/Encoding isolatin1encoding def
    currentdict end
definefont pop
/Helvetica-Oblique-latin1
    /Helvetica-Oblique findfont
    dup length dict begin
	{1 index /FID ne {def} {pop pop} ifelse} forall
	/Encoding isolatin1encoding def
    currentdict end
definefont pop
/Helvetica-Bold-latin1
    /Helvetica-Bold findfont
    dup length dict begin
	{1 index /FID ne {def} {pop pop} ifelse} forall
	/Encoding isolatin1encoding def
    currentdict end
definefont pop
/Helvetica-BoldOblique-latin1
    /Helvetica-BoldOblique findfont
    dup length dict begin
	{1 index /FID ne {def} {pop pop} ifelse} forall
	/Encoding isolatin1encoding def
    currentdict end
definefont pop
/Helvetica-Narrow-latin1
    /Helvetica-Narrow findfont
    dup length dict begin
	{1 index /FID ne {def} {pop pop} ifelse} forall
	/Encoding isolatin1encoding def
    currentdict end
definefont pop
/Helvetica-Narrow-Oblique-latin1
    /Helvetica-Narrow-Oblique findfont
    dup length dict begin
	{1 index /FID ne {def} {pop pop} ifelse} forall
	/Encoding isolatin1encoding def
    currentdict end
definefont pop
/Helvetica-Narrow-Bold-latin1
    /Helvetica-Narrow-Bold findfont
    dup length dict begin
	{1 index /FID ne {def} {pop pop} ifelse} forall
	/Encoding isolatin1encoding def
    currentdict end
definefont pop
/Helvetica-Narrow-BoldOblique-latin1
    /Helvetica-Narrow-BoldOblique findfont
    dup length dict begin
	{1 index /FID ne {def} {pop pop} ifelse} forall
	/Encoding isolatin1encoding def
    currentdict end
definefont pop
/NewCenturySchoolbook-Roman-latin1
    /NewCenturySchoolbook-Roman findfont
    dup length dict begin
	{1 index /FID ne {def} {pop pop} ifelse} forall
	/Encoding isolatin1encoding def
    currentdict end
definefont pop
/NewCenturySchoolbook-Italic-latin1
    /NewCenturySchoolbook-Italic findfont
    dup length dict begin
	{1 index /FID ne {def} {pop pop} ifelse} forall
	/Encoding isolatin1encoding def
    currentdict end
definefont pop
/NewCenturySchoolbook-Bold-latin1
    /NewCenturySchoolbook-Bold findfont
    dup length dict begin
	{1 index /FID ne {def} {pop pop} ifelse} forall
	/Encoding isolatin1encoding def
    currentdict end
definefont pop
/NewCenturySchoolbook-BoldItalic-latin1
    /NewCenturySchoolbook-BoldItalic findfont
    dup length dict begin
	{1 index /FID ne {def} {pop pop} ifelse} forall
	/Encoding isolatin1encoding def
    currentdict end
definefont pop
/Palatino-Roman-latin1
    /Palatino-Roman findfont
    dup length dict begin
	{1 index /FID ne {def} {pop pop} ifelse} forall
	/Encoding isolatin1encoding def
    currentdict end
definefont pop
/Palatino-Italic-latin1
    /Palatino-Italic findfont
    dup length dict begin
	{1 index /FID ne {def} {pop pop} ifelse} forall
	/Encoding isolatin1encoding def
    currentdict end
definefont pop
/Palatino-Bold-latin1
    /Palatino-Bold findfont
    dup length dict begin
	{1 index /FID ne {def} {pop pop} ifelse} forall
	/Encoding isolatin1encoding def
    currentdict end
definefont pop
/Palatino-BoldItalic-latin1
    /Palatino-BoldItalic findfont
    dup length dict begin
	{1 index /FID ne {def} {pop pop} ifelse} forall
	/Encoding isolatin1encoding def
    currentdict end
definefont pop
/Symbol-latin1
    /Symbol findfont
definefont pop
/ZapfChancery-MediumItalic-latin1
    /ZapfChancery-MediumItalic findfont
    dup length dict begin
	{1 index /FID ne {def} {pop pop} ifelse} forall
	/Encoding isolatin1encoding def
    currentdict end
definefont pop
/ZapfDingbats-latin1
    /ZapfDingbats findfont
    dup length dict begin
	{1 index /FID ne {def} {pop pop} ifelse} forall
	/Encoding isolatin1encoding def
    currentdict end
definefont pop
/cp {closepath} bind def
/c {curveto} bind def
/f {fill} bind def
/a {arc} bind def
/ef {eofill} bind def
/ex {exch} bind def
/gr {grestore} bind def
/gs {gsave} bind def
/sa {save} bind def
/rs {restore} bind def
/l {lineto} bind def
/m {moveto} bind def
/rm {rmoveto} bind def
/n {newpath} bind def
/s {stroke} bind def
/sh {show} bind def
/slc {setlinecap} bind def
/slj {setlinejoin} bind def
/slw {setlinewidth} bind def
/srgb {setrgbcolor} bind def
/rot {rotate} bind def
/sc {scale} bind def
/sd {setdash} bind def
/ff {findfont} bind def
/sf {setfont} bind def
/scf {scalefont} bind def
/sw {stringwidth pop} bind def
/tr {translate} bind def

/ellipsedict 8 dict def
ellipsedict /mtrx matrix put
/ellipse
{ ellipsedict begin
   /endangle exch def
   /startangle exch def
   /yrad exch def
   /xrad exch def
   /y exch def
   /x exch def   /savematrix mtrx currentmatrix def
   x y tr xrad yrad sc
   0 0 1 startangle endangle arc
   savematrix setmatrix
   end
} def

/mergeprocs {
dup length
3 -1 roll
dup
length
dup
5 1 roll
3 -1 roll
add
array cvx
dup
3 -1 roll
0 exch
putinterval
dup
4 2 roll
putinterval
} bind def
8.503800 -8.503800 scale
-20.950000 -22.050000 translate
%%EndProlog


1.000000 1.000000 1.000000 srgb
n 22.000000 14.000000 m 22.000000 18.000000 l 31.000000 18.000000 l 31.000000 14.000000 l f
0.100000 slw
[1.000000] 0 sd
[1.000000] 0 sd
0 slj
0.000000 0.000000 0.000000 srgb
n 22.000000 14.000000 m 22.000000 18.000000 l 31.000000 18.000000 l 31.000000 14.000000 l cp s
1.000000 1.000000 1.000000 srgb
n 22.316400 14.500000 m 22.316400 17.500000 l 30.316400 17.500000 l 30.316400 14.500000 l f
0.100000 slw
[0.200000] 0 sd
[0.200000] 0 sd
0 slj
0.000000 0.000000 0.000000 srgb
n 22.316400 14.500000 m 22.316400 17.500000 l 30.316400 17.500000 l 30.316400 14.500000 l cp s
1.000000 1.000000 1.000000 srgb
n 27.727200 9.650000 m 27.727200 12.350000 l 31.936000 12.350000 l 31.936000 9.650000 l f
0.100000 slw
[] 0 sd
[] 0 sd
0 slj
0.000000 0.000000 0.000000 srgb
n 27.727200 9.650000 m 27.727200 12.350000 l 31.936000 12.350000 l 31.936000 9.650000 l cp s
/Courier-latin1 ff 0.800000 scf sf
(Node 2) dup sw 2 div 29.831600 ex sub 11.234483 m gs 1 -1 sc sh gr
1.000000 1.000000 1.000000 srgb
n 23.000000 15.000000 m 23.000000 17.000000 l 29.632800 17.000000 l 29.632800 15.000000 l f
0.100000 slw
[] 0 sd
[] 0 sd
0 slj
0.000000 0.000000 0.000000 srgb
n 23.000000 15.000000 m 23.000000 17.000000 l 29.632800 17.000000 l 29.632800 15.000000 l cp s
/Courier-latin1 ff 0.800000 scf sf
(NodeGroup 2) dup sw 2 div 26.316400 ex sub 16.234483 m gs 1 -1 sc sh gr
1.000000 1.000000 1.000000 srgb
n 35.000000 9.000000 m 35.000000 11.000000 l 42.117600 11.000000 l 42.117600 9.000000 l f
0.100000 slw
[] 0 sd
[] 0 sd
0 slj
0.000000 0.000000 0.000000 srgb
n 35.000000 9.000000 m 35.000000 11.000000 l 42.117600 11.000000 l 42.117600 9.000000 l cp s
/Courier-latin1 ff 0.800000 scf sf
(NodeRegion 1) dup sw 2 div 38.558800 ex sub 10.234483 m gs 1 -1 sc sh gr
1.000000 1.000000 1.000000 srgb
n 21.000000 20.000000 m 21.000000 22.000000 l 25.208800 22.000000 l 25.208800 20.000000 l f
0.100000 slw
[] 0 sd
[] 0 sd
0 slj
0.000000 0.000000 0.000000 srgb
n 21.000000 20.000000 m 21.000000 22.000000 l 25.208800 22.000000 l 25.208800 20.000000 l cp s
/Courier-latin1 ff 0.800000 scf sf
(Node 3) dup sw 2 div 23.104400 ex sub 21.234483 m gs 1 -1 sc sh gr
1.000000 1.000000 1.000000 srgb
n 26.515200 5.000000 m 26.515200 7.000000 l 33.148000 7.000000 l 33.148000 5.000000 l f
0.100000 slw
[] 0 sd
[] 0 sd
0 slj
0.000000 0.000000 0.000000 srgb
n 26.515200 5.000000 m 26.515200 7.000000 l 33.148000 7.000000 l 33.148000 5.000000 l cp s
/Courier-latin1 ff 0.800000 scf sf
(NodeGroup 1) dup sw 2 div 29.831600 ex sub 6.234483 m gs 1 -1 sc sh gr
1.000000 1.000000 1.000000 srgb
n 26.000000 20.000000 m 26.000000 22.000000 l 30.208800 22.000000 l 30.208800 20.000000 l f
0.100000 slw
[] 0 sd
[] 0 sd
0 slj
0.000000 0.000000 0.000000 srgb
n 26.000000 20.000000 m 26.000000 22.000000 l 30.208800 22.000000 l 30.208800 20.000000 l cp s
/Courier-latin1 ff 0.800000 scf sf
(Node 4) dup sw 2 div 28.104400 ex sub 21.234483 m gs 1 -1 sc sh gr
1.000000 1.000000 1.000000 srgb
n 32.000000 15.000000 m 32.000000 17.000000 l 38.632800 17.000000 l 38.632800 15.000000 l f
0.100000 slw
[] 0 sd
[] 0 sd
0 slj
0.000000 0.000000 0.000000 srgb
n 32.000000 15.000000 m 32.000000 17.000000 l 38.632800 17.000000 l 38.632800 15.000000 l cp s
/Courier-latin1 ff 0.800000 scf sf
(NodeGroup 3) dup sw 2 div 35.316400 ex sub 16.234483 m gs 1 -1 sc sh gr
1.000000 1.000000 1.000000 srgb
n 36.000000 20.000000 m 36.000000 22.000000 l 40.208800 22.000000 l 40.208800 20.000000 l f
0.100000 slw
[] 0 sd
[] 0 sd
0 slj
0.000000 0.000000 0.000000 srgb
n 36.000000 20.000000 m 36.000000 22.000000 l 40.208800 22.000000 l 40.208800 20.000000 l cp s
/Courier-latin1 ff 0.800000 scf sf
(Node 6) dup sw 2 div 38.104400 ex sub 21.234483 m gs 1 -1 sc sh gr
1.000000 1.000000 1.000000 srgb
n 31.000000 20.000000 m 31.000000 22.000000 l 35.208800 22.000000 l 35.208800 20.000000 l f
0.100000 slw
[] 0 sd
[] 0 sd
0 slj
0.000000 0.000000 0.000000 srgb
n 31.000000 20.000000 m 31.000000 22.000000 l 35.208800 22.000000 l 35.208800 20.000000 l cp s
/Courier-latin1 ff 0.800000 scf sf
(Node 5) dup sw 2 div 33.104400 ex sub 21.234483 m gs 1 -1 sc sh gr
1.000000 1.000000 1.000000 srgb
n 35.000000 12.000000 m 35.000000 14.000000 l 42.117600 14.000000 l 42.117600 12.000000 l f
0.100000 slw
[] 0 sd
[] 0 sd
0 slj
0.000000 0.000000 0.000000 srgb
n 35.000000 12.000000 m 35.000000 14.000000 l 42.117600 14.000000 l 42.117600 12.000000 l cp s
/Courier-latin1 ff 0.800000 scf sf
(NodeRegion 2) dup sw 2 div 38.558800 ex sub 13.234483 m gs 1 -1 sc sh gr
0.100000 slw
[] 0 sd
[] 0 sd
0 slc
n 31.451200 11.000000 m 35.000000 10.000000 l s
0.100000 slw
[] 0 sd
[] 0 sd
0 slc
n 31.451200 11.000000 m 35.000000 13.000000 l s
0.100000 slw
[] 0 sd
[] 0 sd
0 slc
n 29.831600 7.000000 m 29.831600 10.000000 l s
0.100000 slw
[] 0 sd
[] 0 sd
0 slc
n 29.831600 12.350000 m 26.316400 15.000000 l s
0.100000 slw
[] 0 sd
[] 0 sd
0 slc
n 29.831600 12.350000 m 35.316400 15.000000 l s
0.100000 slw
[] 0 sd
[] 0 sd
0 slc
n 26.316400 17.000000 m 23.104400 20.000000 l s
0.100000 slw
[] 0 sd
[] 0 sd
0 slc
n 26.316400 17.000000 m 28.104400 20.000000 l s
0.100000 slw
[] 0 sd
[] 0 sd
0 slc
n 35.316400 17.000000 m 33.104400 20.000000 l s
0.100000 slw
[] 0 sd
[] 0 sd
0 slc
n 35.316400 17.000000 m 38.104400 20.000000 l s
1.000000 1.000000 1.000000 srgb
n 27.727200 2.000000 m 27.727200 4.000000 l 31.936000 4.000000 l 31.936000 2.000000 l f
0.100000 slw
[] 0 sd
[] 0 sd
0 slj
0.000000 0.000000 0.000000 srgb
n 27.727200 2.000000 m 27.727200 4.000000 l 31.936000 4.000000 l 31.936000 2.000000 l cp s
/Courier-latin1 ff 0.800000 scf sf
(Node 1) dup sw 2 div 29.831600 ex sub 3.234483 m gs 1 -1 sc sh gr
0.100000 slw
[] 0 sd
[] 0 sd
0 slc
n 29.831600 4.000000 m 29.831600 5.000000 l s
showpage
